Dia,Mes,etiqueta
1,1,@PRISMAciencia
2,1,@aubeva
3,1,@DivuLCC
4,1,@eeacsic
5,1,@RLimnologia
6,1,@cienciamerides
7,1,@RAEinforma
8,1,@Zientzia
9,1,@mujerconciencia
10,1,@cateterdoblej
11,1,@HerschelMuseum
12,1,@Farmaenfurecida
13,1,@la_arabes
14,1,@Antartica_ET
15,1,@IrishMathsFacts
16,1,@CSICAndalExtrem
17,1,@BenFranklinSC
18,1,@RANFarmacia
19,1,@alfredocorell
20,1,@CICancer_com
21,1,@ciencia_OK
22,1,@mncn_csic
23,1,@SaraWahedi
24,1,@ProyectoMeitner
25,1,@brionesci
26,1,@DrJennersHouse
27,1,@MuseumVideogame
28,1,@CBE_IQFR
29,1,@DeutschesMuseum
30,1,
31,1,@mujerconciencia
1,2,@Enfermerasinvi
2,2,@aranzadi
3,2,@CanadianForces
4,2,@mupal_alpuente
5,2,@legadoandalusi
6,2,@quimicafacilnet
7,2,@UxuneM
8,2,@11defebreroES
9,2,@SEContracepcion
10,2,@ricestrada
11,2,@CONICETDialoga
12,2,@GirlsinTechES
13,2,@cienciamerides
14,2,@BerkeleyLab
15,2,@Endurance_22
16,2,@mymRSME
17,2,@MartaMachoS
18,2,@DivuLCC
19,2,@DainaChaviano
20,2,@ChemistredPuck
21,2,@loretahur
25,2,@elfisicobarbudo
26,2,@Filmoteca_es
27,2,@con_k_depotasio
28,2,@monzonete
1,3,@Carrie_Catgirl
2,3,@geologoenapuros
3,3,@Shora
4,3,@Anianisotropia
5,3,@El_Pakozoico
6,3,@TeoremaPi
7,3,@Pedrodanielpg
8,3,@unicomplutense
9,3,@MAlonsoSol
10,3,@SimonPerera
11,3,@Javisburgos
12,3,@queenofquanta
13,3, @PatriLiVG
14,3,@cuestionquimica
15,3,@MartaMachoS
16,3,@eliatron
17,3,@Biologus_agri
18,3,@NoMoreMatildas
19,3,@DrLitos
20,3,@metilado
21,3,@FaruqiSomaya
22,3,@educando_ntza
23,3,@FondationLOreal
24,3,@MelliToral
25,3,@FES_Sociologia
26,3,@metilado
27,3,@sdesiensia
28,3,@pintofscienceES
29,3,@CCCientifica
30,3,@SaseAmaro
31,3,@mujerconciencia
1,4,@mymRSME
2,4,@_David_Senabre_
3,4,@lauramorron
4,4,@MolMicro_LAB
5,4,@uga_langebio
6,4,@medievalugr
7,4,@igualdade_uvigo
8,4,@MiguelonMEH
9,4,@PlanetariCs
10,4,@UBAonline
11,4,@laaljaferia
12,4,@BSAS_org
13,4,@SergioMartinGu3
14,4,@genome_gov
18,4,@GBlancoMo
19,4,@juliomulero
20,4,@Mylestring
21,4,@con_k_depotasio
22,4,@lauramorron
23,4,@emulenews
24,4,@mujerygeologia
25,4,@monzonete
26,4,@boticariagarcia
27,4,@JaSantaolalla
28,4,@estrade_sonia
29,4,@MartaMachoS
30,4,@MoureOrtega
1,5,@__Oihan
2,5,@BernardoPajares
3,5,@eliatron
4,5,@najera2000
5,5,@ABCiencias
27,5,@CireniaSketches
28,5,@AIL_limnologia
29,5,@mujerconciencia
30,5,@CommanderMLA
31,5,@microviable
1,6,@umhsapiens
2,6,@PlanetarioMad
4,6,@RAEinforma
5,6,@UniPadova
6,6,@PTITECNiCAFE
7,6,@SENeonatologia
8,6,@mininacheshire
9,6,@ocvespana
10,6,@Fungi_Cosas
11,6,@quimicafacilnet
12,6,@Girls4STEMVLC
13,6,@FJTurriano
14,6,@FulbrightSpain
15,6,@DonasangreCruzR
16,6,@ACCSTR_UF
17,6,@flynewsmagazine
18,6,@SallyRideSci
19,6,@UniversidadMH
20,6,@ChemistredPuck
21,6,@CSICdivulga
22,6,@minekafonlab
23,6,@somosMeli
24,6,@abla_sibai
25,6,@CousteauTCS
26,6,@butantanoficial
27,6,@Wellesley
28,6,@DignaEnfermeria
29,6,@BcnVih
30,6,@PeopleHelp8
1,7,@Casaarabe
2,7,@sibecol
3,7,@cuestionquimica
4,7,@SEA_astronomia
5,7,@metilado
6,7,@ztf_fct
7,7,@eeacsic
8,7,@CousteauTCS
9,7,@PeopleHelp8
10,7,@GarridoQuintin
11,7,@elfisicobarbudo
12,7,@Mylestring
13,7,@aberron
14,7,@covalmentes
15,7,@mujerconciencia
16,7,@Pedrodanielpg
17,7,@Javisburgos
18,7,@Pontebata
19,7,@pablogilah
20,7,@fugastronautica
21,7,@GeomaticaUPM
22,7,@Diego_farma
23,7,@Eurekablog
24,7,@farmagemma
25,7,@pablotres14
26,7,@FATAPUERCA
27,7,@ricestrada
28,7,@Rainmaker1973
29,7,@Ciencia_miuda
30,7,@mujerygeologia
31,7,@con_k_depotasio
4,9,@AnaBayes
5,9,@Messcobar_
6,9,@Shora
7,9,@metilado
8,9,@Biologus_agri
9,9,@educando_ntza
10,9,@ikutram
11,9,@elsegundoluz
12,9,@PatriLiVG
13,9,@QuimiTube
14,9,@cienciaytu
15,9,@germantortosa
16,9,@UCC_INTA
21,11,@ProyectoMeitner 
22,11,@fundgrierson 
23,11,@mujerconciencia 
24,11,@blognumismatico 
25,11,@SWICEU1
26,11,@FECYT_Ciencia 
27,11,@Academia_AdaSCL 
28,11,@royalsociety 
29,11,@farmagemma 
30,11,@twitamit_es 
1,12,@Crissanpor 
2,12,@twitamit_es 
3,12,@SEEA_entomol 
4,12,@NASA_es 
5,12,@ztf_fct
6,12,@pakolascerdeira
7,12,@_ICMAT 
8,12,@CanaimaGNULinux
9,12,@Casaarabe
10,12,@IGME1849 
11,12,@microviable 
12,12,@SMPM_EC 
13,12,@eeacsic 
14,12,@CIEMAT_OPI 
15,12,@parador08 
16,12,@lauramorron
17,12,@VadeAviones 
18,12,@viajepatrimonio 
19,12,@esa_es 
20,12,@quimicafacilnet 
21,12,@GEMF_RSEF 
22,12,@Dimatematicas 
23,12,@mcastigarcia 
24,12,@PRISMAciencia
25,12,@ArqueoAsturies 
26,12,@INRAE_Clermont 
27,12,@UCCiUSAL
28,12,@CienciaULL 
29,12,@iaa_csic 
30,12,@martinllade 
31,12,@ComplejoCAM 
