dia	mes	agno	personaje	Texto
1	1	2022	20220101	1 de gener de 2021. Un equip de recerca de l'IGME publica a la revista Science el primer mapa mundial d'enfonsament del terreny (subsidència) causat per l'extracció d'aigua subterrània.
2	1	2022	20220102	2 de gener de 1959. La Unió Soviètica llança la sonda Luna 1. Va ser el primer artefacte enviat a la Lluna.
3	1	2022	20220103	3 de gener de 1895. Neix l'investigador químic Josep Pascual Vila. Destaca per les seves aportacions en el camp de la química orgànica.
4	1	2022	20220104	4 de gener de 1894. Neix Évariste Lévi-Provençal, primer catedràtic de Llengua i Civilització Àrabs de la Universitat de la Sorbona. Les seves recerques són fonamentals per a l'estudi de l'Occident islàmic medieval (Magreb i al-Àndalus).
5	1	2022	20220105	5 de gener de 1955. Neix la geòloga planetària Adriana Ocampo, directora del Programa de Ciència de la NASA. Ha estat responsable de la missió de la sonda espacial Juno a Júpiter i de la missió de la New Horizons a Plutó.
6	1	2022	20220106	6 de gener de 1921. Neix la bioquímica Marianne Grunberg-Manago. Va descobrir, juntament amb Severo Ochoa, l'enzim polinucleòtid fosforilasa, una eina clau per desxifrar el codi genètic.
7	1	2022	20220107	7 de gener de 2015. Un equip de recerca de la Universitat Tarbiat Modares produeix una membrana de ceràmica impermeable amb una alta resistència tèrmica.
8	1	2022	20220108	8 de gener de 2001. La pediatra Helen Rodríguez Trías rep la Medalla Presidencial dels EUA per la seva labor per millorar la salut pública de dones i nens en poblacions minoritàries i de baixos ingressos.
9	1	2022	20220109	9 de gener de 1975. Descobreixen el lloc d'hibernació de les papallones monarca. Aquestes belles i longeves papallones migren a la tardor des del Canadà als boscos d'avets oyamel a Mèxic.
10	1	2022	20220110	10 de gener de 1897. Neix Joaquina Eguaras, investigadora a l'Escola d'Estudis Àrabs de Granada. Va ser la primera directora del Museu Arqueològic d'aquesta ciutat, així com la primera dona estudiant i professora a la Facultat de Filosofia i Lletres de la Universitat de Granada.
11	1	2022	20220111	11 de gener de 1906. Neix el químic Albert Hofmann. Va descriure l'estructura de la quitina i va demostrar els efectes psicotròpics de l'LSD mentre estudiava els alcaloides de la banya de sègol.
12	1	2022	20220112	12 de gener de 1916. Neix la química i inventora Ruth Rogan Benerito. Gran part del seu treball va estar centrat en la indústria tèxtil, com l'estudi del desgast i la rentada de teles de cotó.
13	1	2022	20220113	13 de gener de 1900. Neix l'estadística Gertrude Mary Coix. Investigadora en disseny experimental, és coneguda per la publicació del llibre Experimental Designs, juntament amb William G. Cochran.
14	1	2022	20220114	14 de gener de 1827. Neix el geògraf, botànic i estadístic Piotr Semiónov-Tian-Shanski. Va dirigir la Societat Geogràfica Russa durant més de 40 anys, i va incentivar l'exploració de l'interior d'Àsia.
15	1	2022	20220115	15 de gener de 1850. Neix la matemàtica Sofia Kovalevskaya. La seva aportació més coneguda és el teorema de Cauchy-Kovalevskaya sobre equacions diferencials.
16	1	2022	20220116	16 de gener de 1969. Els astrònoms John Cocke i Michael Disney identifiquen la component òptica del púlsar del Cranc des de l'Steward Observatory d'Arizona (EUA).
17	1	2022	20220117	17 de gener de 1955. Neix la bioquímica Katalin Karikó. Juntament amb l'immunòleg Drew Weissman, va desenvolupar la tecnologia que permet l'ús terapèutic de l'ARNm (per exemple, en les vacunes contra la COVID-19).
18	1	2022	20220118	18 de gener de 1977. Es descobreix que el bacteri Legionella pneumophila és el causant de la malaltia legionel·losi, una forma de pneumònia.
19	1	2022	20220119	19 de gener de 2006. La NASA llança la sonda espacial New Horizons, que va passar per Plutó el juliol del 2015.
20	1	2022	20220120	20 de gener de 1910. Neix la naturalista Joy Adamson. És coneguda pel seu llibre Nascuda lliure, en el qual narrava la seva experiència per salvar la lleona Elsa a Kenya.
21	1	2022	20220121	21 de gener de 1960. Mor Wu-Lien-Teh, el metge que va ser pioner en l'ús de les mascaretes per lluitar contra una pandèmia.
22	1	2022	20220122	22 de gener de 1968. Llançament de l'Apollo 5 amb el primer mòdul lunar no tripulat.
23	1	2022	20220123	23 de gener de 1918. Neix Gertrude Elion, farmacòloga guanyadora del Premi Nobel. Va ajudar a desenvolupar la zidovudina (AZT), el primer medicament contra la SIDA.
24	1	2022	20220124	24 de gener de 1950. Percy LeBaron Spencer rep la patent del seu revolucionari invent: el forn microones.
25	1	2022	20220125	25 de gener de 2006. Descobreixen l'espècie Paedocypris progenetica. Aquesta carpa endèmica de Sumatra es va convertir en el vertebrat més petit del món que es coneixia fins al moment: els exemplars més grans no superen els 10,3 mm.
26	1	2022	20220126	26 de gener de 1926. John Logie Baird mostra el primer sistema de televisió en funcionament.
27	1	2022	20220127	27 de gener de 2013. L'asteroide 274301 del cinturó principal del sistema solar rep oficialment el nom Wikipedia.
28	1	2022	20220128	28 de gener de 1754. Sir Horace Walpole encunya la paraula serendipitat. Aquest terme designa una troballa valuosa que es produeix de manera accidental o casual com, per exemple, el descobriment de la penicil·lina.
29	1	2022	20220129	29 de gener de 1953. Mor la farmacèutica Manuela Barreiro Pico. Va ser pionera per ser la primera dona matriculada en la Universitat de Santiago de Compostel·la el 1896. Després de titular-se, va haver d'insistir per obtenir el permís per exercir la professió, el qual va assolir el 1901.
30	1	2022	20220130	30 de gener de 1911. Neix l'astrònoma Marie Paris Pişmiş de Recillas. Va descobrir 20 cúmuls oberts i 3 cúmuls globulars, i va treballar en les primeres explicacions sobre l'estructura espiral de les galàxies.
31	1	2022	20220131	31 de gener de 1862. L'òptic Alvan Graham Clark, constructor de grans objectius per a telescopis refractors, descobreix la nana blanca Sírius B.
1	2	2022	20220201	1 de febrer de 1888. Neix la paleontòloga i educadora Winifred Goldring. És coneguda per la seva descripció dels estromatòlits.
2	2	2022	20220202	2 de febrer de 1897. Neix la matemàtica Gertrude Blanch. Pionera en anàlisi numèrica i computació, el 1938 es va convertir en directora tècnica del Mathematical Tables Project.
3	2	2022	20220203	3 de febrer de 2015. S'usen per primera vegada nanopartícules biodegradables per a matar cèl·lules canceroses en cervells animals. Així, es va aconseguir prolongar les seves vides.
4	2	2022	20220204	4 de febrer de 1932. Es publica la Llei Fundacional per la qual es creen les Escoles d'Estudis Àrabs de Madrid i de Granada, amb la finalitat de protegir i fomentar els estudis àrabs a Espanya.
5	2	2022	20220205	5 de febrer de 1907. Anuncien la creació del primer plàstic sintètic: la baquelita.
6	2	2022	20220206	6 de febrer de 1894. Neix la farmacèutica Zoe Rosinach Pedrol. Va ser la primera espanyola doctorada en Farmàcia, amb la tesi titulada Bacils diftèric i pseudo-diftèric.
7	2	2022	20220207	7 de febrer de 1825. Neix el zoòleg Karl August Möbius. Va introduir la noció de biocenosi –conjunt d'organismes de qualsevol espècie que conviu en un determinat espai–.
8	2	2022	20220208	8 de febrer de 2005. La localitat de Villanueva de la Sierra celebra el bicentenari de la seva Festa de l'Arbre. És considerada la primera festa documentada en homenatge als arbres. Actualment, nombrosos països celebren ja el seu Dia de l'Arbre, recordant la seva importància per lluitar contra l'efecte d'hivernacle o l'erosió.
9	2	2022	20220209	9 de febrer de 2000. La Unió Europea autoritza la vacuna Porcilis Pesti. Aquest medicament permet la immunització dels porcs enfront de la pesta porcina clàssica.
10	2	2022	20220210	10 de febrer de 1917. Neix la infermera Elvira Dávila Ortiz. Va ser pionera en la professió d'infermeria i en la transfusió de sang a Amèrica Llatina.
11	2	2022	20220211	11 de febrer de 1889. Neix la paleontòloga Ekaterina Vladimirovna Lermontova. Va ser la responsable de crear la primera estratigrafia càmbrica de Sibèria i va investigar per primera vegada els trilobits a l'antiga Unió Soviètica.
12	2	2022	20220212	12 de febrer de 1921. Neix la paleontòloga Asunción Linares. Va destacar en la seva labor docent i investigadora. Va dirigir 18 tesis doctorals i va publicar més de 100 treballs, en la seva majoria sobre ammonits.
13	2	2022	20220213	13 de febrer de 2012. Té lloc el llançament del satèl·lit gallec Xatcobeo. La seva finalitat era realitzar recerca en comunicacions i energia fotovoltaica per a satèl·lits.
14	2	2022	20220214	14 de febrer de 1862. Neix la química Agnes Pockels, pionera en el camp de la tensió superficial molecular i les monocapes.
15	2	2022	20220215	15 de febrer de 1905. Neix la psiquiatra Nise da Silveira. Destaca per la seva lluita contra les tècniques que considerava agressives cap als pacients psiquiàtrics.
16	2	2022	20220216	16 de febrer de 1880. Neix la genetista Kono Yasui. Des de 1945 va estudiar les plantes afectades per la pluja radioactiva que va seguir als bombardejos sobre Hiroshima i Nagasaki.​​​
17	2	2022	20220217	17 de febrer de 923. Mor l'historiador al-Tabari. Va escriure un dels més influents comentaris de l'Alcorà i una obra d'història universal que va servir com a model de la producció historiogràfica en àrab.
18	2	2022	20220218	18 de febrer de 1404. Neix l'arquitecte i matemàtic Leon Battista Alberti. El seu tractat sobre criptografia De Componendis Cyphris és el més antic conegut a Occident. Analitza els xifratges monoalfabètics i introdueix el primer exemple de taula de freqüències.
19	2	2022	20220219	19 de febrer de 901. Mor el matemàtic i astrònom Thábit ibn Qurra. Va realitzar destacats descobriments en àlgebra i geometria. A part de les seves obres originals, les seves traduccions del grec a l'àrab van contribuir al renaixement de la ciència clàssica.
20	2	2022	20220220	20 de febrer de 1920. Neix la química Zlata Bartl. El 1959 va crear el condiment Vegeta, que es transformaria en un dels ingredients més populars en la cuina de l'est d'Europa.
21	2	2022	20220221	21 de febrer de 1804. Acaba la fabricació de la primera locomotora a vapor autopropulsada, a Gal·les (Regne Unit).
22	2	2022	20220222	22 de febrer de 1857. Neix Heinrich Hertz, la primera persona que va produir i detectar ones de ràdio.
23	2	2022	20220223	23 de febrer de 1954. Comença la primera vacunació massiva contra la poliomielitis a l'escola de primària Arsenal (Pittsburg). L'alumnat d'aquesta escola va rebre la vacuna Salk.
24	2	2022	20220224	24 de febrer de 1871. Es publica el llibre L'origen de l'home, de Charles Darwin.
25	2	2022	20220225	25 de febrer de 1892. Neix la microbiòloga Emmy Klieneberger-Nobel. Va ser pionera en l'estudi de micoplasmes. Va descriure per primera vegada les diferències entre aquests i altres espècies de bacteris. També va descobrir els denominats bacteris amb forma L, que no tenen paret cel·lular.
26	2	2022	20220226	26 de febrer de 1935. Neix la genetista molecular Noreen Murray. Va col·laborar en el desenvolupament d'una vacuna contra l'hepatitis B, que va ser la primera vacuna genèticament modificada aprovada per a ús en persones.
27	2	2022	20220227	27 de febrer de 1930. Neix la paleontòloga Mary R. Dawson. A l'Àrtic, ella i el seu equip van descobrir els primers fòssils d'animals terrestres del Terciari i van mostrar una ruta de migració entre Amèrica i Europa, a més de donar suport a la teoria tectònica de plaques.
28	2	2022	20220228	28 de febrer de 1920. Neix la geomorfòloga Marjorie Mary Sweeting. Especialitzada en el fenomen karst, va adquirir grans coneixements sobre diferents tipografies en els seus viatges per tot el món, sobretot a la Xina.
1	3	2022	20220301	1 de març de 1960. Neix la biòloga molecular Ángela Nieto. Destaca per les seves recerques sobre la mobilitat cel·lular, que han permès entendre la manera d'alterar aquest procés.
2	3	2022	20220302	2 de març de 1779. Neix el botànic i estadista Joel Roberts Poinsett. En el seu honor es va nomenar la ponsètia, la planta associada amb el Nadal.
3	3	2022	20220303	3 de març de 1917. Neix la física Sameera Moussa. Especialista en radiació atòmica, va treballar perquè l'ús mèdic de la tecnologia nuclear estigués a l'abast de totes les persones.
4	3	2022	20220304	4 de març de 1906. Neix Eleanor Josephine Macdonald, pionera en epidemiologia i recerca del càncer. Va ser una de les primeres persones que va proposar la idea que el càncer era una malaltia prevenible.
5	3	2022	20220305	5 de març de 1914. Neix la física nuclear He Zehui. Les seves recerques sobre física nuclear inclouen treballs pioners sobre la fissió i l'anihilació positró-electró.
6	3	2022	20220306	6 de març de 2014. Descobreixen un escull de corall viu amb una superfície de 28 km² a les aigües d'Iraq.
7	3	2022	20220307	7 de març de 1917. Neix la programadora Betty Snyder Holberton. Va ser una de les sis programadores originals de la primera computadora digital de propòsit general ENIAC. També són famoses les seves contribucions al llenguatge COBOL.
8	3	2022	20220308	8 de març de 1618. Johannes Kepler descobreix la llei harmònica, la tercera llei que porta el seu nom. El seu enunciat és: "El quadrat dels períodes de l'òrbita dels planetes és proporcional al cub de la distància mitjana al Sol".
9	3	2022	20220309	9 de març de 1911. Neix Clara Rockmore, el nom de la qual està estretament lligat al theremin, l'instrument musical electrònic que va tocar durant anys i va ajudar a perfeccionar.
10	3	2022	20220310	10 de març de 1941. Neix George P. Smith. Va rebre el Premi Nobel per la seva tècnica per induir la fabricació de proteïnes per bacteris. Aquesta tècnica ha estat clau en el desenvolupament d'enzims i fàrmacs.
11	3	2022	20220311	11 de març de 1997. La Fundació Frontera Electrònica concedeix el Premi Pioner a Hedy Lamarr i George Antheil per haver desenvolupat la primera versió de l'espectre eixamplat per a  comunicacions sense fils de llargues distàncies. Aquest invent es considera un precursor del wifi. 
12	3	2022	20220312	12 de març de 1791. Mor l'arabista, bibliògraf i bibliotecari Miguel Casiri. És autor de la Bibliotheca Arabico-Hispana Escurialensis (el catàleg dels manuscrits àrabs de El Escorial).
13	3	2022	20220313	13 de març de 1941. Neix la científica ambiental Donella Meadows. Va ser especialista en dinàmica de sistemes i principal autora de l'informe Els límits del creixement. Va proposar els coneguts com dotze punts del canvi sistèmic.
14	3	2022	20220314	14 de març de 1854. Neix el metge i bacteriòleg Paul Ehrlich. Va rebre un premi Nobel juntament amb Ilya Mechnikov, en reconeixement dels seus treballs sobre immunologia.
15	3	2022	20220315	15 de març de 1813. Neix el metge John Snow, considerat el pare de l'epidemiologia moderna. Va demostrar que el consum d'aigua contaminada d'una font del Soho va causar l'epidèmia de còlera de Londres de 1854.
16	3	2022	20220316	16 de març de 1789. Neix el físic i matemàtic Georg Simon Ohm. Els seus treballs sobre electricitat van portar a l'anomenada llei d'Ohm, que relaciona la intensitat d'un corrent elèctric, la seva força electromotriu i la seva resistència.
17	3	2022	20220317	17 de març de 1805. Neix el baríton i professor de cant Manuel Patricio García. El seu interès per estudiar la veu humana li va portar a inventar un instrument per examinar la laringe: el laringoscopi.
18	3	2022	20220318	18 de març de 1964. Alexei Leonov realitza el primer passeig espacial en la missió soviètica Voskhod 2.
19	3	2022	20220319	19 de març de 1900. Neix el físic i químic Frédéric Joliot-Curie, espòs d'Irène Joliot-Curie. Davant la insistència de la seva sogra, Marie Skłodowska-Curie, es va doctorar el 1930. Cinc anys després, Irène i Frédéric van rebre el Premi Nobel pels seus treballs en la síntesi de nous elements radioactius.
20	3	2022	20220320	20 de març de 1987. Es presenta la zidovudina o AZT. Va ser el primer medicament antiretroviral indicat per a persones infectades per VIH.
21	3	2022	20220321	21 de març de 1946. Marguerite Perey defensa la seva tesi doctoral, titulada L'element 87: Actini K. La seva última frase posava nom a l'element que acabava de descobrir: el franci.
22	3	2022	20220322	22 de març de 1394. Neix el sultà, astrònom i matemàtic Ulugh Beg. Va construir l'observatori astronòmic Gurjani Zij, on va instal·lar instruments de gran grandària i precisió: entre ells, un immens sextant astronòmic de tres pisos d'altura, un dels més grans mai construït.
23	3	2022	20220323	23 de març de 1840. John William Draper realitza la que és considerada com a primera fotografia exitosa d'un astre. La Lluna va ser captada amb un daguerreotip i un telescopi reflector de 13 polzades. El temps d'exposició va ser de 20 minuts.
24	3	2022	20220324	24 de març de 2009. Té lloc el primer Dia d'Ada Lovelace, una celebració internacional sobre els assoliments de les dones en ciència, tecnologia, enginyeria i matemàtiques (STEM).
25	3	2022	20220325	25 de març de 2018. Investigadors de la Universitat de Barcelona i de l'IGME descobreixen la primera evidència de conducta de festeig sexual en col·lèmbols de fa 105 milions d'anys. Aquest grup d'artròpodes és pròxim als insectes.
26	3	2022	20220326	26 de març de 1902. Neix Marion Cameron Gray, matemàtica que va donar nom al graf de Gray.
27	3	2022	20220327	27 de març de 2014. Gràcies a les campanyes de vacunació, s'aconsegueix erradicar la poliomielitis del sud-est asiàtic.
28	3	2022	20220328	28 de març de 1927. Neix la zoòloga Theo Colborn. Va ser especialista en salut ambiental i coneguda fonamentalment pels seus estudis sobre disruptors endocrins.
29	3	2022	20220329	29 de març de 2008. A les 11 hores, té lloc el naixement legal de l'Associació Meteorològica del Sud-est (AMETSE). Es tracta d'una de les primeres xarxes d'aficionats a la ciència meteorològica d'Espanya.
30	3	2022	20220330	30 de març de 1811. Neix Robert Bunsen, inventor del cremador de Bunsen juntament amb el seu estudiant Henry Roscoe i el tècnic Peter Desaga. Aquest cremador  continua usant-se en gairebé tots els laboratoris del món.
31	3	2022	20220331	31 de març de 1927. Neix l'astrofísica Joan Feynman. És coneguda per contribuir a la comprensió de l'origen de les aurores, i per descobrir un mètode per a predir els cicles de taques solars.
1	4	2022	20220401	1 d'abril de 1885. El metge Jaume Ferran comença a inocular a València la seva vacuna contra el còlera per intentar frenar l'epidèmia que s'estenia per la ciutat. Va ser la primera vacuna contra aquesta malaltia.
2	4	2022	20220402	2 d'abril de 1647. Neix la naturalista i pintora Maria Sibylla Merian. Va ser precursora de l'entomologia moderna gràcies a les seves minucioses observacions i a les seves descripcions –il·lustrades per ella mateixa– de la metamorfosi de les papallones.
3	4	2022	20220403	3 d'abril de 1973. Martin Cooper, investigador de Motorola, realitza la primera trucada telefònica a través d'un telèfon mòbil.
4	4	2022	20220404	4 d'abril de 1785. El geòleg James Hutton ofereix la seva primera lectura pública de la Teoria de la Terra, una de les contribucions fonamentals de la Geologia.
5	4	2022	20220405	5 d'abril de 1925. Neix la genetista Janet Davison Rowley. Especialitzada en genètica humana, va identificar per primera vegada la translocació cromosòmica com la causa de la leucèmia i altres càncers.
6	4	2022	20220406	6 d'abril de 1732. Neix el botànic, matemàtic, astrònom i metge José Celestino Mutis. Va dirigir la Reial Expedició Botànica del Nou Regne de Granada (que va durar 30 anys) i va estudiar les propietats mèdiques de la quinina.
7	4	2022	20220407	7 d'abril de 1827. El químic britànic John Walker ven la primera capsa de llumins, que havia inventat l'any anterior.
8	4	2022	20220408	8 d'abril de 1917. Neix la genetista Irene Ayako Uchida. Va contribuir a la identificació de la relació entre els raigs X realitzats a dones embarassades i algunes malalties congènites.
9	4	2022	20220409	9 d'abril de 1903. Neix la física Marion Amelia Spence Ross. És coneguda pel seu treball en cristal·lografia de raigs X i dinàmica de fluids.
10	4	2022	20220410	10 d'abril de 1922. Neix la microbiòloga Nancy Fannie Millis. Va introduir tecnologies de fermentació a Austràlia i va crear el primer curs per a l'ensenyament de microbiologia aplicada en una universitat australiana.
11	4	2022	20220411	11 d'abril de 1755. Neix el metge James Parkinson. Va descobrir la paràlisi agitant o malaltia de Parkinson. Per això, en aquesta data es commemora el Dia Mundial del Parkinson.
12	4	2022	20220412	12 d'abril de 1925. Neix l'enginyera informàtica Evelyn Berezin. És coneguda com la mare dels processadors de text, ja que va desenvolupar la idea d'un programa per emmagatzemar i editar textos.
13	4	2022	20220413	13 d'abril de 2009. Mor l'arabista Julio Cortés Soroa. Va ser autor d'una de les millors traduccions de l'Alcorà al castellà i d'un diccionari àrab-espanyol que és considerat una de les obres mestres de la lexicografia bilingüe.
14	4	2022	20220414	14 d'abril de 1198. Neix l'intel·lectual andalusí Ibn Rushd, conegut com a Averroes. Entre les seves obres destaquen els comentaris de l'obra d'Aristòtil i el Llibre de les generalitats de la medicina.
15	4	2022	20220415	15 d'abril de 1874. Neix el genetista i botànic George Harrison Shull. Va conrear noves varietats pures de blat de moro i després les va creuar. Va mostrar que la descendència híbrida era més vigorosa i predictible, ideal per al cultiu comercial.
16	4	2022	20220416	16 d'abril de 1955. El filòleg Jacques Perret inventa la paraula ordinador –del francès ordinateur– en una carta dirigida a l'empresa IBM.
17	4	2022	20220417	17 d'abril de 1942. Neix la vulcanòloga Katia Krafft. Els seus reportatges gràfics van ajudar al desenvolupament de l'estudi dels volcans i a convèncer a la població de la necessitat d'evacuar zones potencialment perilloses.
18	4	2022	20220418	18 d'abril de 1955. Mor el físic Albert Einstein. Va desenvolupar la teoria de la relativitat i va deduir l'equació de física més famosa de la història: E=mc².
19	4	2022	20220419	19 d'abril de 1870. Neix la cirurgiana Vera Gedroitz. Les seves operacions mitjançant laparotomia durant la guerra russojaponesa van tenir un alt grau d'èxit. Per això, l'exèrcit rus va adoptar aquest mètode per al tractament de les ferides abdominals penetrants.
20	4	2022	20220420	20 d'abril de 1887. Neix la fitopatòloga i micòloga Margaret Newton. Va realitzar recerques pioneres sobre el rovell de la tija (Puccinia graminis), en particular pel seu efecte sobre el blat.
21	4	2022	20220421	21 d'abril de 1830. Neix la filòsofa i científica Clémence Augustine Royer. Li devem la primera traducció al francès de l'origen de les espècies, de Charles Darwin. D'aquesta manera, va introduir el darwinisme a França.
22	4	2022	20220422	22 d'abril de 1992. Mor l'horticultor i botànic Walther Haage, especialista en cactus. Va finançar expedicions per a buscar nous cactus, va realitzar hibridacions i va publicar guies per a la cura d'aquestes plantes.
23	4	2022	20220423	23 d'abril de 1941. Neix l'enginyer Ray Tomlinson, inventor del correu electrònic.
24	4	2022	20220424	24 d'abril de 1787. Neix Mateu Orfila, metge i químic espanyol considerat el pare de la toxicologia científica.
25	4	2022	20220425	25 d'abril de 1953. Watson i Crick publiquen l'estructura de l'ADN a la revista Nature, publicació per la qual van rebre el Premi Nobel el 1962. La seva col·laboradora, la física Rosalind Franklin, que no va ser llorejada en haver mort el 1958, tampoc va ser esmentada en els seus discursos d'acceptació.
26	4	2022	20220426	26 d'abril de 2016. La bioquímica espanyola Margarita Salas inaugura la sala que porta el seu nom al Museu Didàctic i Interactiu de Ciències de la Vega Baja del Segura (MUDIC-VBS-CV).
27	4	2022	20220427	27 d'abril de 1923. Neix la química Shen Tianhui. La seva recerca es va centrar en l'anàlisi de mines de terres rares i molibdè, i en la fabricació de silici superpur amb triclorosilà.
28	4	2022	20220428	28 d'abril de 1854. Neix la física i enginyera Hertha Ayrton. És coneguda pel seu treball sobre arcs elèctrics i ones en sorra i aigua.
29	4	2022	20220429	29 d'abril de 2016. Donen a conèixer l'OceanOne, un robot humanoide capaç de moure's al fons marí mitjançant l'ús de polsadors.
30	4	2022	20220430	30 d'abril de 1879. El físic J. J. Thomson anuncia el descobriment de l'electró, la primera partícula subatòmica mai descoberta.
1	5	2022	20220501	1 de maig de 1956. Joe Hin Tjio (Estació Experimental d'Aula Dei, CSIC) i Albert Levan (Universitat de Lund, Suècia) publiquen el nombre exacte de cromosomes de l'espècie humana (46) a la revista Hereditas.
2	5	2022	20220502	2 de maig de 1800. Es duu a terme la primera electròlisi de l'aigua pels químics William Nicholson i Anthony Carlisle.
3	5	2022	20220503	3 de maig de 1849. Neix la pionera de l'automoció Bertha Ringer (després Benz). Va inventar les pastilles de fre i va atreure l'atenció mundial sobre la companyia Benz Patent-Motorwagen conduint un cotxe durant una distància llarga (105 km).
4	5	2022	20220504	4 de maig de 2012. L'Enciclopedia Mecánica inventada per la mestra Ángela Ruiz Robles entra a l'exposició permanent del Museu Nacional de Ciència i Tecnologia (MUNCYT). Aquest precursor del llibre electrònic incloïa una forta perspectiva d'atenció a la diversitat, amb la possibilitat de muntar àudios i lupes per a l'alumnat amb problemes d'accés.
5	5	2022	20220505	5 de maig de 1892. Neix l'arqueòloga Annie Elizabeth Dorothy Garrod. Va treballar en nombrosos jaciments prehistòrics de Gran Bretanya, Gibraltar, la regió del Kurdistan, Orient Pròxim i Líban.
6	5	2022	20220506	6 de maig de 1882. Neix la zoòloga i ecòloga Ann Haven Morgan. Va investigar en limnologia, hibernació d'animals i altres assumptes relacionats amb l'ecologia i el medi ambient.
7	5	2022	20220507	7 de maig de 1899. Neix la bioquímica Arda Alden Green. Va realitzar importants descobriments sobre la serotonina i la bioluminescència.
8	5	2022	20220508	8 de maig de 1926. Neix el naturalista britànic David Attenborough, famós presentador de documentals de divulgació científica.
9	5	2022	20220509	9 de març de 1945. Neix el químic i viròleg Luis Enjuanes. És reconegut per dirigir el laboratori de coronavirus del Centre Nacional de Biotecnologia (CNB, CSIC).
10	5	2022	20220510	10 de maig de 1946. Neix l'etòloga Birutè Galdikas. La seva especialitat és la primatologia, concretament, els orangutans.
11	5	2022	20220511	11 de maig de 1881. Neix Theodore von Kármán, pare de l'aerodinàmica moderna i de la propulsió espacial amb combustible líquid.
12	5	2022	20220512	12 de maig de 1977. Neix la matemàtica Maryam Mirzakhani. Va ser la primera dona que va rebre la Medalla Fields, el màxim guardó que atorga la comunitat matemàtica internacional.
13	5	2022	20220513	13 de maig de 1883. Neix el metge Georgios Papanicolaou. Va desenvolupar una prova per a la detecció primerenca de càncer al coll uterí: la prova de Papanicolaou o citologia vaginal.
14	5	2022	20220514	14 de maig de 1796. El nen James Phipps es converteix en la primera persona vacunada de la història. Edward Jenner li va administrar la vacuna que havia desenvolupat contra la verola.
15	5	2022	20220515	15 de maig de 1857. Neix l'astrònoma Williamina Fleming. Va descobrir la famosa nebulosa Cap de Cavall, a més de gran quantitat de noves, nebuloses gasoses i estrelles variables.
16	5	2022	20220516	16 de maig de 1954. Neix l'oceanògrafa Cindy Lee Van Dover. Va ser la primera dona que va pilotar el submarí Alvin, el més important en la història de l'exploració oceànica.
17	5	2022	20220517	17 de maig de 2014. Descobreixen a Argentina el dinosaure Patagotitan mayorum, el més gran conegut fins al moment, amb 40 m de llarg, 20 m d'alçada i 77 tones de pes.
18	5	2022	20220518	18 de maig de 1850. Neix Oliver Heaviside. Va desenvolupar mètodes matemàtics per resoldre equacions diferencials.
19	5	2022	20220519	19 de maig de 1804. El diari El Regañón General publica l'ordre de l'alcalde de Lleó de vacunar contra la verola al seu districte. Per vèncer la desconfiança de la població i mostrar la seguretat de la vacuna, l'alcalde i el cirurgià Antonio José Fernández van fer una petita gira pels llogarets acompanyant persones ja vacunades, que a més feien de portadors de la vacuna.
20	5	2022	20220520	20 de maig de 1873. Levi Strauss i Jacob Davis van patentar el procés de posar reblons en els punts de tensió dels pantalons de treball, donant-los gran resistència. Neixen així els famosos texans blaus.
21	5	2022	20220521	21 de maig de 1799. Neix la paleontòloga Mary Anning. Va identificar el primer esquelet d'ictiosaure i va trobar els dos primers de plesiosaure, així com el primer de pterosaure fora d'Alemanya.
22	5	2022	20220522	22 de maig de 1909. Neix la il·lustradora botànica Margaret Mee. Va ser una de les primeres ecologistes que va sensibilitzar sobre l'impacte de la mineria a gran escala i la desforestació de la conca de l'Amazones.
23	5	2022	20220523	23 de maig de 1922. Neix la física i química Esther M. Conwell. Va estudiar les propietats de semiconductors i conductors orgànics, especialment el transport d'electrons.
24	5	2022	20220524	24 de maig de 1032. Segles abans de la invenció del telescopi, Ibn Sina (Avicena) observa i descriu per primera vegada el trànsit de Venus davant del Sol, un fenomen astronòmic estrany.
25	5	2022	20220525	25 de maig de 2016. Atorguen el Premi Princesa d'Astúries a Mary Beard, experta en l'estudi de la civilització romana. La seva gran tasca divulgadora ha permès apropar els clàssics al gran públic.
26	5	2022	20220526	26 de maig de 1689. Neix Mary Wortley Montagu, intel·lectual i precursora de la inoculació contra la verola, tècnica que va observar a Turquia i que va importar a Anglaterra trenta anys abans dels estudis d'Edward Jenner.
27	5	2022	20220527	27 de maig de 1332. Neix Ibn Jaldun. Considerat el precursor de la sociologia, l'antropologia i altres ciències socials, és conegut principalment per la seva Muqaddima o "Introducció" a la seva obra d'història universal, en la qual exposa la seva filosofia de la història.
28	5	2022	20220528	28 de maig de 1955. Neix Dan S. Tawfik, pioner en l'estudi dels factors que fan possible l'evolució a nivell molecular, com l'estabilitat o la promiscuïtat dels enzims.
29	5	2022	20220529	29 de maig de 1929. Neix el físic teòric Peter Higgs, qui dona nom al bosó de Higgs. Aquesta partícula elemental no posseeix spin, càrrega elèctrica o color i es desintegra ràpidament: la seva vida mitjana ronda el zeptosegon.
30	5	2022	20220530	30 de maig de 1928. Neix Nina Georgievna Vinogradova. Va descobrir com es distribueixen les espècies animals en les aigües profundes i va crear el primer mapa zoogeogràfic de l'oceà abissal.
31	5	2022	20220531	31 de maig de 1912. Neix la física Chien-Shiung Wu. Va demostrar que el principi de la paritat no es compleix a la natura.
1	6	2022	20220601	1 de juny de 1905. Neix el veterinari Max Sterne. El 1935 va preparar una vacuna atenuada contra el carboncle bacteridià o àntrax, malaltia infecciosa causada pel bacteri Bacillus anthracis.
2	6	2022	20220602	2 de juny de 1882. Neix la geòloga Ebba Hult de Geer. Al costat de Gerard de Geer, va usar argila dipositada en varves de llacs glacials com evidència de climes antics (paleoclimatologia). Això va permetre establir una història climàtica global.
3	6	2022	20220603	3 de juny de 1844. Neix el matemàtic i historiador Paul Mansion. Va realitzar publicacions sobre història de la ciència i va traduir al francès textos de famosos matemàtics, com Riemann, Plücker i Clebsch.
4	6	2022	20220604	4 de juny de 1905. Neix el filòleg i arabista Emilio García Gómez, primer director de l'Escola d'Estudis Àrabs de Granada. Va rebre el Premi Príncep d'Astúries de Comunicació i Humanitats l'any 1992.
5	6	2022	20220605	5 de juny de 1949. Neix la biòloga Susan Lindquist. És coneguda pel seu treball sobre l'estudi del plegament de proteïnes.
6	6	2022	20220606	6 de juny de 2016. L'astrofísica Rosemary Wyse rep el Premi Brouwer pel seu treball sobre galàxies de disc.
7	6	2022	20220607	7 de juny de 1933. Neix Tsuneko Okazaki, una de les primeres universitàries nipones. Al costat del seu marit Reiji, va aportar grans avanços en l'estudi de l'ADN, com el descobriment dels fragments d'Okazaki.
8	6	2022	20220608	8 de juny de 1637. René Descartes publica Discurs del Mètode, un dels treballs fonamentals en el desenvolupament de la ciència.
9	6	2022	20220609	9 de juny de 1903. Neix la bioquímica Sarah Ratner. Les seves contribucions a l'estudi del metabolisme del nitrogen van ajudar a comprendre els trastorns en la síntesi d'urea en persones.
10	6	2022	20220610	10 de juny de 940. Neix l'astrònom i matemàtic Abú al-Wafá Buzjani. És principalment conegut per les seves aportacions a la trigonometria plana i esfèrica.
11	6	2022	20220611	11 de juny de 1896. Neix la parasitóloga Eloise Blaine Cram. Va estudiar els cucs intestinals i va ser pionera en el control de l'esquistosomiasi, una malaltia endèmica en regions tropicals, causada pel paràsit Schistosoma.
12	6	2022	20220612	12 de juny de 1908. S'estrena Rotherhithe, el túnel subaquàtic de ferro més gran del món, que passa sota el Tàmesi (Londres).
13	6	2022	20220613	13 de juny de 2012. S'anuncia el mapatge de la composició del microbioma humà. Aquest resultat del Projecte Microbioma Humà (HMP) es va aconseguir mitjançant tècniques de seqüenciació de genoma i 242 persones voluntàries.
14	6	2022	20220614	14 de juny de 1897. Neix Marcelino Pascua, una de les principals figures de la salut pública, epidemiologia i bioestadística espanyoles, i un dels fundadors i alt directiu de l'OMS.
15	6	2022	20220615	15 de juny de 2021. La I edició dels Premis CSIC-Fundació BBVA de Comunicació Científica va atorgar el guardó en la categoria d'investigadors a Alfredo Corell, Margarita del Val, José Antonio López Guerrero, Ignacio López-Goñi i Antoni Trilla, per ser la veu de la ciència en la pandèmia per coronavirus i transmetre coneixement en un llenguatge accessible per al públic general.
16	6	2022	20220616	16 de juny de 2020. Mor l'arabista Federico Corriente, especialista en lexicografia i dialectologia andalusí. Va ser pioner dels estudis lingüístics sobre la llengua àrab a Espanya, així com de la semítica comparada.
17	6	2022	20220617	17 de juny de 1543. L'inventor Blasco de Garay realitza una exhibició al port de Barcelona. Aquest marí havia creat una màquina amb rodes de pales que, moguda per gent, actuava com a motor de vaixells.
18	6	2022	20220618	18 de juny de 2013. Desenvolupen hologrames 3D d'alta definició per ensenyar anatomia a estudiants de medicina.
19	6	2022	20220619	19 de juny de 1896. Neix la física i química Sonia Cotelle. Va investigar sobre el poloni i sobre l'actini en col·laboració amb Marie Skłodowska-Curie. Va determinar la semivida de l'ioni (antic nom del tori-230).
20	6	2022	20220620	20 de juny de 1894. Neix el químic i inventor Lloyd Augustus Hall. Va contribuir a la ciència de la conservació dels aliments amb patents de nous mètodes d'esterilització, curat de carns o ús d'antioxidants.
21	6	2022	20220621	21 de juny de 1809. Neix Pascual de Gayangos. Va escriure nombrosos treballs sobre arabisme, història de la literatura, catalogació i bibliografia. La seva gran obra va ser la traducció a l'anglès de la Historia de las dinastías musulmanas en España, d'al-Maqqari.
22	6	2022	20220622	22 de juny de 1850. Neix Fannie Hesse, microbiòloga i descobridora de l'agar-agar com a agent gelificant dels mitjans de cultiu en microbiologia.
23	6	2022	20220623	23 de juny de 1836. Neix Francisco Codera y Zaidín. És considerat el fundador de l'escola moderna d'arabistes espanyols. Juntament amb un grup de col·laboradors va publicar diverses fonts andalusines inèdites fins aleshores.
24	6	2022	20220624	24 de juny de 2012. Mor el Solitari George, sense deixar descendència. És considerat l'últim exemplar de tortuga gegant de Pinta (Chelonoidis abingdonii), que habitava les illes Galápagos.
25	6	2022	20220625	25 de juny de 1498. Un emperador xinès presenta el primer raspall de dents proveït de cerres. Aquests s'extreien del coll de porcs i es cosien a uns mànecs de bambú o d'os. Els mercaders van portar aquest invent a Europa.
26	6	2022	20220626	26 de juny de 2013. El transbordador espacial Shenzhou 10 de la Xina torna fora de perill a la Terra després de complir la missió tripulada més llarga de la Xina fins a la data.
27	6	2022	20220627	27 de juny de 1859. El químic francès Edmond Fremy publica el seu treball "Cutícula dels vegetals", on es descriu per primera vegada la cutina. Es tracta del polièster natural més comú.
28	6	2022	20220628	28 de juny de 1909 i 1995. Neix i mor, respectivament, el metge i investigador Francisco Grande Covián. És considerat el primer expert en nutrició d'Espanya.
29	6	2022	20220629	29 de juny de 1893. Neix Prasanta Chandra Mahalanobis. Va destacar en l'àrea d'estadística aplicada i va introduir la distància de Mahalanobis, una mesura de distància estadística molt útil perquè determina la similitud entre dues variables aleatòries multidimensionals.
30	6	2022	20220630	30 de juny de 1933. Mary Calder, paleobotànica que va estudiar plantes fòssils carboníferes i juràssiques, rep el seu doctorat de la Universitat de Glasgow.
1	7	2022	20220701	1 de juliol de 185. 8 Charles Darwin i Alfred Russel Wallace presenten la comunicació que estableix els principis de la teoria de l'evolució mitjançant la selecció natural.
2	7	2022	20220702	2 de juliol de 1911. Neix l'epidemiòloga, viròloga i pediatra Dorothy M. Horstmann. El seu treball sobre la propagació sanguínia del poliovirus va ajudar a establir les bases per a la vacuna contra la poliomielitis.
3	7	2022	20220703	3 de juliol de 1886. Neix la naturalista Elsie Maud Wakefield. Va publicar gairebé 100 articles sobre micologia i fitopatologia, on es descrivien moltes espècies vegetals noves.
4	7	2022	20220704	4 de juliol de 1854. Neix Victor Babeş, el microbiòleg romanès que va aïllar per primera vegada el protozou Babèsia.
5	7	2022	20220705	5 de juliol de 2018. Se celebra el primer Dia de l'orgull LGTBIQA+ a les disciplines de ciència, tecnologia, matemàtiques i enginyeria.
6	7	2022	20220706	6 de juliol de 1973. Mor Laurens Hammond, inventor de l'orgue Hammond. Aquest instrument es basa en els principis de l'electromagnetisme i de l'amplificació a través d'altaveus individuals.
7	7	2022	20220707	7 de juliol de 1843. Neix el metge Camillo Golgi. Va desenvolupar mètodes de tinció cel·lular per a l'estudi de les neurones. Va donar nom a l'aparell de Golgi, un orgànul present a les cèl·lules eucariotes.
8	7	2022	20220708	8 de juliol de 1925. Neix l'especialista en ciència dels aliments Alina Surmacka Szczesniak. Va desenvolupar el Sensory Texture Profile Analysis, que analitza, quantifica i col·loca en ordre correcte totes les propietats texturals percebudes des de la col·locació d'un aliment a la boca fins que s'ingereix la seva última partícula.
9	7	2022	20220709	9 de juliol de 1933. Neix el neuròleg i divulgador Oliver Sacks, autor de nombrosos llibres sobre casos de pacients amb malalties neurològiques (alguns adaptats al cinema), com Despertars.
10	7	2022	20220710	10 de juliol de 1960. Neix la microbiòloga M. Cruz Martín, experta en l'aplicació de tècniques moleculars en àrees com la microbiologia clínica, la seguretat alimentària i la biotecnologia. Va ser una pionera en l'edició de genomes bacterians.
11	7	2022	20220711	11 de juliol de 1881. Neix l'astrònoma Isabel Martin Lewis. Va treballar com "calculadora astronòmica" per a Simon Newcomb, amb qui va adquirir gran experiència sobre eclipsis. Va desenvolupar mètodes per determinar eclipsis i predir ocultacions lunars.
12	7	2022	20220712	12 de juliol de 1898. Neix la botànica Bea Schol-Schwarz. Especialitzada en fitopatologia, va ser una de les descobridores de la causa de la grafiosi: fongs del gènere Ophiostoma.
13	7	2022	20220713	13 de juliol de 1944. Neix l'escultor Ernő Rubik. Va patentar el cub màgic, un invent que es coneix actualment com el cub de Rubik.
14	7	2022	20220714	14 de juliol de 1805. El bisbe de Lleó escriu una circular a hospitals i parròquies sota el seu càrrec demanant que col·laborin en la vacunació contra la verola. En una dura carta, acusava d'homicides a les famílies que negaven la vacuna a les seves filles i fills. Aquesta vacuna, la primera de la història, va aconseguir salvar milions de vides i erradicar la malaltia.
15	7	2022	20220715	15 de juliol de 1928. Neix el microbiòleg Carl Woese. Va crear una nova classificació dels éssers vius basada en l'ARN ribosomal i va descobrir un nou domini, al qual coneixem com Archaea.
16	7	2022	20220716	16 de juliol de 1904. Neix el bioquímic Harold Dadford West. Va ser el primer que va sintetitzar l'aminoàcid treonina.
17	7	2022	20220717	17 de juliol de 1894. Neix Georges-Henri Lemaître, el físic que va proposar la teoria del Big Bang.
18	7	2022	20220718	18 de juliol de 1921. Un nadó acabat de néixer a París rep la primera vacuna BCG contra la tuberculosi. La seva mare havia mort d'aquesta malaltia després del part. Aquesta vacuna és la més antiga en ús i, fins al moment, la principal arma per erradicar aquesta malaltia.
19	7	2022	20220719	19 de juliol de 1921. Neix la biofísica Rosalyn S. Yalow. Va rebre el Premi Nobel pel desenvolupament del radioimmunoassaig de les hormones peptídiques.
20	7	2022	20220720	20 de juliol de 1804. Neix el biòleg i paleontòleg Richard Owen. Destaca pels seus treballs en anatomia comparada i la seva definició del concepte d'homologia en biologia.
21	7	2022	20220721	21 de juliol de 1932. Neix la bioquímica Audrey Stevens Niyogi. És coneguda per aïllar l'inhibidor que porta el seu nom, una proteïna que inhibeix l'ARN-polimerasa.
22	7	2022	20220722	22 de juliol de 1922. Mor Jōkichi Takamine, descobridor del procés d'extracció i cristal·lització de l'adrenalina, el qual va permetre la seva comercialització. Es va convertir en un dels primers fàrmacs d'ús massiu del segle XX.
23	7	2022	20220723	23 de juliol de 1972. Es llança el primer dels satèl·lits Landsat, destinats a l'observació de la superfície terrestre en alta resolució. La científica Valerie Thomas va supervisar el desenvolupament dels primers programes de processament de les imatges del Landsat.
24	7	2022	20220724	24 de juliol de 2018. Un equip del CSIC i l'IGME descobreix una nova falla al mar d'Alborán, en els límits entre les plaques tectòniques Euroasiàtica i Africana.
25	7	2022	20220725	25 de juliol de 1956. Neix l'enginyera química Frances Arnold. Va guanyar el Premi Nobel de Química per desenvolupar l'evolució dirigida d'enzims.
26	7	2022	20220726	26 de juliol de 1886. Neix la cristal·lògrafa i geòloga Mary Winearls Porter. És coneguda per les seves contribucions a la cristal·lografia i les seves publicacions sobre arquitectura romana antiga.
27	7	2022	20220727	27 de juliol de 1982. Proposen el terme SIDA (síndrome d'immunodeficiència adquirida) per nomenar el conjunt de malalties causades per la infecció amb el virus de la immunodeficiència humana (VIH).
28	7	2022	20220728	28 de juliol de 1923. Neix l'especialista en ciències de la computació Xia Peisu. Va desenvolupar el model 107, el primer ordinador electrònic multipropòsit de la Xina. És coneguda com la mare de la computació en aquest país.
29	7	2022	20220729	29 de juliol de 1936. Neix la bioquímica Phoebe Starfield Leboy. Va investigar sobre modificacions d'àcids nucleics i regeneració d'ossos amb cèl·lules mare adultes. Això la va col·locar a l'avantguarda de l'epigenètica i la medicina regenerativa.
30	7	2022	20220730	30 de juliol de 1886. Neix la metgessa i reformadora social Muthulakshmi Reddi. Va recomanar la inspecció mèdica sistemàtica de l'alumnat a les escoles, va impulsar la investigació en càncer i va recolzar accions a favor de la igualtat entre dones i homes.
31	7	2022	20220731	31 de juliol de 2008. La NASA anuncia el descobriment d'aigua al planeta Mart.
1	8	2022	20220801	1 d'agost de 2001. Rita Levi-Montalcini, neurobiòloga guanyadora del Premi Nobel, és nomenada senadora vitalícia al parlament italià.
2	8	2022	20220802	2 d'agost de 1904. Neix l'arabista Salvador Vila Hernández. Va investigar sobre institucions i formularis notarials de l'Espanya musulmana. Va ser director de l'Escola d'Estudis Àrabs (CSIC) i rector de la Universitat de Granada.
3	8	2022	20220803	3 d'agost de 1927. S'estableix una unió telefònica sense fils entre Berlín i Buenos Aires.
4	8	2022	20220804	4 d'agost de 1693. Data tradicionalment atribuïda a la descoberta del xampany pel monjo Dom Pérignon.
5	8	2022	20220805	5 d'agost de 1969. La sonda espacial nord-americana Mariner 7 emet noves fotos del planeta Mart. Van ser les imatges més clares obtingudes fins aleshores.
6	8	2022	20220806	6 d'agost de 1924. Neix la bioquímica Winifred Watkins. Va investigar sobre la ciència de la sang i els grups sanguinis. Va rebre diversos premis per les seves contribucions a la transfusió de sang.
7	8	2022	20220807	7 d'agost de 2015. Mor la farmacòloga Frances Oldham Kelsey. Supervisora de la Food and Drug Administration (Estats Units), es va negar a autoritzar la venda del fàrmac talidomida perquè va dubtar de la seva seguretat.
8	8	2022	20220808	8 d'agost de 2013. Proven una nova vacuna contra la malària amb un índex d'eficàcia de fins al 100%.
9	8	2022	20220809	9 d'agost de 1794. Neix el zoòleg Achille Valenciennes. Els seus estudis sobre els paràsits d'éssers humans representen una important contribució a la parasitologia.
10	8	2022	20220810	10 d'agost de 1937. George Beauchamp rep la seva patent de la guitarra elèctrica. Encara que el nom oficial era Rickenbacker Electro A-22, aquesta guitarra es va conèixer com la paella.
11	8	2022	20220811	11 d'agost de 2020. Es registra Gam-COVID-Vac, més coneguda com a Sputnik V. Es tracta de la primera vacuna contra la COVID-19 que va ser autoritzada al món.
12	8	2022	20220812	12 d'agost de 1990. La paleontòloga Sue Hendrickson descobreix Sue, l'espècimen més gran i millor conservat de Tyrannosaurus rex mai trobat.
13	8	2022	20220813	13 d'agost de 2008. Mor la bioquímica Anna Macleod. El 1975 va ser nomenada la primera professora d'elaboració de cervesa del món.
14	8	2022	20220814	14 d'agost de 1991. El físic Paul Ginsparg llança un butlletí electrònic per a l'intercanvi d'articles encara no publicats en un subcamp de física teòrica d'alta energia. Avui és el conegut repositori arXiv.
15	8	2022	20220815	15 d'agost de 201. 7 Francisco Juan Martínez Mojica, Emmanuelle Charpentier, Jennifer Doudna, Luciano Marraffini i Feng Zhang reben el Premi del Centre Mèdic Albany. Aquest guardó és un dels més prestigiosos en medicina i investigació biomèdica i va reconèixer el seu paper en el desenvolupament de les tecnologies CRISPR per edició del genoma.
16	8	2022	20220816	16 d'agost de 1849. Neix el químic Johan Kjeldahl. Va desenvolupar un mètode d'anàlisi per determinar la quantitat de nitrogen en compostos orgànics. Es va anomenar mètode Kjeldahl en honor seu.
17	8	2022	20220817	17 d'agost de 1970. Té lloc el llançament de Venera 7, el primer vehicle espacial que va transmetre amb èxit dades des de la superfície d'un altre planeta (Venus).
18	8	2022	20220818	18 d'agost de 198. 7 Aproven la primera prova en persones d'una vacuna candidata contra el virus de la immunodeficiència humana (VIH).
19	8	2022	20220819	19 d'agost de 1839. Louis Daguerre anuncia la invenció del procés fotogràfic anomenat daguerreotip, el primer que va permetre la fixació permanent d'una imatge.
20	8	2022	20220820	20 d'agost de 1911. Neix la viròloga Isabel Morgan. Va participar en el desenvolupament d'una vacuna que protegia micos contra la poliomielitis, un pas clau en la carrera per eradicar aquesta malaltia.
21	8	2022	20220821	21 d'agost de 1874. Neix Eleanor Davies-Colley, una de les primeres cirurgianes que va operar al Regne Unit i fundadora de l'Hospital de Dones i Nens del Sud de Londres.
22	8	2022	20220822	22 d'agost de 1934. Neix el físic i astrònom Samuel Pierpont Langley. Va inventar el bolòmetre, que mesura la quantitat total de radiació electromagnètica que ve d'un objecte en totes les longituds d'ona.
23	8	2022	20220823	23 d'agost de 1917. Neix la bioquímica i farmacòloga Marjorie Horning. Va ser pionera en cromatografia desenvolupant noves tècniques per a l'estudi del metabolisme dels fàrmacs.
24	8	2022	20220824	24 d'agost de 2006. La Unió Astronòmica Internacional aprova la nova definició de planeta. Excloent a Plutó, el nombre de planetes del sistema solar es va reduir de nou a vuit.
25	8	2022	20220825	25 d'agost de 1858. Es descobreix el tresor de Guarrazar, una de les majors troballes arqueològiques vinculades als visigots. Entre altres peces, destaquen les magnífiques corones votives.
26	8	2022	20220826	26 d'agost de 865. Neix el metge i escriptor Abū Bakr Muhammad ibn Zakarīyā al-Rāzī, conegut com al-Razi. Va escriure al-Hawi, una colossal enciclopèdia mèdica, i va realitzar la primera destil·lació de petroli per obtenir querosens. Se'l considera descobridor de l'àcid sulfúric i de l'etanol, així com de l'ús d'aquest últim en medicina.
27	8	2022	20220827	27 d'agost de 1947. Neix la viròloga Flossie Wong-Staal. Va ser la primera persona que va clonar el virus d'immunodeficiència humana (VIH) i determinar la funció dels seus gens, un pas clau per demostrar que era la causa de la SIDA.
28	8	2022	20220828	28 d'agost de 1927. Neix la bioquímica Betty Twarog. Va ser la primera persona que va trobar serotonina al cervell de mamífers.
29	8	2022	20220829	29 d'agost de 1914. Neix el físic-químic Bernard Vonnegut. Va descobrir que el iodur de plata pot utilitzar-se com a agent de nucleació per sembrar núvols.
30	8	2022	20220830	30 d'agost de 1919. Neix el microbiòleg Maurice Hilleman. Va desenvolupar unes 40 vacunes, algunes tan rellevants com les del xarampió, les galteres, l'hepatitis A, l'hepatitis B, la varicel·la, la meningitis, la pneumònia i la de l'Haemophilus influenzae.
31	8	2022	20220831	31 d'agost de 1909. Sahachiro Hata injecta arsfenamina a un conill amb sífilis: l'endemà, estava curat. Es va aconseguir així un dels primers medicaments per curar una malaltia infecciosa d'alta mortalitat.
1	9	2022	20220901	1 de setembre de 1979. La sonda Pioneer 11 es converteix en la primera que visita el planeta Saturn, al qual sobrevola des de 21.000 quilòmetres.
2	9	2022	20220902	2 de setembre de 2020. Científiques de la Universitat de Toronto troben microfibres blaves procedents de roba texana en l'aigua de l'Àrtic. També van revelar que un únic texà allibera al voltant de 50.000 partícules diminutes per rentada.
3	9	2022	20220903	3 de setembre de 1992. Mor la botànica Barbara McClintock. Va rebre el Premi Nobel pels seus descobriments en el camp de la transposició genètica.
4	9	2022	20220904	4 de setembre de 1939. Alan Turing comença a treballar a Bletchley Park, on van desxifrar els codis secrets alemanys a la Segona Guerra Mundial.
5	9	2022	20220905	5 de setembre de 2012. L'astronauta Akihiko Hoshide es fa el seu famós selfie mentre orbitava al voltant de la Terra a l'Estació Espacial Internacional. La foto, en la qual es veu el Sol al fons, es va fer viral a les xarxes socials.
6	9	2022	20220906	6 de setembre de 1929. Neix la física Ljubov Rebane. Va introduir l'espectroscòpia per làser a l'ensenyament, i va formar a tota una generació d'especialistes en la matèria.
7	9	2022	20220907	7 de setembre de 1936. Mor el darrer tigre de Tasmània. El seu nom era Benjamin, però se sospita que era una femella. Cada 7 de setembre, Austràlia commemora el Dia de les Espècies Amenaçades.
8	9	2022	20220908	8 de setembre de 1954. El metge i viròleg Jonas Salk presenta la seva vacuna contra la poliomielitis. Va ser fonamental en l'erradicació d'aquesta malaltia altament mortal.
9	9	2022	20220909	9 de setembre de 1947. Es registra el primer cas d'un error informàtic: una arna atrapada en el relé de l'ordinador Mark II de la Universitat de Harvard.
10	9	2022	20220910	10 de setembre de 1926. Neix el microbiòleg Thomas Brock. Va estudiar els bacteris que viuen a molt alta temperatura a Yellowstone. El seu treball va ser base per al desenvolupament de la reacció en cadena de la polimerasa (PCR).
11	9	2022	20220911	11 de setembre de 1884. Neix el físic Harvey Fletcher. Va realitzar nombroses contribucions en acústica i se li atribueix la invenció de l'audiòfon.
12	9	2022	20220912	12 de setembre de 1957. La revista The New England Journal of Medicine publica els resultats dels 6 primers trasplantaments de medul·la òssia, una tècnica que permet tractar la leucèmia o el mieloma múltiple. El seu autor, E. Donnall Thomas, va rebre el Premi Nobel el 1990.
13	9	2022	20220913	13 de setembre de 1853. Neix el bacteriòleg Hans Christian Gram. Va desenvolupar la tinció de Gram, una tinció diferencial empleada per visualitzar i diferenciar bacteris.
14	9	2022	20220914	14 de setembre de 1912. Neix la bioquímica Kamala Sohonie. Va investigar els efectes de les vitamines i els valors nutritius dels llegums, l'arròs i altres aliments consumits pels sectors més pobres de l'Índia.
15	9	2022	20220915	15 de setembre de 1830. S'inaugura la primera línia de ferrocarril interurbana del món (Liverpool-Manchester).
16	9	2022	20220916	16 de setembre de 2015. Dins del projecte SISMOSIMA, Raúl Pérez (IGME) descendeix a l'avenc del Vapor, el més calent del món. Aquest avenc d'Alhama de Murcia està sobre la falla que va causar el terratrèmol de 2011 a Lorca.
17	9	2022	20220917	17 de setembre de 1801. Neix l'orientalista i lexicògraf Edward William Lane. És conegut per la seva descripció de la vida a Egipte i l'Arabic-English Lexicon, un dels millors diccionaris d'àrab a una llengua europea.
18	9	2022	20220918	18 de setembre de 1982. Mor el paleontòleg i antropòleg Pei Wenzhong. Va ser responsable de l'excavació que va trobar l'Homo erectus pekinensis el 1929, una troballa clau per a donar suport a la teoria de l'evolució.
19	9	2022	20220919	19 de setembre de 1915. Neix l'anatomopatòloga Elizabeth Stern. Va ser una de les primeres persones que es va especialitzar en citopatologia, la disciplina que estudia les alteracions de les cèl·lules extretes de diferents zones del cos.
20	9	2022	20220920	20 de setembre de 1952. Es publiquen els resultats de l'experiment d'Alfred Hershey i Martha Chase. Aquest informe confirmava que l'ADN és la base del material genètic (i no les proteïnes).
21	9	2022	20220921	21 de setembre de 1895. Neix Juan de la Cierva, l'enginyer i aviador que va inventar l'autogir, el precursor de l'helicòpter.
22	9	2022	20220922	22 de setembre de 1896. Neix la bioquímica Dorothy M. Needham. És coneguda sobretot pel seu treball sobre la bioquímica del múscul.
23	9	2022	20220923	23 de setembre de 1869. Neix Mary Mallon, coneguda com a María Tifoidea. Va ser identificada com la primera portadora asimptomàtica de bacteris causants de la febre tifoidal. Va viure la resta de la seva vida en quarantena.
24	9	2022	20220924	24 de setembre de 2000. Es commemora el primer Dia Mundial de la Recerca en Càncer. El seu objectiu és crear consciència i mobilitzar a la societat per avançar en la prevenció i el control d'aquesta malaltia.
25	9	2022	20220925	25 de setembre de 1893. Neix la fisiòloga Elizabeth M. Bright. Al costat de l'oceanògraf Alfred C. Redfield, va estudiar els efectes de la radiació en alguns animals com el Nereis, un cuc marí.
26	9	2022	20220926	26 de setembre de 1940. Neix la bioquímica Louise Napier Johnson. Va investigar, mitjançant la tècnica de cristal·lografia de raigs X, l'enzim glucogen fosforilasa.
27	9	2022	20220927	27 de setembre de 1962. La biòloga marina Rachel Carson publica el llibre Silent Spring, que va fer canviar l'actitud sobre l'ús indiscriminat de pesticides.
28	9	2022	20220928	28 de setembre de 1895. Mor el químic Louis Pasteur, inventor de la pasteurització. Aquest mètode permet el control dels microorganismes en líquids, com la llet.
29	9	2022	20220929	29 de setembre de 1511. Neix el teòleg i científic Miguel Servet, conegut per la seva descripció de la circulació pulmonar. Va ser arrestat a Suïssa i condemnat a morir a la foguera el 1543.
30	9	2022	20220930	30 de setembre de 1886. Neix el veterinari i biòleg Gaston Ramon. El seu treball va ser clau per al desenvolupament de vacunes eficaces contra la diftèria i el tètanus.
1	10	2022	20221001	1 d'octubre de 1912. Neix la matemàtica i educadora Kathleen Ollerenshaw. Va ser especialista en quadrats màgics, on la suma dels números per columnes, files i diagonals principals és la mateixa.
2	10	2022	20221002	2 d'octubre de 1846. Neix la metgessa i educadora Eliza Maria Mosher. Va ser pionera en medicina postural i sistemes anatòmics: va dissenyar seients per a tramvies o una cadira anatòmica per a guarderies.
3	10	2022	20221003	3 d'octubre de 2005. Els metges Marshall i Warren guanyen el Premi Nobel per descobrir que el bacteri Helicobacter pylori causa les úlceres gàstriques. Davant l'escepticisme de la comunitat científica, Marshall va demostrar la seva hipòtesi inoculant-se a si mateix amb aquest bacteri.
4	10	2022	20221004	4 d'octubre de 1971. S'adopta el mol –unitat amb la qual es mesura la quantitat de substància– com a mesura química, i s'afegeix a les sis unitats bàsiques del Sistema Internacional d'Unitats (SI).
5	10	2022	20221005	5 d'octubre de 1958. Neix l'astrofísic i divulgador científic Neil deGrasse Tyson. Els seus llibres han apropat les ciències espacials al gran públic.
6	10	2022	20221006	6 d'octubre de 1907. Neix l'embriòloga Salome Gluecksohn Waelsch. És considerada una de les fundadores de la genètica del desenvolupament.
7	10	2022	20221007	7 d'octubre de 1952. Es publica la patent US #2,612,994, dels inventors Joseph Woodland i Bernard Silver: era la d'un primitiu codi de barres.
8	10	2022	20221008	8 d'octubre de 2015. La NASA anuncia que New Horizons ha detectat aigua congelada i un cel blau a Plutó.
9	10	2022	20221009	9 d'octubre de 1410. Primer esment al rellotge astronòmic de Praga. El seu quadrant astronòmic té forma d'astrolabi i mostra les 24 hores del dia, les posicions al cel del Sol i de la Lluna i altres detalls astronòmics.
10	10	2022	20221010	10 d'octubre de 1865. John Wesley Hyatt patenta el cel·luloide, un plàstic utilitzat per produir les pel·lícules de cinema.
11	10	2022	20221011	11 d'octubre de 1910. Neix el matemàtic Cahit Arf. Va desenvolupar un bon nombre de conceptes que porten el seu nom, com l'anell d'Arf, els semigrups d'Arf, l'invariant d'Arf o el teorema de Hasse-Arf.
12	10	2022	20221012	12 d'octubre de 1889. Neix Jorge Loring Martínez. Va inventar nous aeroplans i va fundar CETA, la primera aerolínia espanyola per al transport de passatgers.
13	10	2022	20221013	13 d'octubre de 1986. Arriben a Espanya les restes mortals del científic Pío del Río Hortega, mort a l'exili a Argentina el 1945. És conegut per descobrir la micròglia, un tipus de cèl·lula del sistema nerviós.
14	10	2022	20221014	14 d'octubre de 1100. Mor Ibn al-Zarqalluh (Azarquiel), el més important astrònom andalusí. Les seves obres, traduïdes al llatí per Gerardo de Cremona, van gaudir d'àmplia difusió a l'Europa medieval.
15	10	2022	20221015	15 d'octubre de 1949. Christopher Polge comunica que el glicerol permet la congelació d'espermatozoides, anunci que va marcar l'inici de les tècniques de reproducció assistida.
16	10	2022	20221016	16 d'octubre de 2012. L'astrofísic Xavier Dumusque i col·laboradors anuncien el descobriment del planeta extrasolar Alpha Centauri Bb. Es troba al sistema estel·lar triple Alfa Centauri.
17	10	2022	20221017	17 d'octubre de 1934. Mor Santiago Ramón y Cajal, el primer Premi Nobel espanyol en ciències. El guardó se li va concedir pel seu estudi sobre l'estructura del sistema nerviós.
18	10	2022	20221018	18 d'octubre de 1872. Neix la metgessa Laura Rodríguez Dulanto. El 1900 es va convertir en la primera dona que va obtenir el títol de metgessa cirurgiana del Perú​. La seva iniciativa va obrir el camí a altres dones del país.
19	10	2022	20221019	19 d'octubre de 1862. Neix l'inventor Auguste Lumière. Al costat del seu germà Louis, va crear el cinematògraf, una màquina pionera capaç de filmar i projectar imatges en moviment.
20	10	2022	20221020	20 d'octubre de 1900. S'inaugura el Boston Symphony Hall, la primera sala de concerts dissenyada utilitzant paràmetres acústics. Considerada una de les millors del món, el seu dissenyador va ser el físic Wallace Clement Sabine.
21	10	2022	20221021	21 d'octubre de 2016. LETIPharma presenta la vacuna contra la leishmaniosi canina (LetiFend), basada en una proteïna recombinant i que permet distingir vacunats d'infectats. Aquesta zoonosi afecta gossos i humans.
22	10	2022	20221022	22 d'octubre de 1951. Es crea la Junta d'Energia Nuclear (JEN) a partir de la Junta de Recerques Atòmiques. Comença la recerca de materials radioactius a Espanya.
23	10	2022	20221023	23 d'octubre de 2022. Se celebra el Dia del Mol, entre les 06.02 (06.02 AM) i les 18.02 (06.02 PM).
24	10	2022	20221024	24 d'octubre de 2010. Enrique Peñalver (IGME) i Jean Gaudant (Museu Nacional d'Història Natural de França) descobreixen un nou peix de fa 10 milions d'anys. Es va anomenar Aphanius bicorbensis en honor de la població de Bicorb (València).
25	10	2022	20221025	25 d'octubre de 1921. Neix la biòloga Marian Koshland. Va descobrir que les diferències en els aminoàcids dels anticossos expliquen l'eficiència i l'eficàcia amb la qual combaten als invasors externs.
26	10	2022	20221026	26 d'octubre de 1920. Neix l'astrònoma Sarah Lee Lippincott. Ha estat pionera en l'ús de l'astrometria per a determinar el caràcter de les estrelles binàries i la cerca de planetes extrasolars.
27	10	2022	20221027	27 d'octubre de 1953. Mor l'agrònoma i fisiòloga vegetal Winifred Elsie Brenchley. El seu treball en l'Estació Experimental de Rothamsted va permetre, entre altres, millorar la tècnica de cultiu de plantes en hidroponia.
28	10	2022	20221028	28 d'octubre de 2011. La NASA llança el satèl·lit Suomi NPP amb la missió de realitzar observacions climatològiques de la Terra.
29	10	2022	20221029	29 d'octubre de 1933. Mor Albert Calmette, descobridor d'una forma atenuada de Mycobacterium tuberculosis (bacil de Calmette-Guerin) que es va emprar en la vacuna per a la tuberculosi.
30	10	2022	20221030	30 d'octubre de 1929. Neix la matemàtica Regina Iosifovna Tyshkevich. Especialista en teoria de grafs, és coinventora de la noció de grafs dividits.
31	10	2022	20221031	31 d'octubre de 2002. El Vaticà rehabilita Galileu 359 anys després que fos condemnat.
1	11	2022	20221101	1 de novembre de 1945. Neix la física química Milliana Kroumova Kaisheva. És coneguda pel seu treball en electroquímica i química de col·loides.
2	11	2022	20221102	2 de novembre de 2010. Descobreixen la primera pel·lícula sonora en espanyol a la Biblioteca del Congrés dels Estats Units. En aquesta, Concha Piquer interpreta diverses cançons, com una jota, un cuplet o un fado.
3	11	2022	20221103	3 de novembre de 1854. Neix Jōkichi Takamine, inventor de la Taka-diastasa, el primer enzim industrialitzat. Es va obtenir del fong Aspergillus i permetia accelerar la fermentació de begudes alcohòliques i facilitar les digestions pesades.
4	11	2022	20221104	4 de novembre de 1942. Neix la metgessa i inventora Patricia Bath. Va ser la primera dona afroamericana que va rebre una patent amb finalitats mèdiques. El seu Laserphaco Probe s'usa per tractar les cataractes.
5	11	2022	20221105	5 de novembre de 1927. Neix l'estadístic Hirotsugu Akaike. Va formular el criteri d'informació d'Akaike (AIC), molt utilitzat per a mesurar la qualitat relativa d'un model estadístic.
6	11	2022	20221106	6 de novembre de 1988. Neix la científica de la computació Alexandra Elbakyan. En 2011 va crear Sci-Hub, un lloc web que permet l'accés gratuït a multitud d'articles científics.
7	11	2022	20221107	7 de novembre de 1905. Leonardo Torres Quevedo realitza la primera demostració del telekino, un autòmat controlat a distància. Va ser una fita de l'enginyeria per ser el primer aparell amb radiodirecció de la història.
8	11	2022	20221108	8 de novembre de 1968. Mor la química i farmacèutica Chika Kuroda. Va contribuir a desenvolupar el fàrmac antihipertensiu Kerutin C, estudiant la pigmentació de la pell de ceba i extraient-ne cristalls de quercetina.
9	11	2022	20221109	9 de novembre de 1910. Neix la metgessa Eugenia Sacerdote de Lustig. Va ser la primera persona que es va vacunar contra la poliomielitis a Argentina, inoculant-se en públic ella mateixa i als seus fills per a convèncer a la població dels beneficis de la vacuna.
10	11	2022	20221110	10 de novembre de 1887. Neix Elisa Leonida Zamfirescu, la primera enginyera romanesa i una de les primeres del món. Va dirigir els laboratoris de l'Institut Geològic de Romania.
11	11	2022	20221111	11 de novembre de 2006. Mor Esther Lederberg, descobridora del fag lambda, que infecta a E. coli. Per aquesta troballa, clau per al desenvolupament de l'enginyeria genètica, se la considera la mare d'aquesta disciplina.
12	11	2022	20221112	12 de novembre de 1910. Neix el matemàtic Hua Luogeng. Encara que mai va tenir una educació universitària formal, el seu talent matemàtic li va permetre escriure nombrosos articles que s'han convertit en clàssics.
13	11	2022	20221113	13 de novembre de 1715. Neix la metgessa Dorothea Erxleben. Es va inspirar en Laura Bassi per a lluitar pel seu dret a practicar la medicina i es va convertir en la primera dona que va obtenir un doctorat en aquesta disciplina a Alemanya.
14	11	2022	20221114	14 de novembre de 1889. Neix l'escriptor Taha Hussein, fundador de l'Institut Egipci d'Estudis Islàmics a Madrid. Aquest centre fomenta la recerca en els camps de la cultura àrab, andalusina i hispana i actua com a pont d'entesa entre les dues ribes del Mediterrani.
15	11	2022	20221115	15 de novembre de 1313. Neix el metge, escriptor i polític andalusí Ibn al-Jatib. Va escriure més de 70 obres, que inclouen un tractat sobre l'epidèmia de pesta. Els seus poemes adornen l'Alhambra de Granada.
16	11	2022	20221116	16 de novembre de 2015. La matemàtica afroamericana Katherine Johnson rep la Medalla de la Llibertat de mans de Barack Obama. Els seus càlculs de mecànica orbital van ser fonamentals per a l'èxit de la NASA.
17	11	2022	20221117	17 de novembre de 1881. Neix la informàtica astronòmica i sismòloga Ethel Bellamy. Va ajudar a catalogar la posició del voltant d'un milió d'estrelles des de l'Observatori Radcliffe d'Oxford.
18	11	2022	20221118	18 de novembre de 1906. Neix la física teòrica Wang Ming-chen. És reconeguda pels seus treballs sobre processos estocàstics i moviment brownià.
19	11	2022	20221119	19 de novembre de 1887. Neix el bioquímic James Batcheller Sumner. Va rebre el Premi Nobel per desenvolupar mètodes per a cristal·litzar enzims en forma pura. Gràcies a ells sabem que els enzims són proteïnes.
20	11	2022	20221120	20 de novembre de 1885. Neix l'enginyera Olive Wetzel Dennis. Els seus dissenys revolucionaris van canviar la naturalesa dels viatges en ferrocarril.
21	11	2022	20221121	21 de novembre de 1932. S'inaugura l'Escola d'Estudis Àrabs de Granada. El seu primer director va ser l'arabista Emilio García Gómez. El 1939 es va integrar al CSIC.
22	11	2022	20221122	22 de novembre de 1864. Neix la metgessa Rukhmabai. Va ser una de les primeres metgesses de l'Índia colonial. Va dirigir l'Hospital de Dones de Surat i va establir la Societat de la Creu Roja a Rajkot.
23	11	2022	20221123	23 de novembre de 1924. Edwin Hubble publica el seu descobriment de què Andròmeda era una galàxia (no una nebulosa). Això demostrava que la Via Làctia no era l'única galàxia de l'univers.
24	11	2022	20221124	24 de novembre de 1895. Neix la geòloga i paleontòloga Esther Applin. Va ser pionera en l'ús de microfòssils per a datar les formacions rocoses. Aquesta informació es va utilizar per a buscar petroli al golf de Mèxic.
25	11	2022	20221125	25 de novembre de 2008. El Premi Nobel de Física George Smoot inaugura el Museu Didàctic i Interactiu de Ciències de la Vega Baja del Segura de la Comunitat Valenciana (MUDIC-VBS-CV).
26	11	2022	20221126	26 de novembre de 1894. Neix el matemàtic Norbert Wiener. Se'l considera fundador de la cibernètica com una nova ciència.
27	11	2022	20221127	27 de novembre de 1911. Neix la pediatra Fe Villanueva del Mundo. Va destacar pel seu treball pioner sobre malalties infeccioses a les comunitats filipines.
28	11	2022	20221128	28 de novembre de 1991. Mor la bioquímica Lu Gwei-djen. Experta en la història de la ciència i la tecnologia a la Xina, també va ser metgessa especialitzada en nutriologia.
29	11	2022	20221129	29 de novembre de 1920. Neix el químic tèxtil Joseph Shivers. És sobretot conegut pel seu paper en el desenvolupament de l'Spandex o elastà, una fibra de gran elasticitat i resistència.
30	11	2022	20221130	30 de novembre de 1803. Salpa de La Corunya la Real Expedició Filantròpica de la Vacuna, dirigida per Francisco Javier Balmis. En la corbeta María Pita viatjaven la infermera Isabel Zendal i 22 orfes que portarien la vacuna pel món.
1	12	2022	20221201	1 de desembre de 2007. Mor June Almeida, la viròloga pionera en nous mètodes d'identificació i captació d'imatges de virus. Va ser la primera persona que va veure un coronavirus sota el microscopi.
2	12	2022	20221202	2 de desembre de 2012. Mor el dissenyador industrial Gabriel Lluelles. Va inventar la Minipimer, una de les primeres batedores de mà, el nom de la qual s'utilitza per denominar comunament a aquests instruments.
3	12	2022	20221203	3 de desembre de 1930. Neix Sara Rietti, la primera química nuclear argentina. Va estudiar els hidrurs de bor (als quals anomenava els seus borans), que s'utilitzen en la indústria aeroespacial.
4	12	2022	20221204	4 de desembre de 1927. Neix la neuropediatra Isabelle Rapin. Va ser un referent científic en l'estudi dels trastorns de l'espectre autista.
5	12	2022	20221205	5 de desembre de 1822. Neix la naturalista i educadora Elizabeth Cabot Agassiz. Va realitzar expedicions científiques al costat del seu marit Louis, amb el qual va fundar el laboratori marí Anderson School of Natural History.
6	12	2022	20221206	6 de desembre de 1877. Thomas Edison efectua el primer enregistrament en un cilindre de fonògraf. Aquest aparell podia tant gravar com reproduir el so.
7	12	2022	20221207	7 de desembre de 1921. Neix Valerie Hunter Gordon. Va inventar el Paddi, un sistema doble de bolquer d'un sol ús i de coberta rentable (el primer d'aquest tipus), i el Nikini, un antecedent de les compreses higièniques.
8	12	2022	20221208	8 de desembre de 1920. Neix la farmacèutica Ester de Camargo Fonseca Moraes. Va ser pionera en la implantació de la toxicologia al Brasil, on va establir un laboratori antidopatge.
9	12	2022	20221209	9 de desembre de 1748. Neix el químic Claude Louis Berthollet. Va estudiar les propietats decolorants del clor i va desenvolupar un mètode per blanquejar teles usant una solució d'hipoclorit de sodi: el lleixiu.
10	12	2022	20221210	10 de desembre de 2017. Investigadors de l'IGME i la Universitat d'Oxford descriuen una nova paparra: la Deinocroton draculi o paparra terrible de Drácula. Parasitava als dinosaures als seus nius o prop d'aquests.
11	12	2022	20221211	11 de desembre de 1913. Otto Rohm patenta el primer detergent amb enzims: Burnus. Va agafar la idea de la seva esposa, qui va suggerir que els extractes que dissolen el greix abans d'adobar les pells podrien dissoldre també les taques a les teles. Avui dia tots els detergents porten enzims.
12	12	2022	20221212	12 de desembre de 1927. Neix Robert Noyce, l'enginyer que va inventar el microxip. Va rebre el malnom d'alcalde de Silicon Valley.
13	12	2022	20221213	13 de desembre de 1204. Mor l'influent filòsof sefardita Ibn Maymun (Maimònides). Va destacar en els camps de la medicina i l'astronomia, i va ser un referent per a la ciència i la filosofia de l'època.
14	12	2022	20221214	14 de desembre de 1546. Neix l'astrònom Tycho Brahe. Se'l considera un dels més grans observadors del cel abans de la invenció del telescopi.
15	12	2022	20221215	15 de desembre de 2017. Neix l'astrònoma Tamara Smirnova. Va descobrir 135 asteroides, a més del cometa periòdic 74P/Smirnova-Chernykh, al costat de l'astrònom Nikolái Chernyj.
16	12	2022	20221216	16 de desembre de 1901. Neix l'antropòloga Margaret Mead. Va posar en dubte la visió biologicista que prevalia en les ciències socials, segons la qual s'establia una divisió del treball familiar per suposades diferències innates entre el comportament productiu dels homes i l'expressiu de les dones.
17	12	2022	20221217	17 de desembre de 1813. Mor l'agrònom i higienista Antoine Parmentier. Gràcies al seu treball, es van anul·lar les lleis que prohibien el cultiu de la patata. Fins llavors, gairebé tots els països europeus consideraven que la patata no era comestible.
18	12	2022	20221218	18 de desembre de 1926. Gilbert N. Lewis usa per primera vegada el terme fotó per a descriure el comportament corpuscular de la llum.
19	12	2022	20221219	19 de desembre de 2016. S'inicia PanAfGeo, el major projecte internacional desenvolupat entre els serveis geològics europeus i africans. En ell participa l'IGME.
20	12	2022	20221220	20 de desembre de 1900. El cometa 21P/Giacobini-Zinner va ser albirat per primera vegada. En 1985 es va convertir en el primer cometa que va ser visitat per una nau espacial.
21	12	2022	20221221	21 de desembre de 1901. S'estudia per primera vegada la influència del canvi climàtic sobre el gel submarí. Aquesta recerca es realitza en el marc del projecte EXPLOSEA, liderat per l'IGME.
22	12	2022	20221222	22 de desembre de 1943. Mor Beatrix Potter. A més d'escriptora i il·lustradora de contes infantils, va ser una de les primeres persones que va conrear fongs a partir de les seves espores. Va postular que la floridura és un estadi més del creixement dels fongs, i no un organisme diferent.
23	12	2022	20221223	23 de desembre de 1805. Mor l'escriptora i anatomista Geneviève Charlotte Thiroux d’Arconville. És coneguda pels seus estudis sobre la putrefacció, que va recopilar al seu Essai pour servir à l’histoire de la putréfaction (1766).
24	12	2022	20221224	24 de desembre de 1891. Neix Marguerite Thomas Williams, la primera geòloga afroamericana que va doctorar-se als EUA, quan els drets de la població negra ni tan sols estaven reconeguts. La seva tesi va demostrar que l'activitat humana com a modeladora del paisatge estava lligada a les tràgiques inundacions sofertes al riu Anacostia.
25	12	2022	20221225	25 de desembre de 1938. Mor l'escriptor de ciència-ficció Karel Čapek. Va popularitzar la paraula robot en la seva obra de teatre R. U. R. (1920).
26	12	2022	20221226	26 de desembre de 1791. Neix el matemàtic Charles Babbage. Va dissenyar la primera màquina de càlcul programable. Encara que no va poder ser construïda, avui es considera predecessora dels ordinadors.
27	12	2022	20221227	27 de desembre de 2020. Araceli Hidalgo, de 96 anys, es converteix en la primera persona vacunada contra la COVID-19 a Espanya.
28	12	2022	20221228	28 de desembre de 1957. Comencen a emprar la vacuna Salk a Espanya. Va ser la primera vacuna efectiva contra la poliomielitis.
29	12	2022	20221229	29 de desembre de 1952. Es posa a la venda el primer audiòfon amb transistor. El seu cost era de 300 dòlars.
30	12	2022	20221230	30 de desembre de 1924. Neix l'enginyera aeroespacial Yvonne Madelaine Brill. Va patentar un sistema de propulsió amb hidracina per mantenir un satèl·lit en òrbita geoestacionària fixa durant més temps que altres mètodes.
31	12	2022	20221231	31 de desembre de 1909. Mónico Sánchez patenta el primer aparell portàtil de raigs X i corrents d'alta freqüència.
