dia	mes	agno	personaje	Texto
1	1	2022	20220101	1 de janvier de 2021. Une équipe de recherche de l'IGME publie dans la revue Science la première carte au monde des affaissements de terrain causés par l'extraction des eaux souterraines.
2	1	2022	20220102	2 de janvier de 1959. L'Union soviétique lance la sonde Luna 1. C'était le premier appareil envoyé sur la Lune.
3	1	2022	20220103	3 de janvier de 1895. Naissance du chercheur chimiste Josep Pascual Vila. Il est connu pour ses contributions dans le domaine de la chimie organique.
4	1	2022	20220104	4 de janvier de 1894. Naissance d'Évariste Lévi-Provençal, premier professeur de langue et civilisation arabes à la Sorbonne. Ses recherches sont fondamentales pour l'étude de l'Occident islamique médiéval (Maghreb et al-Andalus)
5	1	2022	20220105	5 de janvier de 1955. Naissance de la géologue planétaire Adriana Ocampo, directrice du programme scientifique de la NASA. Elle a été responsable de la mission de la sonde spatiale Juno vers Jupiter et de la mission New Horizons vers Pluton.
6	1	2022	20220106	6 de janvier de 1921. Naissance de la biochimiste Marianne Grunberg-Manago. Avec Severo Ochoa, elle a découvert l'enzyme polynucléotide phosphorylase, un outil clé pour déchiffrer le code génétique.
7	1	2022	20220107	7 de janvier de 2015. Une équipe de recherche de l'université Tarbiat Modares produit une membrane céramique étanche à l'eau et à haute résistance thermique.
8	1	2022	20220108	8 de janvier de 2001. La pédiatre Helen Rodríguez Trías reçoit la Médaille Présidentielle des États-Unis pour ses travaux visant à améliorer la santé publique des femmes et des enfants des populations à faible revenu et des minorités.
9	1	2022	20220109	9 de janvier de 1975. Découverte du site d'hibernation du papillon monarque. Ces magnifiques papillons à la longue durée de vie migrent en automne du Canada vers les forêts d'oyamels du Mexique.
10	1	2022	20220110	10 de janvier de 1897. Naissance de Joaquina Eguaras, chercheuse à l'École d'études arabes de Grenade. Elle a été la première directrice du musée archéologique de la ville, ainsi que la première femme étudiante et chargée de cours à la faculté de philosophie et de lettres de l'université de Grenade.
11	1	2022	20220111	11 de janvier de 1906. Naissance du chimiste Albert Hofmann. Il a décrit la structure de la chitine et démontré les effets psychotropes du LSD en étudiant les alcaloïdes de l'ergot de seigle.
12	1	2022	20220112	12 de janvier de 1916. Naissance de la chimiste et inventrice Ruth Rogan Benerito. Une grande partie de son travail était axée sur l'industrie textile, comme l'étude de l'usure et du lavage des tissus en coton.
13	1	2022	20220113	13 de janvier de 1900. Naissance de la statisticienne Gertrude Mary Cox. Chercheuse en conception expérimentale, elle est connue pour la publication du livre Experimental Designs, en collaboration avec William G. Cochran.
14	1	2022	20220114	14 de janvier de 1827. Naissance du géographe, botaniste et statisticien Pyotr Semyonov-Tian-Shansky. Il a dirigé la Société russe de géographie pendant plus de 40 ans et a encouragé l'exploration de l'intérieur de l'Asie.
15	1	2022	20220115	15 de janvier de 1850. Naissance de la mathématicienne Sofia Kovalevskaya. Sa contribution la plus connue est le théorème Cauchy-Kovalevskaya sur les équations différentielles.
16	1	2022	20220116	16 de janvier de 1969. Les astronomes John Cocke et Michael Disney identifient la composante optique du pulsar du Crabe depuis l'Observatoire Steward en Arizona (USA).
17	1	2022	20220117	17 de janvier de 1955. Naissance de la biochimiste Katalin Karikó. Avec l'immunologiste Drew Weissman, elle développe la technologie qui permet l'utilisation thérapeutique de l'ARNm (par exemple, dans les vaccins contre le COVID-19).
18	1	2022	20220118	18 de janvier de 1977. On découvre que la bactérie Legionella pneumophila est responsable de la légionellose, une forme de pneumonie.
19	1	2022	20220119	19 de janvier de 2006. La NASA lance la sonde spatiale New Horizons, qui est passée devant Pluton en juillet 2015.
20	1	2022	20220120	20 de janvier de 1910. Naissance de la naturaliste Joy Adamson. Elle est surtout connue pour son livre Born Free, dans lequel elle raconte son expérience de sauvetage de la lionne Elsa au Kenya.
21	1	2022	20220121	21 de janvier de 1960. Mort de Wu-Lien-Teh, le premier médecin à utiliser des masques faciaux pour combattre une pandémie.
22	1	2022	20220122	22 de janvier de 1968. Lancement d'Apollo 5 avec le premier module lunaire non habité.
23	1	2022	20220123	23 de janvier de 1918. Naissance de Gertrude Elion, pharmacologue lauréate du prix Nobel. A contribué au développement de la zidovudine (AZT), le premier médicament contre le sida.
24	1	2022	20220124	24 de janvier de 1950. Percy LeBaron Spencer reçoit le brevet pour son invention révolutionnaire : le four à micro-ondes.
25	1	2022	20220125	25 de janvier de 2006. Découverte de l'espèce Paedocypris progenetica. Cette carpe endémique de Sumatra est devenue le plus petit vertébré jamais connu au monde : les plus grands spécimens ne dépassent pas 10,3 mm.
26	1	2022	20220126	26 de janvier de 1926. John Logie Baird fait la démonstration du premier système de télévision fonctionnel.
27	1	2022	20220127	27 de janvier de 2013. L'astéroïde 274301, situé dans la ceinture principale du système solaire, est officiellement nommé Wikipédia.
28	1	2022	20220128	28 de janvier de 1754. Sir Horace Walpole a inventé le mot sérendipité. Ce terme désigne une découverte précieuse qui survient par accident ou par hasard, comme la découverte de la pénicilline.
29	1	2022	20220129	29 de janvier de 1953. Mort de la pharmacienne Manuela Barreiro Pico. Elle a été une pionnière, étant la première femme à s'inscrire à l'université de Saint-Jacques-de-Compostelle en 1896. Après avoir obtenu son diplôme, elle a dû insister pour obtenir l'autorisation d'exercer la profession, ce qu'elle a obtenu en 1901.
30	1	2022	20220130	30 de janvier de 1911. Naissance de l'astronome Marie Paris Pişmiş de Recillas. Elle a découvert 20 amas ouverts et 3 amas globulaires, et a travaillé sur les premières explications de la structure spirale des galaxies.
31	1	2022	20220131	31 de janvier de 1862. L'opticien Alvan Graham Clark, constructeur de grandes lentilles pour les télescopes réfracteurs, découvre la naine blanche Sirius B.
1	2	2022	20220201	1 de février de 1888. Naissance de la paléontologue et éducatrice Winifred Goldring. Elle est connue pour sa description des stromatolites.
2	2	2022	20220202	2 de février de 1897. Naissance de la mathématicienne Gertrude Blanch. Pionnière de l'analyse et du calcul numériques, elle est devenue directrice technique du projet de tables mathématiques en 1938.
3	2	2022	20220203	3 de février de 2015. Des nanoparticules biodégradables sont utilisées pour la première fois pour tuer des cellules cancéreuses dans le cerveau des animaux. Cela a permis de prolonger leur vie.
4	2	2022	20220204	4 de février de 1932. La Loi Fondatrice est publiée, créant les Écoles d'Études Arabes de Madrid et de Grenade, dans le but de protéger et de promouvoir les études arabes en Espagne.
5	2	2022	20220205	5 de février de 1907. La création du premier plastique synthétique, la bakélite, est annoncée.
6	2	2022	20220206	6 de février de 1894. Naissance de la pharmacienne Zoe Rosinach Pedrol. Elle a été la première femme espagnole à recevoir un doctorat en pharmacie, avec une thèse intitulée Bacilles diphthérique et pseudo-diphthérique.
7	2	2022	20220207	7 de février de 1825. Naissance du zoologiste Karl August Möbius. Il a introduit la notion de biocénose - un ensemble d'organismes d'une même espèce vivant ensemble dans un espace donné-.
8	2	2022	20220208	8 de février de 2005. La ville de Villanueva de la Sierra célèbre le bicentenaire de sa Fête de l'Arbre. On considère qu'il s'agit du premier festival documenté en hommage aux arbres. Aujourd'hui, de nombreux pays célèbrent leur Journée de l'Arbre, rappelant leur importance dans la lutte contre l'effet de serre et l'érosion.
9	2	2022	20220209	9 de février de 2000. L'Union Européenne autorise le vaccin Porcilis Pesti. Ce médicament permet d'immuniser les porcs contre la peste porcine classique.
10	2	2022	20220210	10 de février de 1917. Naissance de l'infirmière Elvira Dávila Ortiz. Elle a été une pionnière de la profession d'infirmière et de la transfusion sanguine en Amérique Latine.
11	2	2022	20220211	11 de février de 1889. Naissance de la paléontologue Ekaterina Vladimirovna Lermontova. Elle est à l'origine de la première stratigraphie du Cambrien en Sibérie et a étudié les trilobites pour la première fois dans l'ancienne Union soviétique.
12	2	2022	20220212	12 de février de 1921. Naissance de la paléontologue Asunción Linares. Elle était une enseignante et chercheuse exceptionnelle. Elle a supervisé 18 thèses de doctorat et publié plus de 100 articles, principalement sur les ammonites.
13	2	2022	20220213	13 de février de 2012. Le satellite galicien Xatcobeo a été lancé. Son but était de mener des recherches sur les communications et l'énergie photovoltaïque pour les satellites.
14	2	2022	20220214	14 de février de 1862. Naissance de la chimiste Agnes Pockels, pionnière dans le domaine de la tension superficielle moléculaire et des monocouches.
15	2	2022	20220215	15 de février de 1905. Naissance de la psychiatre Nise da Silveira. Elle est connue pour son combat contre les techniques qu'elle jugeait agressives envers les patients psychiatriques.
16	2	2022	20220216	16 de février de 1880. Naissance du généticien Kono Yasui. À partir de 1945, elle a étudié les plantes affectées par les retombées radioactives consécutives aux bombardements d'Hiroshima et de Nagasaki.
17	2	2022	20220217	17 de février de 923. Mort d l'historien al-Tabari. Il a écrit l'un des commentaires les plus influents sur le Coran et un ouvrage d'histoire mondiale qui a servi de modèle à la production historiographique en arabe.
18	2	2022	20220218	18 de février de 1404. Naissance de l'architecte et mathématicien Leon Battista Alberti. Son traité sur la cryptographie, De Componendis Cyphris, est le plus ancien connu en Occident. Il analyse les chiffres monoalphabétiques et présente le premier exemple de table de fréquence.
19	2	2022	20220219	19 de février de 901. Mort du mathématicien et astronome Thábit ibn Qurra. Il a fait des découvertes remarquables en algèbre et en géométrie. Outre ses œuvres originales, ses traductions du grec vers l'arabe ont contribué à la renaissance de la science classique.
20	2	2022	20220220	20 de février de 1920. Naissance de la chimiste Zlata Bartl. En 1959, elle crée l'assaisonnement Vegeta, qui deviendra l'un des ingrédients les plus populaires de la cuisine d'Europe de l'Est.
21	2	2022	20220221	21 de février de 1804. La production de la première locomotive à vapeur automotrice est achevée au Pays de Galles (Royaume-Uni).
22	2	2022	20220222	22 de février de 1857. Naissance de Heinrich Hertz, la première personne à produire et à détecter des ondes radio.
23	2	2022	20220223	23 de février de 1954. La première vaccination de masse contre la polio commence à l'école primaire Arsenal (Pittsburgh). Les élèves de cette école ont reçu le vaccin Salk.
24	2	2022	20220224	24 de février de 1871. Publication de L'origine de l'homme de Charles Darwin.
25	2	2022	20220225	25 de février de 1892. Naissance de la microbiologiste Emmy Klieneberger-Nobel. Elle a été une pionnière à étudier les mycoplasmes. Elle a décrit pour la première fois les différences entre ces espèces et d'autres bactéries. Elle a également découvert les bactéries dites en forme de L, qui n'ont pas de paroi cellulaire.
26	2	2022	20220226	26 de février de 1935. Naissance de la généticienne moléculaire Noreen Murray. Elle a collaboré au développement d'un vaccin contre l'hépatite B, qui a été le premier vaccin génétiquement modifié dont l'utilisation chez les humaines a été approuvée.
27	2	2022	20220227	27 de février de 1930. Naissance de la paléontologue Mary R. Dawson. Dans l'Arctique, elle et son équipe ont découvert les premiers fossiles d'animaux terrestres du Tertiaire et ont mis en évidence une voie de migration entre l'Amérique et l'Europe, touten soutenant la théorie de la tectonique des plaques.
28	2	2022	20220228	28 de février de 1920. Naissance de la géomorphologue Marjorie Mary Sweeting. Spécialisée dans les phénomènes karstiques, elle a acquis une grande connaissance des différentes typographies lors de ses voyages à travers le monde, notamment en Chine.
1	3	2022	20220301	1 de mars de 1960. Naissance de la biologiste moléculaire Ángela Nieto. Elle est connue pour ses recherches sur la motilité cellulaire, qui ont permis de comprendre comment modifier ce processus.
2	3	2022	20220302	2 de mars de 1779. Naissance du botaniste et homme d'État Joel Roberts Poinsett. Le poinsettia, la plante associée à Noël, est nommé en son honneur.
3	3	2022	20220303	3 de mars de 1917. Naissance de la physicienne Sameera Moussa. Spécialiste des radiations atomiques, elle a œuvré pour que l'utilisation médicale de la technologie nucléaire soit accessible à tous.
4	3	2022	20220304	4 de mars de 1906. Naissance d'Eleanor Josephine Macdonald, pionnière de l'épidémiologie et de la recherche sur le cancer. Elle a été l'une des premières personnes à avancer l'idée que le cancer était une maladie évitable.
5	3	2022	20220305	5 de mars de 1914. Naissance de la physicienne nucléaire He Zehui. Ses recherches en physique nucléaire comprennent des travaux pionniers sur la fission et l'annihilation positron-électron.
6	3	2022	20220306	6 de mars de 2014. Un récif corallien vivant d'une superficie de 28 km2 est découvert dans les eaux irakiennes.
7	3	2022	20220307	7 de mars de 1917. Naissance de la programmeuse Betty Snyder Holberton. Elle était l'un des six programmeuses originales du premier ordinateur numérique à usage général ENIAC. Elle est également célèbre pour ses contributions au langage COBOL.
8	3	2022	20220308	8 de mars de 1618. Johannes Kepler découvre la loi harmonique, la troisième loi qui porte son nom. Elle indique : "Le carré des périodes des orbites des planètes est proportionnel au cube de la distance moyenne au Soleil".
9	3	2022	20220309	9 de mars de 1911. Naissance de Clara Rockmore, dont le nom est étroitement lié au thérémine, l'instrument de musique électronique dont elle a joué pendant des années et qu'elle a contribué à perfectionner.
10	3	2022	20220310	10 de mars de 1941. Naissance de George P. Smith. Il reçoit le prix Nobel pour sa technique visant à induire la fabrication de protéines par des bactéries. Cette technique a été déterminante pour le développement d'enzymes et de médicaments.
11	3	2022	20220311	11 de mars de 1997. L'Electronic Frontier Foundation décerne le Prix Pioneer à Hedy Lamarr et George Antheil pour avoir développé la première version du spectre étalé pour les communications sans fil à longue distance. Cette invention est considérée comme un précurseur du Wi-Fi.
12	3	2022	20220312	12 de mars de 1791. Mort de l'arabisant, bibliographe et bibliothécaire Miguel Casiri. Il est l'auteur de la Bibliotheca Arabico-Hispana Escurialensis (le catalogue des manuscrits arabes de l'Escorial).
13	3	2022	20220313	13 de mars de 1941. Naissance de la spécialiste de l'environnement Donella Meadows. Spécialiste de la dynamique des systèmes, elle est le principal auteur du rapport The limits to growth. Elle a proposé ce que l'on appelle les douze points du changement systémique.
14	3	2022	20220314	14 de mars de 1854. Naissance du médecin et bactériologiste Paul Ehrlich. Il a reçu un prix Nobel, avec Ilya Mechnikov, en reconnaissance de leurs travaux sur l'immunologie.
15	3	2022	20220315	15 de mars de 1813. Naissance du médecin John Snow, considéré comme le père de l'épidémiologie moderne. Il a prouvé que la consommation d'eau contaminée provenant d'une fontaine de Soho avait provoqué l'épidémie de choléra de 1854 à Londres.
16	3	2022	20220316	16 de mars de 1789. Naissance du physicien et mathématicien Georg Simon Ohm. Ses travaux sur l'électricité ont conduit à la loi d'Ohm, qui met en relation l'intensité d'un courant électrique, sa force électromotrice et sa résistance.
17	3	2022	20220317	17 de mars de 1805. Naissance du baryton et professeur de chant Manuel Patricio García. Son intérêt pour l'étude de la voix humaine l'a amené à inventer un instrument permettant d'examiner le larynx : le laryngoscope.
18	3	2022	20220318	18 de mars de 1964. Alexei Leonov effectue la première sortie dans l'espace lors de la mission soviétique Voskhod 2.
19	3	2022	20220319	19 de mars de 1900. Naissance du physicien et chimiste Frédéric Joliot-Curie, époux d'Irène Joliot-Curie. Sur l'insistance de sa belle-mère, Marie Skłodowska-Curie, il obtient son doctorat en 1930. Cinq ans plus tard, Irène et Frédéric reçoivent le prix Nobel pour leurs travaux sur la synthèse de nouveaux éléments radioactifs.
20	3	2022	20220320	20 de mars de 1987. Introduction de la zidovudine ou AZT. Il s'agit du premier médicament antirétroviral indiqué pour les personnes infectées par le VIH.
21	3	2022	20220321	21 de mars de 1946. Marguerite Perey soutient sa thèse de doctorat, intitulée L'elément 87 : Actinium K. Sa dernière phrase nommait l'élément qu'elle venait de découvrir : le francium.
22	3	2022	20220322	22 de mars de 1394. Naissance du sultan, astronome et mathématicien Ulugh Beg. Il a construit l'observatoire astronomique Gurjani Zij, où il a installé des instruments de grande taille et précision, dont un immense sextant astronomique de trois étages, l'undes plus grands jamais construits.
23	3	2022	20220323	23 de mars de 1840. JohnWilliam Draper prend ce qui est considéré comme la première photographie réussie d'un objet céleste. La Lune a été capturée avec un daguerréotype et un télescope réflecteur de 13 pouces. Le temps d'exposition était de 20 minutes.
24	3	2022	20220324	24 de mars de 2009. La première journée Ada Lovelace, une célébration internationale des réalisations des femmes dans les domaines des sciences, de la technologie, de l'ingénierie et des mathématiques (STEM), a lieu.
25	3	2022	20220325	25 de mars de 2018. Des chercheurs de l'Université de Barcelone et de l'IGME découvrent la première preuve d'un comportement de cour sexuelle chez des collemboles datant de 105 millions d'années. Ce groupe d'arthropodes est proche des insectes.
26	3	2022	20220326	26 de mars de 1902. Naissance de Marion Cameron Gray, mathématicienne qui a donné son nom au graphique de Gray.
27	3	2022	20220327	27 de mars de 2014. Grâceaux campagnes de vaccination, la polio est éradiquée de l'Asie du Sud-Est.
28	3	2022	20220328	28 de mars de 1927. Naissance de la zoologiste Theo Colborn. Spécialiste de la santé environnementale, elle est surtout connue pour ses études sur les perturbateurs endocriniens.
29	3	2022	20220329	29 de mars de 2008. À 11heures, l'Asociación Metereológica del Sureste (AMETSE) est légalement née. Il s'agit de l'un des premiers réseaux de passionnés de la science météorologique en Espagne.
30	3	2022	20220330	30 de mars de 1811. Naissance de Robert Bunsen, inventeur du bec Bunsen avec son élève Henry Roscoe et le technicien Peter Desaga. Cet appareil est encore utilisé dans presque tous les laboratoires du monde.
31	3	2022	20220331	31 de mars de 1927. Naissance de l'astrophysicienne Joan Feynman. Elle est connue pour avoir contribué à la compréhension de l'origine des aurores boréales et pour avoir découvert une méthode de prévision des cycles des taches solaires.
1	4	2022	20220401	1 d'avril de 1885. Le médecin Jaime Ferrán commence à inoculer à Valence son vaccin contre le choléra pour tenter d'arrêter la propagation de l'épidémie dans la ville. Il s'agissait du premier vaccin contre cette maladie.
2	4	2022	20220402	2 d'avril de 1647. Naissance de la naturaliste et peintre Maria Sibylla Merian. Elle a été une pionnière de l'entomologie moderne grâce à ses observations méticuleuses et ses descriptions - illustrées par elle-même - de la métamorphose des papillons.
3	4	2022	20220403	3 d'avril de 1973. Martin Cooper, un chercheur de Motorola, effectue le premier appel téléphonique à l'aide d'un téléphone mobile.
4	4	2022	20220404	4 d'avril de 1785. Le géologue James Hutton donne sa première lecture publique de la Théorie de la Terre, l'une des contributions fondamentales de la géologie.
5	4	2022	20220405	5 d'avril de 1925. Naissance de la généticienne Janet Davison Rowley. Spécialisée dans la génétique humaine, elle a été la première à identifier la translocation chromosomique comme cause de la leucémie et d'autres cancers.
6	4	2022	20220406	6 d'avril de 1732. Naissance du botaniste, mathématicien, astronome et médecin José Celestino Mutis. Il a dirigé l'Expédition botanique royale du Nouveau Royaume de Grenade (qui a duré 30 ans) et a étudié les propriétés médicales de la quinine.
7	4	2022	20220407	7 d'avril de 1827. Le chimiste britannique John Walker vend la première boîte d'allumettes, qu'il avait inventée l'année précédente.
8	4	2022	20220408	8 d'avril de 1917. Naissance de la généticienne Irène Ayako Uchida. Elle a contribué à l'identification de la relation entre les radiographies prises chez les femmes enceintes et certaines maladies congénitales.
9	4	2022	20220409	9 d'avril de 1903. Naissance de la physicienne Marion Amelia Spence Ross. Elle est connue pour ses travaux en cristallographie aux rayons X et en dynamique des fluides.
10	4	2022	20220410	10 d'avril de 1922. Naissance de la microbiologiste Nancy Fannie Millis. Elle a introduit les technologies de fermentation en Australie et a créé le premier cours pour l'enseignement de la microbiologie appliquée dans une université australienne.
11	4	2022	20220411	11 d'avril de 1755. Naissance du médecin James Parkinson. Il a découvert la paralysie agitans ou maladie de Parkinson. La journée mondiale de la maladie de Parkinson est donc commémorée à cette date.
12	4	2022	20220412	12 d'avril de 1925. Naissance de l'ingénieure informaticien Evelyn Berezin. Elle est connue comme la mère des traitements de texte, car elle a développé l'idée d'un programme permettant de stocker et éditer des textes.
13	4	2022	20220413	13 d'avril de 2009. Mort de l'arabisant Julio Cortés Soroa. Il est l'auteur de l'une des meilleures traductions du Coran en espagnol et d'un dictionnaire arabe-espagnol qui est considéré comme l'un des chefs-d'œuvre de la lexicographie bilingue.
14	4	2022	20220414	14 d'avril de 1198. Naissance de l'intellectuel andalou Ibn Rushd, connu sous le nom d'Averroès. Ses travaux comprennent des commentaires sur les œuvres d'Aristote et le Livre des généralités de la médecine.
15	4	2022	20220415	15 d'avril de 1874. Naissance du généticien et botaniste George Harrison Shull. Il a créé de nouvelles variétés pures de maïs, puis les a croisées. Il a montré que la progéniture hybride était plus vigoureuse et prévisible, idéale pour la culture commerciale.
16	4	2022	20220416	16 d'avril de 1955. Le philologue Jacques Perret invente le mot ordinateur dans une lettre adressée à IBM.
17	4	2022	20220417	17 d'avril de 1942. Naissance de la volcanologue Katia Krafft. Ses rapports graphiques ont contribué à développer l'étude des volcans et à convaincre les gens de la nécessité d'évacuer les zones potentiellement dangereuses.
18	4	2022	20220418	18 d'avril de 1955. Mort du physicien Albert Einstein. Il a développé la théorie de la relativité et a dérivé l'équation de physique la plus célèbre de l'histoire : E=mc².
19	4	2022	20220419	19 d'avril de 1870. Naissance de la chirurgienne Vera Gedroitz. Ses opérations de laparotomie pendant la guerre russo-japonaise ont été un grand succès. Pour cette raison, l'armée russe a adopté cette méthode pour le traitement des plaies abdominales pénétrantes.
20	4	2022	20220420	20 d'avril de 1887. Naissance de la phytopathologiste et mycologue Margaret Newton. Elle a mené des recherches pionnières sur la rouille noire (Puccinia graminis), en particulier ses effets sur le blé.
21	4	2022	20220421	21 d'avril de 1830. Naissance de la philosophe et scientifique Clémence Augustine Royer. C'est à elle que l'on doit la première traduction française de l'ouvrage de Charles Darwin, L'Origine des espèces. Elle a ainsi introduit le darwinisme en France.
22	4	2022	20220422	22 d'avril de 1992. Décès de l'horticulteur et botaniste Walther Haage, spécialiste des cactus. Il a financé des expéditions pour trouver de nouveaux cactus, réalisé des hybridations et publié des guides d'entretien de ces plantes.
23	4	2022	20220423	23 d'avril de 1941. Naissance de l'ingénieur Ray Tomlinson, inventeur du courrier électronique.
24	4	2022	20220424	24 d'avril de 1787. Naissance de Mateo Orfila, médecin et chimiste espagnol, considéré comme le père de la toxicologie scientifique.
25	4	2022	20220425	25 d'avril de 1953. Watson et Crick publient la structure de l'ADN dans la revue Nature, ce qui leur vaut le prix Nobel en 1962. Leur collaboratrice, la physicienne Rosalind Franklin, qui n'était pas lauréate après sa mort en 1958, n'était pas non plusmentionnée dans leur discours d'acceptation.
26	4	2022	20220426	26 d'avril de 2016. La biochimiste espagnole Margarita Salas inaugure la salle qui porte son nom au Musée didactique et interactif des sciences de Vega Baja del Segura (MUDIC-VBS-CV).
27	4	2022	20220427	27 d'avril de 1923. Naissance de la chimiste Shen Tianhui. Ses recherches ont porté sur l'analyse des mines de terres rares et de molybdène, et sur la fabrication de silicium superpur avec du trichlorosilane.
28	4	2022	20220428	28 d'avril de 1854. Naissance de la physicienne et ingénieure Hertha Ayrton. Elle est connue pour ses travaux sur les arcs électriques et les vagues dans le sable et l'eau.
29	4	2022	20220429	29 d'avril de 2016. OceanOne, un robot humanoïde capable de se déplacer sur les fonds marins à l'aide des propulseurs, est dévoilé.
30	4	2022	20220430	30 d'avril de 1879. Le physicien J. J. Thomson annonce la découverte de l'électron, la première particule subatomique jamais découverte.
1	5	2022	20220501	1 de maig de 1956. Joe Hin Tjio (Station Expérimentale Aula Dei, CSIC) et Albert Levan (Université de Lund, Suède) publient le nombre exact de chromosomes de l'espèce humaine (46) dans la revue Hereditas.
2	5	2022	20220502	2 de maig de 1800. La première électrolyse de l'eau est réalisée par les chimistes William Nicholson et Anthony Carlisle.
3	5	2022	20220503	3 de maig de 1849. Naissance de la pionnière de l'automobile Bertha Ringer (future Benz). Elle a inventé les plaquettes de frein et a attiré l'attention du monde entier sur la société Benz Patent-Motorwagen en conduisant une voiture sur une longue distance (105 km).
4	5	2022	20220504	4 de maig de 2012. L'Encyclopaedia Mecanica inventée par l'enseignante Ángela Ruiz Robles entre dans l'exposition permanente du Musée national de la science et de la technologie (MUNCYT). Ce précurseur du livre électronique mettait fortement l'accentsur la diversité, avec la possibilité de monter des supports audio et des loupes pour les élèves ayant des problèmes d'accès.
5	5	2022	20220505	5 de maig de 1892. Naissance de l'archéologue Annie Elizabeth Dorothy Garrod. Elle a travaillé sur de nombreux sites préhistoriques en Grande-Bretagne, à Gibraltar, dans la région du Kurdistan, au Moyen-Orient et au Liban.
6	5	2022	20220506	6 de maig de 1882. Naissance de la zoologiste et écologiste Ann Haven Morgan. Elle a fait des recherches sur la limnologie, l'hibernation des animaux et d'autres questions liées à l'écologie et à l'environnement.
7	5	2022	20220507	7 de maig de 1899. Naissance de la biochimiste Arda Alden Green. Elle a fait d'importantes découvertes sur la sérotonine et la bioluminescence.
8	5	2022	20220508	8 de maig de 1926. Naissance du naturaliste britannique David Attenborough, célèbre présentateur de documentaires de vulgarisation scientifique.
9	5	2022	20220509	9 de mars de 1945. Le chimiste et virologue Luis Enjuanes est né. Il est reconnu pour avoir dirigé le laboratoire des coronavirus du Centre national de biotechnologie (CNB, CSIC).
10	5	2022	20220510	10 de maig de 1946. Naissance de l'éthologue Birutè Galdikas. Sa spécialité est la primatologie, plus précisément les orangs-outans.
11	5	2022	20220511	11 de maig de 1881. Naissance de Theodore von Kármán, père de l'aérodynamique moderne et de la propulsion spatiale à carburant liquide.
12	5	2022	20220512	12 de maig de 1977. Naissance de la mathématicienne Maryam Mirzakhani. Elle a été la première femme à recevoir la médaille Fields, la plus haute distinction décernée par la communauté mathématique internationale.
13	5	2022	20220513	13 de maig de 1883. Naissance du médecin Georgios Papanicolaou. Il a mis au point un test pour la détection précoce du cancer du col de l'utérus : le test de Papanicolaou oufrottis endocervical.
14	5	2022	20220514	14 de maig de 1796. James Phipps devient la première personne de l'histoire à être vaccinée. Edward Jenner lui a administré le vaccin qu'il avait mis au point contre la variole.
15	5	2022	20220515	15 de maig de 1857. Naissance de l'astronome Williamina Fleming. Elle a découvert la célèbre nébuleuse de la Tête de cheval, ainsi qu'un grand nombre de novae, de nébuleuses gazeuses et d'étoiles variables.
16	5	2022	20220516	16 de maig de 1954. Naissance de l'océanographe Cindy Lee Van Dover. Elle a été la première femme à piloter le sous-marin Alvin, le plus important de l'histoire de l'exploration des océans.
17	5	2022	20220517	17 de maig de 2014. Le dinosaure Patagotitan majorum est découvert en Argentine, le plus grand dinosaure connu à ce jour, mesurant 40 m de long, 20 m de haut et pesant 77 tonnes.
18	5	2022	20220518	18 de maig de 1850. Naissance d'Oliver Heaviside. Il a développé des méthodes mathématiques pour résoudre des équations différentielles.
19	5	2022	20220519	19 de maig de 1804. Le journal El Regañón General publie l'ordre du maire de León de vacciner contre la variole dans son district. Pour vaincre la méfiance de la population et montrer l'innocuité du vaccin, le maire et le chirurgien Antonio José Fernández ont fait un petit tour des villages en accompagnant des personnes déjà vaccinées, qui ont également joué le rôle de porteurs du vaccin.
20	5	2022	20220520	20 de maig de 1873. Levi Strauss et Jacob Davis ont breveté le procédé consistant à placer des rivets aux points de tension des pantalons de travail, ce qui leur confère une grande solidité. Le célèbre blue-jean est né.
21	5	2022	20220521	21 de maig de 1799. Naissance de la paléontologue Mary Anning. Elle a identifié le premier squelette d'ichtyosaure et trouvé les deux premiers squelettes de plésiosaure, ainsi que le premier squelette de ptérosaure hors d'Allemagne.
22	5	2022	20220522	22 de maig de 1909. Naissance de l'illustratrice botanique Margaret Mee. Elle a été l'une des premières écologistes à sensibiliser le public à l'impact de l'exploitation minière à grande échelle et de la déforestation dans le bassin amazonien.
23	5	2022	20220523	23 de maig de 1922. Naissance de la physicienne et chimiste Esther M. Conwell. Elle a étudié les propriétés des semi-conducteurs et des conducteurs organiques, en particulier le transport des électrons.
24	5	2022	20220524	24 de maig de 1032. Des siècles avant l'invention du télescope, Ibn Sina (Avicenne) a observé et décrit pour la première fois le transit de Vénus devant le Soleil, un phénomène astronomique rare.
25	5	2022	20220525	25 de maig de 2016. Le Prix Princesse des Asturies est décerné à Mary Beard, spécialiste dans l'étude de la civilisation romaine. Son grand travail de diffusion a permis de rapprocher les classiques du grand public.
26	5	2022	20220526	26 de maig de 1689. Naissance de Mary Wortley Montagu, intellectuelle et précurseur de l'inoculation de la variole, une technique qu'elle avait observée en Turquie et importée en Angleterre trente ans avant les études d'Edward Jenner.
27	5	2022	20220527	27 de maig de 1332. Naissance de Ibn Khaldoun. Considéré comme le précurseur de la sociologie, de l'anthropologie et des autres sciences sociales, il est surtout connu pour sa Muqaddima ou "Introduction" à son ouvrage sur l'histoire du monde, dans laquelle il expose sa philosophie de l'histoire.
28	5	2022	20220528	28 de maig de 1955. Naissance de Dan S. Tawfik, pionnier dans l'étude des facteurs qui rendent l'évolution possible au niveau moléculaire, tels que la stabilité ou la promiscuité des enzymes.
29	5	2022	20220529	29 de maig de 1929. Naissance du physicien théoricien Peter Higgs, qui donne son nom au boson de Higgs. Cette particule élémentaire n'a ni spin, ni charge électrique, ni couleur et se désintègre rapidement : sa demi-vie est d'environ une zeptoseconde.
30	5	2022	20220530	30 de maig de 1928. Naissance de Nina Georgievna Vinogradova. Elle a découvert comment les espèces animales sont réparties dans les grands fonds et a créé la première carte zoogéographique de l'océan abyssal.
31	5	2022	20220531	31 de maig de 1912. Naissance de la physicienne Chien-Shiung Wu. Ella a prouvé que le principe de parité n'existe pas dans la nature.
1	6	2022	20220601	1 de juin de 1905. Naissance du vétérinaire Max Sterne. En 1935, il a préparé un vaccin atténué contre l'anthrax, une maladie infectieuse causée par la bactérie Bacillus anthracis.
2	6	2022	20220602	2 de juin de 1882. Naissance de la géologue Ebba Hult de Geer. Avec Gerard de Geer, elle a utilisé l'argile déposée dans les varves des lacs glaciaires comme preuve des climats anciens (paléoclimatologie). Cela a permis d'établir une histoire climatique globale.
3	6	2022	20220603	3 de juin de 1844. Naissance du mathématicien et historien Paul Mansion. Il a publié sur l'histoire des sciences et a traduit en français des textes de mathématiciens célèbres tels que Riemann, Plücker et Clebsch.
4	6	2022	20220604	4 de juin de 1905. Naissance du philologue et arabisant Emilio García Gómez, premier directeur de l'École d'études arabes de Grenade. Il a reçu le Prix Prince des Asturies pour la communication et les sciences humaines en 1992.
5	6	2022	20220605	5 de juin de 1949. Naissance de la biologiste Susan Lindquist. Elle est connue pour ses travaux sur l'étude du repliement des protéines.
6	6	2022	20220606	6 de juin de 2016. L'astrophysicienne Rosemary Wyse reçoit le prix Brouwer pour ses travaux sur les galaxies à disque.
7	6	2022	20220607	7 de juin de 1933. Naissance de Tsuneko Okazaki, l'une des premières étudiantes universitaires du Japon. Avec son mari Reiji, elle a apporté de grandes avancées dans l'étude de l'ADN, notamment la découverte des fragments d'Okazaki.
8	6	2022	20220608	8 de juin de 1637. René Descartes publie le Discours de la méthode, l'un des ouvrages fondamentaux dans le développement de la science.
9	6	2022	20220609	9 de juin de 1903. Naissance de la biochimiste Sarah Ratner. Ses contributions à l'étude du métabolisme de l'azote ont permis de comprendre les troubles de la synthèse de l'urée chez les humaines.
10	6	2022	20220610	10 de juin de 940. Naissance de l'astronome et mathématicien Abu al-Wafa Buzjani. Il est surtout connu pour ses contributions à la trigonométrie plane et sphérique.
11	6	2022	20220611	11 de juin de 1896. Naissance de la parasitologue Eloise Blaine Cram. Elle a étudié les vers intestinaux et a été la première à lutter contre la schistosomiase, une maladie endémique dans les régions tropicales, due au parasite Schistosoma.
12	6	2022	20220612	12 de juin de 1908. Ouverture de Rotherhithe, le plus grand tunnel de fer sous-marin au monde, qui passe sous la Tamise (Londres).
13	6	2022	20220613	13 de juin de 2012. La cartographie de la composition du microbiome humain est annoncée. Ce résultat du Human Microbiome Project (HMP) a été obtenu grâce aux techniques de séquençage du génome et à 242 volontaires.
14	6	2022	20220614	14 de juin de 1897. Naissance de Marcelino Pascua, l'une des principales figures de la santé publique, de l'épidémiologie et de la biostatistique espagnoles, et l'un des fondateurs et hauts responsables de l'OMS.
15	6	2022	20220615	15 de juin de 2021. La 1ère édition des Prix de la Fondation CSIC-BBVA pour la communication scientifique décerne le prix dans la catégorie des chercheurs à Alfredo Corell, Margarita del Val, José Antonio López Guerrero, Ignacio López-Goñi et Antoni Trilla, pour avoir été la voix de la science lors de la pandémie de coronavirus et transmettre des connaissances dans un langage accessible au grand public.
16	6	2022	20220616	16 de juin de 2020. Mort de l'arabisant Federico Corriente, spécialiste de la lexicographie et de la dialectologie andalouse. Il a été un pionnier des études linguistiques de la langue arabe en Espagne, ainsi que de la sémiotique comparée.
17	6	2022	20220617	17 de juin de 1543. L'inventeur Blasco de Garay fait une exposition dans le port de Barcelone. Ce marin avait créé une machine avec des roues à aubes qui, actionnées par des personnes, servaient de moteur de navire.
18	6	2022	20220618	18 de juin de 2013. Des hologrammes 3D haute définition sont développés pour enseigner l'anatomie aux étudiants en médecine.
19	6	2022	20220619	19 de juin de 1896. Naissance de la physicienne et chimiste Sonia Cotelle. Elle a fait des recherches sur le polonium et l'actinium en collaboration avec Marie Skłodowska-Curie. Elle a déterminé la demi-vie de l'ionium (ancien nom du thorium-230).
20	6	2022	20220620	20 de juin de 1894. Naissance du chimiste et inventeur Lloyd Augustus Hall. Il a contribué à la science de la conservation des aliments en déposant des brevets pour de nouvelles méthodes de stérilisation, de salaison des viandes et d'utilisation d'antioxydants.
21	6	2022	20220621	21 de juin de 1809. Naissance de Pascual de Gayangos. Il a écrit de nombreux ouvrages sur l'arabisme, l'histoire de la littérature, le catalogage et la bibliographie. Son œuvre majeure est la traduction en anglais del'Histoire des dynasties musulmanesen Espagne, par al-Maqqari.
22	6	2022	20220622	22 de juin de 1850. Naissance de Fannie Hesse, microbiologiste et découvreuse de l'agar-agar comme agent gélifiant pour les milieux de culture en microbiologie.
23	6	2022	20220623	23 de juin de 1836. Naissance de Francisco Codera y Zaidín. Il est considéré comme le fondateur de l'école moderne des arabisants espagnols. Avec un groupe de collaborateurs, il a publié plusieurs sources andalouses inédites.
24	6	2022	20220624	24 de juin de 2012. Mort de Georges le solitaire, ne laissant aucune progéniture. Il est considéré comme le dernier spécimen de la tortue géante Pinta (Chelonoidis abingdonii), qui habitait les îles Galapagos.
25	6	2022	20220625	25 de juin de 1498. Un empereur chinois a introduit la première brosse à dents avec des poils. Ces poils étaient prélevés du cou des porcs et piqués sur des manches en bambou ou en os. Des marchands ont apporté cette invention en Europe.
26	6	2022	20220626	26 de juin de 2013. La navette spatiale chinoise Shenzhou 10 revient en toute sécurité sur Terre après avoir terminé la plus longue mission habitée de Chine à ce jour.
27	6	2022	20220627	27 de juin de 1859. Le chimiste français Edmond Fremy publie son ouvrage Cuticule des légumes, dans lequel la cutine est décrite pour la première fois. Il s'agit du polyester naturel le plus répandu.
28	6	2022	20220628	28 de juin de 1909 et 1995. Naissance et mort du médecin et chercheur Francisco Grande Covián. Il est considéré comme le premier expert en nutrition en Espagne.
29	6	2022	20220629	29 de juin de 1893. Naissance de Prasanta Chandra Mahalanobis. Il excellait dans le domaine des statistiques appliquées et introduisit la distance de Mahalanobis, une très utile mesure de distance statistique car elle détermine la similarité entre deuxvariables aléatoires multidimensionnelles.
30	6	2022	20220630	30 de juin de 1933. Mary Calder, une paléobotaniste qui a étudié les plantes fossiles du Carbonifère et du Jurassique, obtient son doctorat de l'université de Glasgow.
1	7	2022	20220701	1 de juillet de 1858. Charles Darwin et Alfred Russel Wallace présentent le document exposant les principes de la théorie de l'évolution par la sélection naturelle.
2	7	2022	20220702	2 de juillet de 1911. Naissance de l'épidémiologiste, virologue et pédiatre Dorothy M. Horstmann. Ses travaux sur la propagation du poliovirus par voie sanguine ont contribué à jeter les bases du vaccin contre la polio.
3	7	2022	20220703	3 de juillet de 1886. Naissance de la naturaliste Elsie Maud Wakefield. Elle a publié près de 100 articles sur la mycologie et la phytopathologie, décrivant de nombreuses nouvelles espèces végétales.
4	7	2022	20220704	4 de juillet de 1854. Naissance de Victor Babeş, le microbiologiste roumain qui a isolé pour la première fois le protozoaire Babesia.
5	7	2022	20220705	5 de juillet de 2018. Célébration de la première journée des fiertés LGTBIQA+ dans les disciplines scientifiques, technologiques, mathématiques et de l'ingénierie.
6	7	2022	20220706	6 de juillet de 1973. Mort de Laurens Hammond, inventeur de l'orgue Hammond. L'instrument est basé sur les principes de l'électromagnétisme et de l'amplification par des haut-parleurs individuels.
7	7	2022	20220707	7 de juillet de 1843. Naissance du médecin Camillo Golgi. Il a développé des méthodes de coloration des cellules pour l'étude des neurones. Il a donné son nom à l'appareil de Golgi, un organite présent dans les cellules eucaryotes.
8	7	2022	20220708	8 de juillet de 1925. Naissance de la spécialiste de l'alimentation Alina Surmacka Szczesniak. Elle a mis au point l'analyse du profil de texture sensorielle, qui quantifie et met en ordre toutes les propriétés texturales perçues depuis le moment où un aliment est placé dans la bouche jusqu'à ce que sa dernière particule soit avalée.
9	7	2022	20220709	9 de juillet de 1933. Naissance du neurologue et vulgarisateur Oliver Sacks, auteur de nombreux livres sur des cas de patients atteints de maladies neurologiques (dont certains adaptés au cinéma), comme L'Éveil.
10	7	2022	20220710	10 de juillet de 1960. Naissance de la microbiologiste M. Cruz Martín, spécialiste de l'application des techniques moléculaires dans des domaines tels que la microbiologie clinique, la sécurité alimentaire et la biotechnologie. Elle a été une pionnière del'édition des génomes bactériens.
11	7	2022	20220711	11 de juillet de 1881. Naissance de l'astronome Isabel Martin Lewis. Elle a travaillé comme "calculatrice astronomique" pour Simon Newcomb, avec qui elle acquiert une vaste expérience sur les éclipses. Elle a développé des méthodes pour déterminer les éclipses et prédire les occultations lunaires.
12	7	2022	20220712	12 de juillet de 1898. Naissance de la botaniste Bea Schol-Schwarz. Spécialisée en phytopathologie, elle a été l'une des découvreuses de la cause de la graphiose : les champignons du genre Ophiostoma.
13	7	2022	20220713	13 de juillet de 1944. Naissance du sculpteur Ernő Rubik. Il a breveté le cube magique, une invention désormais connue sous le nom de Rubik's cube.
14	7	2022	20220714	14 de juillet de 1805. L'évêque de León rédige une circulaire aux hôpitaux et paroisses dont il a la charge leur demandant de collaborer à la vaccination contre la variole. Dans une lettre sévère, il a accusé les familles qui ont nié la vaccination de leurs filles et de leurs fils de meurtriers. Ce vaccin, le premier de l'histoire, a réussi à sauver des millions de vies et à éradiquer la maladie.
15	7	2022	20220715	15 de juillet de 1928. Naissance du microbiologiste Carl Woese. Il a créé une nouvelle classification des êtres vivants basée sur l'ARN ribosomique et a découvert un nouveau domaine, que nous connaissons sous le nom d'Archaea.
16	7	2022	20220716	16 de juillet de 1904. Naissance du biochimiste Harold Dadford West. Il a été le premier à synthétiser l'acide aminé thréonine.
17	7	2022	20220717	17 de juillet de 1894. Naissance de Georges-Henri Lemaître, le physicien qui a proposé la théorie du Big Bang.
18	7	2022	20220718	18 de juillet de 1921. À Paris, un nouveau-né reçoit le premier vaccin BCG contre la tuberculose. Sa mère était morte de la maladie après l'accouchement. Ce vaccin est le plus ancien utilisé et, jusqu'à présent, la principale arme pour éradiquer la maladie.
19	7	2022	20220719	19 de juillet de 1921. Naissance de la biophysicienne Rosalyn S. Yalow. Elle a reçu le prix Nobel pour le développement du dosage radio-immunologique des hormones peptidiques.
20	7	2022	20220720	20 de juillet de 1804. Naissance du biologiste et paléontologue Richard Owen. Il se distingue par ses travaux sur l'anatomie comparée et sa définition du concept d'homologie en biologie.
21	7	2022	20220721	21 de juillet de 1932. Naissance de la biochimiste Audrey Stevens Niyogi. Elle est connue pour avoir isolé l'inhibiteur qui porte son nom, une protéine qui inhibe l'ARN polymérase.
22	7	2022	20220722	22 de juillet de 1922. Mort de Jōkichi Takamine, découvreur du procédé d'extraction et de cristallisation de l'adrénaline, qui a permis sa commercialisation. Il est devenu l'un des premiers médicaments de masse du XXe siècle.
23	7	2022	20220723	23 de juillet de 1972. Lancement du premier satellite Landsat, destiné à observer la surface de la Terre en haute résolution. La scientifique Valerie Thomas a supervisé le développement des premiers programmes de traitement d'images Landsat.
24	7	2022	20220724	24 de juillet de 2018. Une équipe du CSIC et de l'IGME découvre une nouvelle faille dans la mer d'Alboran, à la frontière entre les plaques tectoniques eurasienne et africaine.
25	7	2022	20220725	25 de juillet de 1956. Naissance de l'ingénieure chimiste Frances Arnold. Elle a reçu le prix Nobel de chimie pour avoir mis au point l'évolution dirigée des enzymes.
26	7	2022	20220726	26 de juillet de 1886. Naissance de la cristallographe et géologue Mary Winearls Porter. Elle est connue pour ses contributions à la cristallographie et ses publications sur l'architecture romaine antique.
27	7	2022	20220727	27 de juillet de 1982. Le terme SIDA (syndrome d'immunodéficience acquise) est proposé pour nommer le groupe de maladies causées par le VIH.
28	7	2022	20220728	28 de juillet de 1923. Naissance de l'informaticien Xia Peisu. Ella a développé le modèle 107, le premier ordinateur électronique polyvalent de Chine. Elle est connue comme la mère de l'informatique en Chine.
29	7	2022	20220729	29 de juillet de 1936. Naissance de la biochimiste Phoebe Starfield Leboy. Elle a mené des recherches sur les modifications des acides nucléiques et la régénération osseuse à l'aide de cellules souches adultes. Cela l'a placée à l'avant-garde de l'épigénétique et de la médecine régénérative.
30	7	2022	20220730	30 de juillet de 1886. Naissance de la médecin et réformatrice social Muthulakshmi Reddi. Elle a recommandé l'inspection médicale systématique des élèves dans les écoles, encouragé la recherche sur le cancer et soutenu les actions en faveur de l'égalité entre les femmes et les hommes.
31	7	2022	20220731	31 de juillet de 2008. La NASA annonce la découverte d'eau sur la planète Mars.
1	8	2022	20220801	1 d'août de 2001. Rita Levi-Montalcini, neurobiologiste lauréate du prix Nobel, est nommée sénatrice à vie au parlement italien.
2	8	2022	20220802	2 d'août de 1904. Naissance de l'arabisant Salvador Vila Hernández. Il a fait des recherches sur les institutions et les formes notariales dans l'Espagne musulmane. Il a été directeur de l'École d'études arabes (CSIC) et recteur de l'Université de Grenade.
3	8	2022	20220803	3 d'août de 1927. Une liaison téléphonique sans fil est établie entre Berlin et Buenos Aires.
4	8	2022	20220804	4 d'août de 1693. Date traditionnellement attribuée à la découverte du champagne par le moine Dom Pérignon.
5	8	2022	20220805	5 d'août de 1969. La sonde spatiale américaine Mariner 7 envoie de nouvelles images de la planète Mars. Ce sont les images les plus claires jamais obtenues.
6	8	2022	20220806	6 d'août de 1924. Naissance de la biochimiste Winifred Watkins. Elle a mené des recherches sur la science du sang et des groupes sanguins. Elle a reçu plusieurs prix pour ses contributions à la transfusion sanguine.
7	8	2022	20220807	7 d'août de 2015. Mort de la pharmacologue Frances Oldham Kelsey. Superviseur de la Food and Drug Administration (USA), elle a refusé d'autoriser la vente du médicament thalidomide en raison de doutes sur sa sécurité.
8	8	2022	20220808	8 d'août de 2013. Un nouveau vaccin contre le paludisme est testé avec un taux d'efficacité allant jusqu'à 100 %.
9	8	2022	20220809	9 d'août de 1794. Naissance du zoologiste Achille Valenciennes. Ses études sur les parasites humains représentent une contribution importante à la parasitologie.
10	8	2022	20220810	10 d'août de 1937. George Beauchamp reçoit son brevet pour la guitare électrique. Bien que le nom officiel soit la Rickenbacker Electro A-22, cette guitare est devenue connue sous le nom de "poêle à frire".
11	8	2022	20220811	11 d'août de 2020. Enregistrement du Gam-COVID-Vac, plus connu sous le nom de Sputnik V. Il s'agit du premier vaccin COVID-19 à être homologué dans le monde.
12	8	2022	20220812	12 d'août de 1990. La paléontologue Sue Hendrickson découvre Sue, le plus grand et le mieux conservé des spécimens de Tyrannosaurus rex jamais découverts.
13	8	2022	20220813	13 d'août de 2008. Mort de la biochimiste Anna Macleod. En 1975, elle a été nommée premier professeur de brassage de bière au monde.
14	8	2022	20220814	14 d'août de 1991. Le physicien Paul Ginsparg lance un bulletin électronique pour l'échange d'articles non publiés dans un sous-domaine de la physique théorique des hautes énergies. Aujourd'hui, il s'agit du célèbre dépôt arXiv.
15	8	2022	20220815	15 d'août de 2017. Francisco Juan Martínez Mojica, Emmanuelle Charpentier, Jennifer Doudna, Luciano Marraffini et Feng Zhang reçoivent l'Albany Medical Center Award. Ce prix, qui est l'un des plus prestigieux dans le domaine de la médecine et de la recherche biomédicale, reconnaît leur rôle dans le développement des technologies CRISPR pour l'édition du génome.
16	8	2022	20220816	16 d'août de 1849. Naissance du chimiste Johan Kjeldahl. Il a développé une méthode d'analyse pour déterminer la quantité d'azote dans les composés organiques. Il a nommé la méthode Kjeldahl en son honneur.
17	8	2022	20220817	17 d'août de 1970. Lancement de Venera 7, le premier vaisseau spatial à transmettre avec succès des données depuis la surface d'une autre planète (Vénus).
18	8	2022	20220818	18 d'août de 1987. Le premier test sur les humaines d'un vaccin candidat contre le virus de l'immunodéficience humaine (VIH) est approuvé.
19	8	2022	20220819	19 d'août de 1839. Louis Daguerre annonce l'invention du procédé photographique connu sous le nom de daguerréotype, le premier à permettre la fixation permanente d'une image.
20	8	2022	20220820	20 d'août de 1911. Naissance de la virologue Isabel Morgan. Elle a participé à la mise au point d'un vaccin qui a protégé les singes contre la polio, une étape clé dans le cadre de l'éradication de cette maladie.
21	8	2022	20220821	21 d'août de 1874. Naissance d'Eleanor Davies-Colley, l'une des premières femmes chirurgiens à opérer au Royaume-Uni et fondatrice du South London Women's and Children's Hospital.
22	8	2022	20220822	22 d'août de 1934. Naissance du physicien et astronome Samuel Pierpont Langley. Il a inventé le bolomètre, qui mesure la quantité totale de rayonnement électromagnétique provenant d'un objet à toutes les longueurs d'onde.
23	8	2022	20220823	23 d'août de 1917. Naissance de la biochimiste et pharmacologue Marjorie Horning. Elle a été la pionnière de la chromatographie en développant de nouvelles techniques pour l'étude du métabolisme des médicaments.
24	8	2022	20220824	24 d'août de 2006. L'Union astronomique internationale approuve la nouvelle définition d'une planète. En excluant Pluton, le nombre de planètes du système solaire est passé de neuf à huit.
25	8	2022	20220825	25 d'août de 1858. Découverte du trésor de Guarrazar, l'une des plus grandes découvertes archéologiques liées aux Wisigoths. Parmi les autres pièces, les magnifiques couronnes votives se distinguent.
26	8	2022	20220826	26 d'août de 865. Naissance du médecin et écrivain Abū Bakr Muhammad ibn Zakarīyā al-Rāzī, connu sous le nom d'al-Razi. Il a écrit al-Hawi, une encyclopédie médicale colossale, et a réalisé la première distillation du pétrole en paraffine. Il est considéré comme le découvreur de l'acide sulfurique et de l'éthanol, ainsi que de l'utilisation de l'éthanol en médecine.
27	8	2022	20220827	27 d'août de 1947. Naissance de la virologue Flossie Wong-Staal. Elle a été la première personne à cloner le virus de l'immunodéficience humaine (VIH) et à déterminer la fonction de ses gènes, une étape clé pour prouver qu'il était la cause du SIDA.
28	8	2022	20220828	28 d'août de 1927. Naissance de la biochimiste Betty Twarog. Elle a été la première personne à trouver de la sérotonine dans le cerveau des mammifères.
29	8	2022	20220829	29 d'août de 1914. Naissance du physico-chimiste Bernard Vonnegut. Il a découvert que l'iodure d'argent peut être utilisé comme agent de nucléation pour l'ensemencement des nuages.
30	8	2022	20220830	30 d'août de 1919. Naissance du microbiologiste Maurice Hilleman. Il a développé une quarantaine de vaccins, notamment contre la rougeole, les oreillons, l'hépatite A, l'hépatite B, la varicelle, la méningite, la pneumonie et l'Haemophilus influenzae.
31	8	2022	20220831	31 d'août de 1909. Sahachiro Hata a injecté de l'arsphénamine à un lapin atteint de syphilis : le lendemain, il était guéri. Il s'agissait de l'un des premiers médicaments à guérir une maladie infectieuse avec un taux de mortalité élevé.
1	9	2022	20220901	1 de septembre de 1979. La sonde Pioneer 11 devient la première à visiter la planète Saturne, qu'elle survole à 21 000 kilomètres.
2	9	2022	20220902	2 de septembre de 2020. Des scientifiques de l'Université de Toronto trouvent des microfibres bleues provenant de jeans dans l'eau de l'Arctique. Elles révèlent également qu'une seule paire de jeans libère environ 50 000 particules minuscules par lavage.
3	9	2022	20220903	3 de septembre de 1992. Mort de la botaniste Barbara McClintock. Elle a reçu le prix Nobel pour ses découvertes dans le domaine de la transposition génétique.
4	9	2022	20220904	4 de septembre de 1939. Alan Turing commence à travailler à Bletchley Park, où les codes secrets allemands ont été déchiffrés pendant la Seconde Guerre mondiale.
5	9	2022	20220905	5 de septembre de 2012. L'astronaute Akihiko Hoshide a pris son célèbre selfie alors qu'il était en orbite autour de la Terre à bord de la Station spatiale internationale. La photo, montrant le Soleil en arrière-plan, est devenue virale sur les médias sociaux.
6	9	2022	20220906	6 de septembre de 1929. Naissance du physicienne Ljubov Rebane. Elle a introduit la spectroscopie laser dans l'enseignement et a formé toute une génération de spécialistes dans ce domaine.
7	9	2022	20220907	7 de septembre de 1936. Mort du dernier tigre de Tasmanie. Son nom était Benjamin, mais on soupçonne qu'il s'agissait d'une femelle. Chaque 7 septembre, l'Australie commémore la Journée des espèces menacées.
8	9	2022	20220908	8 de septembre de 1954. Le médecin et virologue Jonas Salk présente son vaccin contre la polio. Il a contribué à l'éradication de cette maladie hautement mortelle.
9	9	2022	20220909	9 de septembre de 1947. Le premier cas d'erreur informatique est enregistré : une mite est piégée dans le relais de l'ordinateur Mark II de l'Université de Harvard.
10	9	2022	20220910	10 de septembre de 1926. Naissance du microbiologiste Thomas Brock. Il a étudié les bactéries vivant à des températures très élevées à Yellowstone. Ses travaux ont servi de base au développement de la réaction en chaîne par polymérase (PCR).
11	9	2022	20220911	11 de septembre de 1884. Naissance du physicien Harvey Fletcher. Il a apporté de nombreuses contributions à l'acoustique et on lui attribue l'invention de l'appareil auditif.
12	9	2022	20220912	12 de septembre de 1957. Le New England Journal of Medicine publie les résultats des 6 premières greffes de moelle osseuse, une technique permettant de traiter la leucémie ou le myélome multiple. Son auteur, E. Donnall Thomas, a reçu le prix Nobel en 1990.
13	9	2022	20220913	13 de septembre de 1853. Naissance du bactériologiste Hans Christian Gram. Il a développé la coloration de Gram, une coloration différentielle utilisée pour visualiser et différencier les bactéries.
14	9	2022	20220914	14 de septembre de 1912. Naissance de la biochimiste Kamala Sohonie. Elle a mené des recherches sur les effets des vitamines et les valeurs nutritionnelles des légumineuses, du riz et d'autres aliments consommés par les sections les plus pauvres de l'Inde.
15	9	2022	20220915	15 de septembre de 1830. Ouverture de la première ligne ferroviaire interurbaine au monde (Liverpool-Manchester).
16	9	2022	20220916	16 de septembre de 2015. Dans le cadre du projet SISMOSIMA, Raúl Pérez (IGME) descend dans le gouffre de Vapor, le plus chaud du monde. Ce gouffre à Alhama de Murcia se trouve sur la faille qui a provoqué le tremblement de terre de 2011 à Lorca.
17	9	2022	20220917	17 de septembre de 1801. Naissance de l'orientaliste et lexicographe Edward William Lane. Il est surtout connu pour sa description de la vie en Égypte et pour son Lexique arabe-anglais, l'un des meilleurs dictionnaires de l'arabe vers une langue européenne.
18	9	2022	20220918	18 de septembre de 1982. Mort du paléontologue et anthropologue Pei Wenzhong. Il a été le responsable des fouilles qui ont permis de découvrir l'Homo erectus pekinensis en 1929, une découverte essentielle pour soutenir la théorie de l'évolution.
19	9	2022	20220919	19 de septembre de 1915. Naissance de l'anatomopathologiste Elizabeth Stern. Elle a été l'une des premières personnes à se spécialiser en cytopathologie, discipline qui étudie les altérations des cellules prélevées dans différentes parties du corps.
20	9	2022	20220920	20 de septembre de 1952. Les résultats de l'expérience d'Alfred Hershey et de Martha Chase sont publiés. Ce rapport a confirmé que l'ADN est la base du matériel génétique (pas les protéines).
21	9	2022	20220921	21 de septembre de 1895. Naissance de Juan de la Cierva, l'ingénieur et aviateur qui a inventé l'autogire, ancêtre de l'hélicoptère.
22	9	2022	20220922	22 de septembre de 1896. Naissance de la biochimiste Dorothy M. Needham. Elle est surtout connue pour ses travaux sur la biochimie du muscle.
23	9	2022	20220923	23 de septembre de 1869. Naissance de Mary Mallon, connue sous le nom de Typhoid Mary. Elle a été identifiée comme la première porteuse asymptomatique de la bactérie responsable de la typhoïde. Elle a vécu le reste de sa vie en quarantaine.
24	9	2022	20220924	24 de septembre de 2000. La première Journée mondiale de la recherche sur le cancer est commémorée. Son objectif est de sensibiliser et de mobiliser la société pour faire progresser la prévention et le contrôle de cette maladie.
25	9	2022	20220925	25 de septembre de 1893. Naissance de la physiologiste Elizabeth M. Bright.Avec l'océanographe Alfred C. Redfield, elle a étudié les effets des radiations sur des animaux tels que le Nereis, un ver marin.
26	9	2022	20220926	26 de septembre de 1940. Naissance de la biochimiste Louise Napier Johnson. Elle a étudié l'enzyme glycogène phosphorylase en utilisant la cristallographie aux rayons X.
27	9	2022	20220927	27 de septembre de 1962. La biologiste marine Rachel Carson publie le livre Printemps silencieux, qui fait évoluer les mentalités quant à l'utilisation inconsidérée des pesticides.
28	9	2022	20220928	28 de septembre de 1895. Mort du chimiste Louis Pasteur, inventeur de la pasteurisation. Cette méthode permet de contrôler les micro-organismes dans les liquides, comme le lait.
29	9	2022	20220929	29 de septembre de 1511. Naissance du théologien et scientifique Servetus, connu pour sa description de la circulation pulmonaire. Il est arrêté en Suisse et condamné à mort sur le bûcher en 1543.
30	9	2022	20220930	30 de septembre de 1886. Naissance du vétérinaire et biologiste Gaston Ramon. Ses travaux ont été déterminants pour le développement de vaccins efficaces contre la diphtérie et le tétanos.
1	10	2022	20221001	1 d'octobre de 1912. Naissance de la mathématicienne et éducatrice Kathleen Ollerenshaw. Elle était une spécialiste des carrés magiques, où la somme des nombres dans les colonnes, les rangées et les diagonales principales est la même.
2	10	2022	20221002	2 d'octobre de 1846. Naissance du médecin et éducatrice Eliza Maria Mosher. Elle a été une pionnière de la médecine posturale et des systèmes anatomiques : elle a conçu des sièges pour les tramways et une chaise anatomique pour les crèches.
3	10	2022	20221003	3 d'octobre de 2005. Les docteurs Marshall et Warren reçoivent le prix Nobel pour avoir découvert que la bactérie Helicobacter pylori est à l'origine des ulcères gastriques. Face au scepticisme de la communauté scientifique, Marshall a prouvé son hypothèse en s'inoculant la bactérie.
4	10	2022	20221004	4 d'octobre de 1971. La mole - l'unité par laquelle on mesure la quantité d'une substance - est adoptée comme mesure chimique et s'ajoute aux six unités de base du Système international d'unités (SI).
5	10	2022	20221005	5 d'octobre de 1958. Naissance de l'astrophysicien et vulgarisateur scientifique Neil deGrasse Tyson. Ses livres ont rapproché la science spatiale du grand public.
6	10	2022	20221006	6 d'octobre de 1907. Naissance de l'embryologiste Salome Gluecksohn Waelsch. Elle est considérée comme l'un des fondatrices de la génétique du développement.
7	10	2022	20221007	7 d'octobre de 1952. Publication du brevet américain n° 2,612,994, déposé par les inventeurs Joseph Woodland et Bernard Silver : il s'agit d'un primitif code-barres.
8	10	2022	20221008	8 d'octobre de 2015. La NASA annonce que New Horizons a détecté de l'eau gelée et un ciel bleu sur Pluton.
9	10	2022	20221009	9 d'octobre de 1410. Première mention de l'horloge astronomique de Prague. Son cadran astronomique a la forme d'un astrolabe et affiche les 24 heures de la journée, les positions du Soleil et de la Lune dans le ciel et d'autres détails astronomiques.
10	10	2022	20221010	10 d'octobre de 1865. John Wesley Hyatt dépose un brevet sur le celluloïd, un plastique utilisé pour produire des films cinématographiques.
11	10	2022	20221011	11 d'octobre de 1910. Naissance du mathématicien Cahit Arf. Il a développé un certain nombre de concepts qui portent son nom, comme l'anneau d'Arf, les semigroupes d'Arf, l'invariant d'Arf et le théorème de Hasse-Arf.
12	10	2022	20221012	12 d'octobre de 1889. Naissance de Jorge Loring Martínez. Il invente de nouveaux avions et fonde CETA, la première compagnie aérienne espagnole à transporter des passagers.
13	10	2022	20221013	13 d'octobre de 1986. La dépouille du scientifique Pío del Río Hortega, mort en exil en Argentine en 1945, arrive en Espagne. Il est connu pour avoir découvert la microglie, un type de cellule du système nerveux.
14	10	2022	20221014	14 d'octobre de 1100. Mort d'Ibn al-Zarqalluh (Azarquiel), le plus important astronome andalou. Ses œuvres, traduites en latin par Gérard de Crémone, ont été largement diffusées dans l'Europe médiévale.
15	10	2022	20221015	15 d'octobre de 1949. Christopher Polge annonce que le glycérol permet de congeler les spermatozoïdes, une annonce qui marque le début des techniques de reproduction assistée.
16	10	2022	20221016	16 d'octobre de 2012. L'astrophysicien Xavier Dumusque et ses collègues annoncent la découverte de la planète extrasolaire Alpha Centauri Bb. Elle est situé dans le système stellaire triple d'Alpha Centauri.
17	10	2022	20221017	17 d'octobre de 1934. Mort de Santiago Ramón y Cajal, premier lauréat espagnol du prix Nobel de sciences. Le prix lui a été décerné pour son étude de la structure du système nerveux.
18	10	2022	20221018	18 d'octobre de 1872. Naissance du médecin Laura Rodríguez Dulanto. En 1900, elle est devenue la première femme à obtenir le titre de chirurgien au Pérou. Son initiative a ouvert la voie à d'autres femmes de son pays.
19	10	2022	20221019	19 d'octobre de 1862. Naissance de l'inventeur Auguste Lumière. Avec son frère Louis, il crée le cinématographe, une machine pionnière capable de filmer et de projeter des images en mouvement.
20	10	2022	20221020	20 d'octobre de 1900. Ouverture du Boston Symphony Hall, la première salle de concert conçue à partir de paramètres acoustiques. Considéré comme l'un des meilleurs au monde, son concepteur était le physicien Wallace Clement Sabine.
21	10	2022	20221021	21 d'octobre de 2016. LETIPharma présente le vaccin contre la leishmaniose canine (LetiFend), basé sur une protéine recombinante et qui permet de distinguer les vaccinées des infectées. Cette zoonose touche aussi bien les chiens que les humains.
22	10	2022	20221022	22 d'octobre de 1951. La Commission de l'énergie nucléaire (CEN) est créée à partir de la Commission de recherche atomique. L'enquête sur les matières radioactives commence en Espagne.
23	10	2022	20221023	23 d'octobre de 2022. La journée de la Mole est célébré, entre 06:02 (06:02 AM) et 18:02 (06:02 PM).
24	10	2022	20221024	24 d'octobre de 2010. Enrique Peñalver (IGME) et Jean Gaudant (Muséum national d'histoire naturelle de France) découvrent un nouveau poisson datant de 10 millions d'années. Il a été nommé Aphanius bicorbensis en l'honneur de la population de Bicorb (Valence).
25	10	2022	20221025	25 d'octobre de 1921. Naissance de la biologiste Marian Koshland. Elle a découvert que les différences entre les acides aminés des anticorps expliquent l'efficacité avec laquelle ils combattent les envahisseurs étrangers.
26	10	2022	20221026	26 d'octobre de 1920. Naissance de l'astronome Sarah Lee Lippincott. Elle a été la première à utiliser l'astrométrie pour déterminer le caractère des étoiles binaires et la recherche de planètes extrasolaires.
27	10	2022	20221027	27 d'octobre de 1953. Mort de l'agronome et physiologiste des plantes Winifred Elsie Brenchley. Ses travaux à la station expérimentale de Rothamsted ont permis, entre autres, d'améliorer la technique de culture hydroponique des plantes.
28	10	2022	20221028	28 d'octobre de 2011. La NASA lance le satellite Suomi NPP pour effectuer des observations météorologiques de la Terre.
29	10	2022	20221029	29 d'octobre de 1933. Mort d'Albert Calmette, découvreur d'une forme atténuée de Mycobacterium tuberculosis (bacille Calmette-Guerin), qui a été utilisée dans le vaccin contre la tuberculose.
30	10	2022	20221030	30 d'octobre de 1929. Naissance de la mathématicienne Regina Iosifovna Tyshkevich. Spécialiste de la théorie des graphes, elle est co-inventrice de la notion de graphes divisés.
31	10	2022	20221031	31 d'octobre de 2002. Le Vatican réhabilite Galilée 359 ans après sa condamnation.
1	11	2022	20221101	1 de novembre de 1945. Naissance de la physicienne chimiste Milliana Kroumova Kaisheva. Elle est connue pour ses travaux en électrochimie et en chimie des colloïdes.
2	11	2022	20221102	2 de novembre de 2010. Le premier film sonore en langue espagnole est découvert à la bibliothèque du Congrès américain. Concha Piquer y interprète plusieurs chansons, dont une jota, un cuplé et un fado.
3	11	2022	20221103	3 de novembre de 1854. Naissance de Jōkichi Takamine, inventeur de la Taka-diastase, la première enzyme industrialisée. Elle était obtenue à partir du champignon Aspergillus et permettait d'accélérer la fermentation des boissons alcoolisées et faciliter les digestions lourdes.
4	11	2022	20221104	4 de novembre de 1942. Naissance du médecin et inventeur Patricia Bath. Elle a été la première femme afro-américaine à recevoir un brevet à des fins médicales. Sa sonde Laserphaco est utilisée pour traiter les cataractes.
5	11	2022	20221105	5 de novembre de 1927. Naissance du statisticien Hirotsugu Akaike. Il a formulé le critère d'information d'Akaike (AIC), largement utilisé pour mesurer la qualité relative d'un modèle statistique.
6	11	2022	20221106	6 de novembre de 1988. Naissance de l'informaticienne Alexandra Elbakyan. En 2011, elle a créé Sci-Hub, un site web offrant un accès gratuit à une multitude d'articles scientifiques.
7	11	2022	20221107	7 de novembre de 1905. Leonardo Torres Quevedo fait la première démonstration du télékino, un automate télécommandé. Il s'agissait d'une étape importante dans l'ingénierie, car c'était le premier appareil radiocommandé de l'histoire.
8	11	2022	20221108	8 de novembre de 1968. Mort de la chimiste et pharmacienne Chika Kuroda. Elle a contribué au développement du médicament antihypertenseur Kerutin C en étudiant la pigmentation de la peau d'oignon et en en extrayant des cristaux de quercétine.
9	11	2022	20221109	9 de novembre de 1910. Naissance du médecin Eugenia Sacerdote de Lustig. Elle a été la première personne à être vaccinée contre la polio en Argentine, s'inoculant elle-même et ses enfants en public pour convaincre la population des bienfaits du vaccin.
10	11	2022	20221110	10 de novembre de 1887. Naissance d'Elisa Leonida Zamfirescu, la première ingénieure roumaine et l'une des premières au monde. Elle a dirigé les laboratoires de l'Institut géologique roumain.
11	11	2022	20221111	11 de novembre de 2006. Mort d'Esther Lederberg, découvreuse du phage lambda, qui infecte E. coli. Elle est considérée comme la mère du génie génétique en raison de cette découverte, qui a été la clé du développement de cette discipline.
12	11	2022	20221112	12 de novembre de 1910. Naissance du mathématicien Hua Luogeng. Bien qu'il n'ait jamais eu de formation universitaire formelle, ses talents de mathématicien lui ont permis d'écrire de nombreux articles qui sont devenus des classiques.
13	11	2022	20221113	13 de novembre de 1715. Naissance du médecin Dorothea Erxleben. Inspirée par Laura Bassi, elle s'est battue pour son droit de pratiquer la médecine et est devenue la première femme à obtenir un doctorat dans cette discipline en Allemagne.
14	11	2022	20221114	14 de novembre de 1889. Naissance de l'écrivain Taha Hussein, fondateur de l'Institut égyptien d'études islamiques à Madrid. Ce centre encourage la recherche dans les domaines de la culture arabe, andalouse et hispanique et agit comme un pont de compréhension entre les deux rives de la Méditerranée.
15	11	2022	20221115	15 de novembre de 1313. Naissance du médecin, écrivain et homme politique andalou Ibn al-Khatib. Il a écrit plus de 70 ouvrages, dont un traité sur l'épidémie de peste. Ses poèmes ornent l'Alhambra de Grenade.
16	11	2022	20221116	16 de novembre de 2015. La mathématicienne afro-américaine Katherine Johnson reçoit la médaille de la liberté des mains de Barack Obama. Ses calculs de mécanique orbitale ont été fondamentaux pour le succès de la NASA.
17	11	2022	20221117	17 de novembre de 1881. Naissance d'Ethel Bellamy, informaticienne astronomique et sismologue. Elle a aidé à cataloguer la position d'environ un million d'étoiles depuis l'observatoire Radcliffe à Oxford.
18	11	2022	20221118	18 de novembre de 1906. Naissance de la physicienne théorique Wang Ming-chen. Elle est connue pour ses travaux sur les processus stochastiques et le mouvement brownien.
19	11	2022	20221119	19 de novembre de 1887. Naissance du biochimiste James Batcheller Sumner. Il reçoit le prix Nobel pour avoir mis au point des méthodes permettant de cristalliser les enzymes à l'état pur. Grâce à eux, nous savons que les enzymes sont des protéines.
20	11	2022	20221120	20 de novembre de 1885. Naissance de l'ingénieure Olive Wetzel Dennis. Ses conceptions révolutionnaires ont changé la nature du voyage en train.
21	11	2022	20221121	21 de novembre de 1932. L'École d'études arabes de Grenade est inaugurée. Son premier directeur était l'arabisant Emilio García Gómez. En 1939, l'école a été intégré au CSIC.
22	11	2022	20221122	22 de novembre de 1864. Naissance du médecin Rukhmabai. Elle a été l'une des premières femmes médecins de l'Inde coloniale. Elle a dirigé l'hôpital pour femmes de Surat et a créé la société de la Croix-Rouge à Rajkot.
23	11	2022	20221123	23 de novembre de 1924. Edwin Hubble publie sa découverte qu'Andromède est une galaxie (et non une nébuleuse). Cela a prouvé que la Voie lactée n'était pas la seule galaxie de l'univers.
24	11	2022	20221124	24 de novembre de 1895. Naissance de la géologue et paléontologue Esther Applin. Elle a été la première à utiliser les microfossiles pour dater les formations rocheuses. Ces informations ont été utilisées pour rechercher du pétrole dans le Golfe du Mexique.
25	11	2022	20221125	25 de novembre de 2008. Le prix Nobel de physique George Smoot inaugure le Musée didactique et interactif des sciences de la Vega Baja del Segura de la Communauté de Valence (MUDIC-VBS-CV).
26	11	2022	20221126	26 de novembre de 1894. Naissance du mathématicien Norbert Wiener. Il est considéré comme le fondateur de la cybernétique en tant que nouvelle science.
27	11	2022	20221127	27 de novembre de 1911. Naissance de la pédiatre Fe Villanueva del Mundo. Elle a été remarquée pour son travail de pionnière sur les maladies infectieuses dans les communautés philippines.
28	11	2022	20221128	28 de novembre de 1991. Mort de la biochimiste Lu Gwei-djen. Spécialiste de l'histoire des sciences et des technologies en Chine, elle était également médecin spécialiste de la nutrition.
29	11	2022	20221129	29 de novembre de 1920. Naissance du chimiste textile Joseph Shivers. Il est surtout connu pour son rôle dans le développement du Spandex ou élasthanne, une fibre d'une grande élasticité et résistance.
30	11	2022	20221130	30 de novembre de 1803. L'expédition royale philanthropique de vaccination, dirigée par Francisco Javier Balmis, part de La Corogne. Dans la corvette María Pita voyageaient l'infirmière Isabel Zendal et 22 orphelins qui allaient faire le tour du monde avecle vaccin.
1	12	2022	20221201	1 de décembre de 2007. Mort de June Almeida, la virologue à l'origine de nouvelles méthodes d'identification et d'imagerie virale. Elle a été la première personne à voir un coronavirus au microscope.
2	12	2022	20221202	2 de décembre de 2012. Mort du designer industriel Gabriel Lluelles. Il a inventé le Minipimer, l'un des premiers mixeurs manuels, dont le nom est couramment utilisé pour désigner ces instruments.
3	12	2022	20221203	3 de décembre de 1930. Naissance de Sara Rietti, première chimiste nucléaire argentine. Elle a étudié les hydrures de bore (qu'elle a appelés ses boranes), utilisés dans l'industrie aérospatiale.
4	12	2022	20221204	4 de décembre de 1927. Naissance de la neuropédiatre Isabelle Rapin. Elle était une référence scientifique dans l'étude des troubles du spectre autistique.
5	12	2022	20221205	5 de décembre de 1822. Naissance de la naturaliste et éducatrice Elizabeth Cabot Agassiz. Elle a entrepris des expéditions scientifiques avec son mari Louis, avec qui elle a fondé le laboratoire marin de l'Anderson School of Natural History.
6	12	2022	20221206	6 de décembre de 1877. Thomas Edison réalise le premier enregistrement sur un cylindre de phonographe. Cet appareil pouvait à la fois enregistrer et reproduire le son.
7	12	2022	20221207	7 de décembre de 1921. Naissance de Valerie Hunter Gordon. Elle a inventé la Paddi, un système de double couche jetable et de couverture lavable (le premier du genre), et le Nikini, un précurseur des serviettes hygiéniques.
8	12	2022	20221208	8 de décembre de 1920. Naissance de la pharmacienne Ester de Camargo Fonseca Moraes. Elle a été une pionnière dans l'introduction de la toxicologie au Brésil, où elle a créé un laboratoire antidopage.
9	12	2022	20221209	9 de décembre de 1748. Naissance du chimiste Claude Louis Berthollet. Il a étudié les propriétés blanchissantes du chlore et a mis au point une méthode de blanchiment des tissus à l'aide d'une solution d'hypochlorite de sodium : l'eau de Javel.
10	12	2022	20221210	10 de décembre de 2017. Des chercheurs de l'IGME et de l'Université d'Oxford décrivent une nouvelle tique : la Deinocroton draculi ou la terrible tique de Dracula. Elle parasitait les dinosaures dans ou près de leurs nids.
11	12	2022	20221211	11 de décembre de 1913. Otto Rohm fait breveter le premier détergent enzymatique : Burnus. L'idée lui est venue de sa femme, qui a suggéré que les extraits qui dissolvent la graisse avant le tannage du cuir pourraient également dissoudre les taches sur lestissus. Aujourd'hui, tous les détergents contiennent des enzymes.
12	12	2022	20221212	12 de décembre de 1927. Naissance de Robert Noyce, l'ingénieur qui a inventé la puce électronique. Il était surnommé le maire de la Silicon Valley.
13	12	2022	20221213	13 de décembre de 1204. Mort du philosophe séfarade Ibn Maymun (Maïmonide). Il excellait dans les domaines de la médecine et de l'astronomie, et était une figure de proue de la science et de la philosophie de l'époque.
14	12	2022	20221214	14 de décembre de 1546. Naissance de l'astronome Tycho Brahe. Il est considéré comme l'un des plus grands observateurs du ciel avant l'invention du télescope.
15	12	2022	20221215	15 de décembre de 1935. Naissance de l'astronome Tamara Smirnova. Avec l'astronome Nikolai Chernykh, elle a découvert 135 astéroïdes et la comète périodique 74P/Smirnova-Chernykh.
16	12	2022	20221216	16 de décembre de 1901. Naissance de l'anthropologue Margaret Mead. Elle a remis en question la vision biologiste dominante dans les sciences sociales, selon laquelle la division du travail familial était établie sur la base de différences supposées innéesentre le comportement productif des hommes et le comportement expressif des femmes.
17	12	2022	20221217	17 de décembre de 1813. Mort de l'agronome et hygiéniste Antoine Parmentier. Grâce à son travail, les lois interdisant la culture de la pomme de terre ont été abrogées. Jusqu'alors, la pomme de terre était considérée comme non comestible dans presque tousles pays européens.
18	12	2022	20221218	18 de décembre de 1926. Gilbert N. Lewis utilise pour la première fois le terme photon pour décrire le comportement corpusculaire de la lumière.
19	12	2022	20221219	19 de décembre de 2016. Lancement de PanAfGeo, le plus grand projet international développé entre les services géologiques européens et africains. L'IGME y participe.
20	12	2022	20221220	20 de décembre de 1900. La comète 21P/Giacobini-Zinner a été aperçue pour la première fois. En 1985, elle est devenue la première comète à être visitée par un vaisseau spatial.
21	12	2022	20221221	21 de décembre de 2018. L'influence du changement climatique sur la glace sous-marine est étudiée pour la première fois. Cette recherche est menée dans le cadre du projet EXPLOSEA, dirigé par l'IGME.
22	12	2022	20221222	22 de décembre de 1943. Mort de Beatrix Potter. En plus d'être écrivaine et illustratrice de contes pour enfants, elle a été l'une des premières personnes à cultiver des champignons à partir de leurs spores. Elle a postulé que la moisissure est une étape de la croissance des champignons, et non un organisme différent.
23	12	2022	20221223	23 de décembre de 1805. Mort de l'écrivaine et anatomiste Geneviève Charlotte Thiroux d'Arconville. Elle est connue pour ses études sur la putréfaction, qu'elle a rassemblées dans son Essai pour servir à l'histoire de la putréfaction (1766).
24	12	2022	20221224	24 de décembre de 1891. Naissance de Marguerite Thomas Williams, première géologue afro-américaine à recevoir un doctorat aux États-Unis, à une époque où les droits la population noire n'étaient même pas reconnus. Sa thèse a montré que l'activité humaine dans le façonnage du paysage était liée à l'inondation tragique de la rivière Anacostia.
25	12	2022	20221225	25 de décembre de 1938. Mort de l'écrivain de science-fiction Karel Čapek. Il a popularisé le mot robot dans sa pièce R. U. R. (1920).
26	12	2022	20221226	26 de décembre de 1791. Naissance du mathématicien Charles Babbage. Il a conçu la première machine à calculer programmable. Bien qu'elle n'ait pu être construite, elle est aujourd'hui considérée comme une prédécesseur des ordinateurs.
27	12	2022	20221227	27 de décembre de 2020. Araceli Hidalgo, âgée de 96 ans, devient la première personne à être vaccinée contre le COVID-19 en Espagne.
28	12	2022	20221228	28 de décembre de 1957. Le vaccin de Salk commence à être utilisé en Espagne. C'était le premier vaccin efficace contre la polio.
29	12	2022	20221229	29 de décembre de 1952. Le premier appareil auditif à transistor est mis en vente. Il a coûté 300 dollars.
30	12	2022	20221230	30 de décembre de 1924. Naissance de l'ingénieure aérospatial Yvonne Madelaine Brill. Elle a breveté un système de propulsion à l'hydrazine permettant de maintenir un satellite sur une orbite géostationnaire fixe plus longtemps que les autres méthodes.
31	12	2022	20221231	31 de décembre de 1909. Mónico Sánchez fait breveter le premier appareil portable à rayons X et à courant haute fréquence.
