dia	mes	agno	personaje	Texto 
1	1	2024	20240101	1 de chinero de 1769. Naixe la partera Marie-Louise Lachapelle. Estió directora d'obstetricia en l'Hôtel-Dieu, lo hespital mas antigo de París. Per las suyas ensenyanzas, ye considerada la mai d'a obstetricia moderna.
2	1	2024	20240102	2 de chinero de 1972. Muere la enchenyera Lillian Moller Gilbreth. Experta en eficiencia, va contribuyir a lo estudio d'a enchenyería industrial en campos como lo movimiento y los factors humanos.
3	1	2024	20240103	3 de chinero de 1873. Naixe la botanica Mary Strong Clemens. Recolectó dilichentment especímens de flora tota la suya vida en partes remotas de Filipinas, Borneo, China, Australia y Nueva Guinea.
4	1	2024	20240104	4 de chinero de 1883. Naixe la fitopatologa Johanna Westerdijk. Entre atros, va estar la responsable de mantener la colección de bels 80 cautivos de fongos d'a International Association of Botanists.
5	1	2024	20240105	5 de chinero de 1943. Muere l'agronomo y botanico George Washington Carver. Extrayió mas de 300 productos d'o calcauet pa lo suyo uso alimentario y industrial.
6	1	2024	20240106	6 de chinero de 1875. Naixe la microbiologa y nutricionista Harriette Chick. Chunto a Elsie Dalyell van descubrir lo factor nutricional que causa lo raquitismo y va amostrar cómo curar-lo y aprevenir-lo.
7	1	2024	20240107	7 de chinero de 1894. L'inventor William K. L. Dickson recibe la patent pa una cinta cinematografica en movimiento. En 1895 fundó la Biograph Company, un d'os estudios de cine mas prolificos d'o suyo tiempo.
8	1	2024	20240108	8 de chinero de 1927. Naixe la fisica aeroespacial y inventora Virginia Tower Norwood. Va contribuyir a lo programa Landsat, disenyando l'escaner multiespectral que s'utilizó per primer vegada en Landsat 1.
9	1	2024	20240109	9 de chinero de 1869. Naixe lo quimico Richard Wilhelm Heinrich Abegg. Estió lo primer investigador que dició que la valencia quimica heba d'estar relacionada con a configuración electronica.
10	1	2024	20240110	10 de chinero de 1729. Naixe lo naturalista Lazzaro Spallanzani. Va estar un apasionau d'o estudio d'a dichestión, contrimostrando que ye un proceso quimico y no pas mecanico, como se creyeba dica alavez.
11	1	2024	20240111	11 de chinero de 1892. Naixe la entomologa y ilustradora cientifica Doris Holmes Blake. Estió una experta en crisomelidos (escarabachos d'as fuellas).
12	1	2024	20240112	12 de chinero de 1917. Naixe la estatistica Stella Vivian Cunliffe. Va estar la primera muller en presidir la Reyal Sociedat Estatistica d'o Reino Uniu.
13	1	2024	20240113	13 de chinero de 1913. Naixe la enchenyera civil Enedina Alves Marqués. Treballó en l'aproveitamiento de l'augua d'os ríos Capivari, Cachoeira y Iguazú y construyió la central hidroelectrica Capivari-Cachoeira (Brasil). ​​
14	1	2024	20240114	14 de chinero de 1901. Naixe lo lochico Alfred Tarski. Ixe mesmo día, pero de 1978. Muere lo tamién lochico Kurt Gödel. En o suyo homenache, lo 14 de chinero se commemora lo Día Mundial d'a Lochica.
15	1	2024	20240115	15 de chinero de 2001. Naixe oficialment la Wikipedia, una enciclopedia libre y​ poliglota que ye editada de traza colaborativa. Ye administrada per la Fundación Wikimedia, una organización sin fins de lucro.
16	1	2024	20240116	16 de chinero de 2009. S'inaugura lo Hespital Universitario Río Hortega (Valladolid). Lo suyo nombre recupera la figura d'o neurobiologo Pío del Río Hortega. La suya carrera y reconoixencia se van veyer dificultadas per la suya homosexualidat.
17	1	2024	20240117	17 de chinero de 1624. Naixe lo matematico, escritor y arquitecto Guarino Guarini. Escribió una serie de libros de matematicas, entre éls Euclides adauctus, un d'os primers trataus de cheometría descriptiva.
18	1	2024	20240118	18 de chinero de 1779. Naixe lo fisico, matematico, medico, filologo y lexicografo Peter Mark Roget. Va estudiar la persistencia d'a retina, l'orichen d'o dibuixo animau. Va publicar lo Tresoro de parolas y frases anglesas.
19	1	2024	20240119	19 de chinero de 1904. Naixe la quimica Lucy Weston Pickett. Ye conoixida per las suyas investigacions de moleculas organicas per cristalografía de rayos X y espectroscopía d'absorción ultravioleta.
20	1	2024	20240120	20 de chinero de 1943. Naixe lo cardiologo Valentín Fuster. Ha publicau numerosos estudios sobre las afeccions de l'arteria coronaria, arterioesclerosi y trombosi. En 1996 va recibir lo Premio Principe d'Asturias.
21	1	2024	20240121	21 de chinero de 1935. Naixe la enchenyera naval Raye Jean Montague. Creó lo primer sistema de disenyo per ordinador de buques militars, cambiando asinas, de traza radical, la forma de fabricar-los y utilizar-los.
22	1	2024	20240122	22 de chinero de 1855. Naixe lo medico Albert Neisser. Va descubrir la bacteria Neisseria gonorrhoeae, l'achent causant d'a gonorrea, una infección de transmisión sexual.
23	1	2024	20240123	23 de chinero de 1909. Naixe l'arqueologa Tatiana Proskouriakof. Contribuyió a descifrar la escritura maya y proposó un sistema de datación de monumentos basau en a morfolochía y estilo escultorico d'as piezas.​
24	1	2024	20240124	24 de chinero de 1809. Naixe Mariano d'a Paz Graells, un d'os cientificos espanyols mas destacaus d'o sieglo XIX. Va dirichir lo Museu Nacional de Ciencias Naturals y va emprender preciosos prochectos de zoolochía aplicada.
25	1	2024	20240125	25 de chinero de 1867. Naixe la medica Adelaide Cabete. Educó a atras mullers en o cudiau de ninas y ninos y en a hichiene femenina, y animó a la obridura d'hespitals de maternidat.
26	1	2024	20240126	26 de chinero de 1886. Naixe lo medico Fidel Pagés, pionero en o desenrollo de l'anestesia epidural. Per la suya temprana muerte y perque lo suyo treballo no va estar traduciu, los suyos descubrimientos van estar desconoixius per muitos anyos.
27	1	2024	20240127	27 de chinero de 1902. Naixe l'astronoma Margaret Walton Mayall. Treballó en fotometría y clases espectrals d'estrelas variables. Tamién dirichió l'Asociación Estausunidense d'Observadors d'Estrelas Variables.
28	1	2024	20240128	28 de chinero de 1540. Naixe lo matematico Ludolph van Ceulen. Calculador excepcional, se le conoixe fundamentalment per haber aproximau la valor d'o numero pi con 35 cifras decimals exactas.
29	1	2024	20240129	29 de chinero de 1881. Naixe la microbiologa Alice C. Evans. Descubrió lo mecanismo de transmisión d'a brucelosi, recomendando la pasteurización d'a leit de vaca pa privar esta malotía.
30	1	2024	20240130	30 de chinero de 2019. En a Reyal Academia de Ciencias Exactas, Fisicas y Naturals se celebra l'homenache a siet cientificos represaliaus entre la dictadura franquista, tornando-les lo suyo diploma academico.
31	1	2024	20240131	31 de chinero de 1961. Lo chimpancé Ham pilota una misión de preba d'o prochecto Mercury. Estió asinas lo primer hominido en plegar en l'espacio exterior.
1	2	2024	20240201	1 de febrero de 1851. Naixe lo bacteriologo Jaime Ferrán. Desenvolvió una vacuna pionera cuentra lo colera. Lo suyo uso estió muito polemico y habioron de pasar 20 anyos pa que Ferrán estase reconoixiu mundialment per ixo.
2	2	2024	20240202	2 de febrero de 1922. Naixe lo cientifico Albert Schatz. Chunto a Selman Waksman, va descubrir l'aminoglucosido estreptomicina, un antibiotico aislau a partir d'a bacteria Streptomyces griseus.
3	2	2024	20240203	3 de febrero de 1931. Naixe Olga M. Kozhova. Ye conoixida per las suyas investigacions sobre la hidrolochía y ecolochía d'o lago Baikal. Tamién estudió las actividaz humanas que menazan este ecosistema lacustre.
4	2	2024	20240204	4 de febrero de 1929. Naixe la programadora Mary Coombs. Va estar la primer muller en treballar en l'Ordinador LEO, lo primer ordinador d'a historia destinau a los negocios.
5	2	2024	20240205	5 de febrero de 1918. Naixe la matematica y historiadora d'as matematicas Cecily Tanner. Dimpués d'investigar inicialment sobre integración, se dedicó mas que mas a la historia y la educación en matematicas.
6	2	2024	20240206	6 de febrero de 1996. Lo Reino Uniu transfiere a Ucraína una base d'investigación en l'Antartida. Nombrada Akademik Vernadsky, ye situada en a punta Marina d'a isla Galíndez (archipelago Wilhelm).
7	2	2024	20240207	7 de febrero de 1871. Naixe lo bacteriologo Kiyoshi Shiga. Descubrió la bacteria Shigella dysenteriae, causant d'a disentería infecciosa, y desenvolvió un suero eficaz pa tratar esta malotía.
8	2	2024	20240208	8 de febrero de 1831. Naixe la enfermera y medica Rebecca Lee Crumpler. Desafiando los prechudicios d'a epoca, se va convertir en a primera muller afroamericana en obtener lo títol de medicina, en 1864.
9	2	2024	20240209	9 de febrero de 1892. Naixe la ecologa acuatica y zoologa Minna Jewell. Ye conoixida per las suyas investigacions sobre las esponchas d'augua dulza.
10	2	2024	20240210	10 de febrero de 1842. Naixe l'astronoma Agnes Mary Clerke. Va aconseguir fama mundial en 1885 en publicar-se lo suyo exhaustivo tratau A Popular History of Astronomy during the Nineteenth Century.
11	2	2024	20240211	11 de febrero de 2005. Muere la matematica y enchenyera Mary W. Jackson. Estió la primera enchenyera negra d'a NASA y treballó pa influyir tanto en a contratación como en a promoción de mullers en esta achencia.
12	2	2024	20240212	12 de febrero de 1819. Muere lo medico Francisco Javier Balmis. Va encabezar la Reyal Expedición Filantropica pa difundir la vacuna d'a picueta en America y Filipinas.
13	2	2024	20240213	13 de febrero de 1913. Naixe la virologa Marguerite Vogt. Ye fundamentalment conoixida per la suya investigación sobre la poliomielitis y lo cáncer en l'Instituto Salk d'Estudios Biolochicos.
14	2	2024	20240214	14 de febrero de 2003. Muere la uella Dolly. En 1996 se va convertir en o primer mamifero clonau a partir d'una celula adulta.
15	2	2024	20240215	15 de febrero de 1564. Naixe Galileo Galilei. Los suyos logros incluyen la millora d'o telescopio, gran variedat d'observacions astronomicas y la primera lei d'o movimiento.
16	2	2024	20240216	16 de febrero de 1514. Naixe Georg Joachim Rheticus, matematico, astronomo, teologo, cartografo, constructor d'instrumentos musicals y medico. Va estar disciplo de Copernico.
17	2	2024	20240217	17 de febrero de 1928. Naixe lo virologo Michiaki Takahashi. Desenvolvió la primer vacuna cuentra la picueta loca. Estió una investigación muito difícil a partir d'una cepa viva afeblida d'o virus varicela-zóster.
18	2	2024	20240218	18 de febrero de 1877. Naixe Alice Grace Cook, astronoma conoixida per las suyas observacions de meteoritos y lo descubrimiento d'a nova V603 Aquilae.
19	2	2024	20240219	19 de febrero de 1955. Lo mendelevio ye sintetizau per primer vegada, en a Universidat de California en Berkeley (EUA). Lo suyo nombre recuerda a lo quimico Dmitri Mendeléyev, clau en a creación d'a Taula Periodica.
20	2	2024	20240220	20 de febrero de 1902. Naixe la fisica Katharine Way. Va formar parte de l'equipo d'o prochecto Manhattan pa lo cual va treballar en o disenyo de reactors y en o procesamiento de datos obtenius en procesos radioactivos.
21	2	2024	20240221	21 de febrero de 1962. Muere Julio Rey Pastor. Investigó sobre cheometría alchebraica y cheometría prochectiva, aconseguindo estar un d'os matematicos mas relevants d'a suya epoca en Europa.
22	2	2024	20240222	22 de febrero de 1796. Naixe Adolphe Quetelet. Va aplicar lo metodo estatistico a la sociolochía y va inventar l'índiz de masa corporal que encara s'utiliza en l'actualidat pa determinar la obesidat.
23	2	2024	20240223	23 de febrero de 1924. Naixe lo fisico Allan McLeod Cormack. En 1979 recibió un Premio Nobel, chunto a l'enchenyero Godfrey Newbold Hounsfield, per lo desenrollo d'a tomografía asistida per ordinador.
24	2	2024	20240224	24 de febrero de 1827. Naixe la sufrachista y cientifica amateur Lydia Becker. Va estudiar botanica y se va interesar tamién per l'astronomía, mantenendo correspondencia con Charles Darwin.
25	2	2024	20240225	25 de febrero de 1925. Naixe la bioquimica Ruth Benesch. Descubrió chunto a lo suyo hombre una clase especial de compuesto de fosforo, l'acido 2,3-bisfosfoglicerico, un vinclo entre la hemoglobina y l'oxicheno.
26	2	2024	20240226	26 de febrero de 1815. Muere lo matematico Agustín de Pedrayes. Va representar a Espanya en a elaboración d'o sistema metrico de pesas y medidas.
27	2	2024	20240227	27 de febrero de 2011. Se celebra lo primer Día Internacional de l'Onso Polar pa clamar l'atención sobre las dificultaz a las cuals s'enfrenta esta especie a causa d'o calentamiento de l'Artico.
28	2	2024	20240228	28 de febrero de 1863. Naixe lo medico Gheorghe Marinescu. Ye conoixiu per estar lo fundador d'a escuela rumana de neurolochía. La suya monumental obra La celula nerviosa, ye prologada per Santiago Ramón y Cajal.
29	2	2024	20240229	29 de febrero de 2008. Primer Día Europeu d'as Malotías Raras. Lo suyo obchectivo ye conscienciar sobre las malotías que, per lo suyo carácter excepcional, son invisibles pa gran parte d'a población.
1	3	2024	20240301	1 de marzo de 1955. Naixe lo quimico Gregory Hillhouse. Investigó los compuestos organometalicos con metals de transición y contrimostró, per eixemplo, que lo níquel creaba vinclos con elementos como lo nitrocheno.
2	3	2024	20240302	2 de marzo de 1972. Donella Meadows y los suyos colaboradors publican l'informe Los limites de creiximiento, en o cual alertan d'os limites d'a planeta pa sostener lo creiximiento economico y poblacional.
3	3	2024	20240303	3 de marzo de 1924. Naixe Ruth Hubbard. Entre la suya carrera investigadora fació importants contribucions a la comprensión d'a bioquimica y d'a fotoquimica d'a visión en vertebraus y invertebraus.
4	3	2024	20240304	4 de marzo de 1877. Naixe l'inventor Garrett Augustus Morgan. Va redisenyar la careta de gas pa privar las inhalacions de gas per los pompers y patentó lo semaforo automatico con luz d'alvertencia.
5	3	2024	20240305	5 de marzo de 1885. Naixe la patologa Louise Pearce. Participó en o desenrollo d'una medecina pa tratar la malotía d'o suenio (tripanosomiasis africana). Estió lo tratamiento de referencia dica los anyos 60.
6	3	2024	20240306	6 de marzo de 1665. Se publica en Londres lo primer numero de Philosophical Transactions of the Royal Society. Se considera la primer revista cientifica d'o mundo y sigue activa en l'actualidat.
7	3	2024	20240307	7 de marzo de 1912. L'explorador Roald Amundsen anuncia lo descubrimiento d'o Polo Sud.
8	3	2024	20240308	8 de marzo de 1820. Fernando VII suprime la Inquisición espanyola. Esta institución relichiosa va limitar los progresos d'a ciencia per cuantos sieglos, censurando libros y perseguindo las teorías contrarias a lo suyo credo.
9	3	2024	20240309	9 de marzo de 1934. Naixe lo cosmonauta Yuri Gagarin. En 1961 se convirtió en a primer persona en viachar ta lo espacio exterior.
10	3	2024	20240310	10 de marzo de 1961. Naixe la cirurchana aeronautica Laurel Blair Salton Clark. Va morir en l'accident d'o transbordador espacial Columbia, mientres lo suyo reingreso en l'atmosfera.
11	3	2024	20240311	11 de marzo de 1911. Muere l'astronomo, matematico y enchenyero Julio Garavito Armero. Las suyas investigacions estioron decisivas pa lo desenrollo d'a ciencia en Colombia. Un cráter lunar leva lo suyo nombre dende 1970.
12	3	2024	20240312	12 de marzo de 1824. Naixe lo fisico Gustav Robert Kirchhoff. Va contribuyir a lo estudio d'os circuitos electricos, la teoría de placas, la optica, la espectroscopia y la emisión de radiación d'un cuerpo negro.
13	3	2024	20240313	13 de marzo de 1946. Naixe la ecologa evolutiva Joan Roughgarden. Ye conoixida per las suyas investigacions sobre coevolución y selección sexual. La suya obra mas conoixida ye L'arco de Sant Chuan d'a evolución.
14	3	2024	20240314	14 de marzo de 1928. Naixe lo naturalista Félix Rodríguez de la Fuente, conoixiu per la exitosa serie L'hombre y la Tierra. La suya pasión y carisma van influyir en l'adopción de politicas de protección d'a naturaleza.
15	3	2024	20240315	15 de marzo de 1994. L'asteroide 1994 ES1 pasa a 165.000 km d'a Tierra, cuasi la metat d'a distancia que existe entre la nuestra planeta y la Luna. Con un diametro de 28,5 m, no se detectó dica lo día d'antes.
16	3	2024	20240316	16 de marzo de 1953. Naixe lo programador informatico Richard Stallman. Se considera lo fundador d'o software libre con o lanzamiento, en 1983, d'o sistema operativo GNU.
17	3	2024	20240317	17 de marzo de 1993. Lo biofisico Alexandre Quintanilha ye reconoixiu como Gran Oficial d'a Orden Militar de Santiago d'a Espada. Esta condecoración portuguesa premia lo merito literario, cientifico y artistico.
18	3	2024	20240318	18 de marzo de 1910. Se crea en Madrid lo Centro d'Estudios Historicos, una d'as institucions d'a Chunta pa Ampliación d'Estudios. Un d'os suyos directors mas ilustres va estar Ramón Menéndez Pidal.
19	3	2024	20240319	19 de marzo de 1943. Naixe l'enchenyero quimico y premio Nobel Mario Molina. Estió una d'as personas que descubrió las causas d'o forau en a capa d'ozono de l'Antartida.
20	3	2024	20240320	20 de marzo de 1890. Naixe la fisica nuclear Elizabeth Rona. Ye conoixida per lo suyo treballo con isotopos radioactivos.
21	3	2024	20240321	21 de marzo de 1994. Dentra en vigor la Convención Marco d'as Nacions Unidas sobre lo Cambio Climatico. Ha estau ratificada per aproximadament 200 países.
22	3	2024	20240322	22 de marzo de 1938. Naixe la fisica Alejandra Jáidar. La suya investigación se centró en a traza d'aplicar metodos y tecnicas de fisica nuclear como ferramientas d'analisi en atros campos d'a fisica.
23	3	2024	20240323	23 de marzo de 1749. Naixe Pierre Simon Laplace, un d'os grans cientificos d'a Ilustración. Contrimostró que los movimientos planetarios son estables y metió las bases d'a teoría matematica d'a probabilidat.
24	3	2024	20240324	24 de marzo de 1934. Naixe l'investigador en nutrición animal Egil Robert Ørskov. Ye reconoixiu per las suyas contribucions en o campo d'o metabolismo enerchetico y proteico en o bestiar remugador.
25	3	2024	20240325	25 de marzo de 1878. Naixe la forense Frances Glessner Lee. Revolucionó lo estudio d'a criminalistica con uns dioramas clamaus Nutshell studies of unexplained deaths (Chicoz escenarios de muertes inexplicables).
26	3	2024	20240326	26 de marzo de 1926. Naixe la matematica Magdalena Mouján Otaño. Va fer parte d'a Comisión Nacional d'Enerchía Atomica (Archentina) y va estar una d'as primeras personas en treballar con l'ordinador Clementina.
27	3	2024	20240327	27 de marzo de 1913. Naixe la chenetista y biologa evolutiva Raissa L'vovna Berg. Entre atros, estudió los carácters hereditarios en Drosophila melanogaster y la chenetica de poblacions de malotías hereditarias.
28	3	2024	20240328	28 de marzo de 1895. Los chirmans Lumiére presentan a lo publico lo suyo invento clamau cinematografo, en París (Francia).
29	3	2024	20240329	29 de marzo de 1958. Naixe l'economista Nouriel Roubini. Ye conoixiu per las suyas prediccions sobre la crisi financiera d'as hipotecas subprime. Encara que li acuroson de pesimista, las suyas previsions estioron precisas.
30	3	2024	20240330	30 de marzo de 2010. Lo Gran Colisionador d'Hadrons (LHC) aconsigue fer colisionar particlas a 7 teraelectronvoltios (TeV). Va estar la maxima enerchía aconseguida en un acelerador, emulando lo Big Bang.
31	3	2024	20240331	31 de marzo de 1076. Naixe l'alfaquín Abu Bakr Ibn al-Arabi. Escribió numbrosas obras sobre teolochía y churisprudencia, con as cuals difundió las conoixencias churidicas d'oriente en o suyo tiempo.
1	4	2024	20240401	1 d'abril de 1806. Naixe la zoologa marina Anna Thynne. Construyió lo primer acuario marino equilibrau. Sirvió d'inspiración pa la Fish house d'o zoolochico de Londres, lo primer acuario publico d'o mundo.
2	4	2024	20240402	2 d'abril de 1851. Lo quimico Antonio Casares aconsigue producir luz electrica per primer vegada en Espanya. Lo va fer en o claustro d'a Universidat de Santiago, utilizando un arco voltaico.
3	4	2024	20240403	3 d'abril de 1934. L'inventor Percy Shaw rechistra la solicitut de patent pa lo retrorreflector de carretera de uello de gato. Este indicador facilita la conducción nocturna y millora la seguranza vial.
4	4	2024	20240404	4 d'abril de 1930. Naixe la biologa marina Shirley Winifred Jeffrey. Estió pionera en o desenrollo de metodos quimicos pa caracterizar pigmentos y aplicar-los a lo estudio de fitoplancton. Va descubrir la clorofila c.
5	4	2024	20240405	5 d'abril de 1949. Naixe la enchenyera y astronauta Judith Resnik. Treballó en enchenyería electrica y de software, contribuyindo tamién con investigacions d'enchenyería biomedica.
6	4	2024	20240406	6 d'abril de 1869. Se sinya lo prochecto pa la creación d'o Museu Americano d'Historia Natural (Nueva York). Ye un d'os museus cientificos mas grans d'o mundo, con mas de 32 millons de especímens.
7	4	2024	20240407	7 d'abril de 1969. L'enchenyero Steve Crocker –d'a Universidat de California en Los Angeles (UCLA)– publica lo documento Host software, considerau lo punto de partida d'o que hue ye internet.
8	4	2024	20240408	8 d'abril de 1883. Naixe la bacteriologa Muriel Robertson. Va mostrar que lo parasito Trypanosoma gambiense, que causa la malotía d'o suenio, cambia lo suyo recubrimiento de proteínas, fendo a-saber qué difícil crear vacunas.
9	4	2024	20240409	9 d'abril de 1869. Naixe lo matematico Élie Joseph Cartan. Treballó en a teoría de grupos de Lie y los suyos usos cheometricos. Fació aportacions a la fisica matematica, a la cheometría diferencial y a la teoría de grupos.
10	4	2024	20240410	10 d'abril de 2019. L'equipo d'Event Horizon Telescope publica la primer imachen d'un forau negro localizau en o centro d'a galaxia Messier 87.
11	4	2024	20240411	11 d'abril de 1912. Naixe la botanica Graziela Maciel Barroso. Conoixida en Brasil como la 'Primera dama d'a botanica', investigó especialment en o campo d'a sistematica vechetal.
12	4	2024	20240412	12 d'abril de 1911. Naixe l'arquitecta Rita Fernández Queimadelos. Va ocupar cargos que nunca no heban estau desempenyaus antes per una muller en Espanya, como lo d'arquitecta municipal u arquitecta escolar provincial.
13	4	2024	20240413	13 d'abril de 1941. Muere l'astronoma Annie Jump Cannon. Lo suyo treballo de catalogación estió fundamental pa l'actual clasificación estelar.
14	4	2024	20240414	14 d'abril de 1899. Naixe la quimica Branca Edmée Marques de Sousa Torres. Va desfender la suya tesi doctoral sobre lo bario en a Universidat Sorbona en 1935, baixo la orientación de Marie Curie y André-Louis Debierne.
15	4	2024	20240415	15 d'abril de 1810. Muere lo biologo Joaquín Fernando Garay d'Auca. Introdució lo cautivo d'a trunfa en Espanya enta 1793. Tamién treballó pa amillorar la chestión de recursos agricolas en a zona de l'Alto Aragón.
16	4	2024	20240416	16 d'abril de 1728. Naixe lo medico y quimico Joseph Black. Ye conoixiu per los suyos descubrimientos d'o magnesio, la calor latent, la calor especifica y lo dioxido de carbonio.
17	4	2024	20240417	17 d'abril de 1887. Naixe la quimica Stefanie Horovitz. Entre la Primera Guerra Mundial treballó en l'Instituto d'o Radio de Viena y confirmó la existencia d'isotopos d'elementos como lo plumo y lo torio.
18	4	2024	20240418	18 d'abril de 1896. Santiago Ramón y Cajal recibe lo Premio Fauvelle d'a Sociedat de Biolochía de París, un d'as suyas muitas reconoixencias internacionals, como la Medalla Helmholtz u los premios Moscú y Nobel.
19	4	2024	20240419	19 d'abril de 1971. Lanzamiento d'a primera estación espacial: la Salyut 1. S'estió 175 días en orbita, dica cuasi acotolar lo combustible pa poder mantener l'altaria.
20	4	2024	20240420	20 d'abril de 1973. Naixe la fisica Montserrat Calleja. Especialista en bionanomecanica, ha investigau las propiedaz mecanicas d'as celulas y la suya relación con o cáncer y ha desenrollau biosensors nanomecanicos.
21	4	2024	20240421	21 d'abril de 2012. S'estableix formalment la Plataforma Intergubernamental sobre Biodiversidat y Servicios Ecosistemicos (IPBES). Entre los suyos obchectivos ye la conservación y uso sostenible d'a diversidat biolochica.
22	4	2024	20240422	22 d'abril de 1970. Se celebra per primer vegada lo Día d'a Tierra. Mira de crear una consciencia común sobre los problemas d'a planeta, como la sobrepoblación, la contaminación u lo calentamiento global.
23	4	2024	20240423	23 d'abril de 1924. Naixe la informatica Maria von Wedemeyer. Tenió un paper important en o desenrollo d'a capacidat d'emulación en computación.
24	4	2024	20240424	24 d'abril de 1877. Naixe la botanica Marie Charlotte Brockmann-Jerosch. Ye conoixida per la suya important investigación sobre la flora alpina y la filocheografía.
25	4	2024	20240425	25 d'abril de 2014. Dimpués de 10 anyos d'esfuerzos, se remata la secuenciación d'o chenoma d'a mosca tse-tse. Esta mosca ye lo vector implicau en a transmisión d'a malotía d'o suenio.
26	4	2024	20240426	26 d'abril de 1896. Naixe la enchenyera aeronautica Sébastienne Guyot. Va colaborar en o disenyo y construcción d'un chicot avión bimotor en 1924 u en o disenyo de fuselaches y cascos de cuantos hidroavions.
27	4	2024	20240427	27 d'abril de 1880. Francis D. Clarke y M.G. Foster obtienen la patent d'un audifono electrico que emplegaba la conducción osia. Manimenos, dica 1901 no se fabricó lo primer audifono comercial, l'Acousticon.
28	4	2024	20240428	28 d'abril de 1932. Los fisicos John Cockcroft y Ernest Walton anuncian que han aconseguiu desintegrar un nuclio atomico con particlas subatomicas aceleradas artificialment.
29	4	2024	20240429	29 d'abril de 1785. Naixe l'inventor Karl Drais. Inventó la laufmaschine –maquina de correr– que dimpués se denominó draisina, precursora d'o velocipedo (la bicicleta).
30	4	2024	20240430	30 d'abril de 1864. Naixe la cheologa y paleontologa Maria Gordon. Va investigar la cadena montanyosa d'os Dolomitas (Italia) y va desafiar la ideya sobre lo suyo orichen, con a suya teoría d'a torsión en a crosta terrestre.
1	5	2024	20240501	1 de mayo de 1922. Alexander Fleming publica lo descubrimiento d'a lisozima, una proteína con propiedaz antibacterianas present en secrecions mucosas y en glarimas.
2	5	2024	20240502	2 de mayo de 1907. Naixe lo fisico y pionero d'a informatica José García Santesmases. Va dirichir la construcción d'a primera computadora analochica y lo primer microprocesador de fabricación espanyola.
3	5	2024	20240503	3 de mayo de 1877. Naixe l'arqueologo, antropologo y cheologo Franz Nopcsa. Se considera un d'os fundadors d'a paleobiolochía, una d'as divisions d'a paleontolochía, chunto a la tafonomía y la biocronolochía.
4	5	2024	20240504	4 de mayo de 2012. Se fa la devantadera d'o Museu Nacional de Ciencia y Tecnolochía (MuNCyT) d'A Coruña. Dende alavez, actúa como referent social y punto de trobada en materia cientifica y tecnolochica.
5	5	2024	20240505	5 de mayo de 1804. Muere lo naturalista y botanico Antonio José de Cavanilles. Estió un d'os primers cientificos espanyols en fer servir los procedimientos taxonomicos de Linneo.
6	5	2024	20240506	6 de mayo de 1859. Muere Alexander von Humboldt. Va estar un explorador pionero en o pensamiento ecolochico, estando reconoixiu per las suyas contribucions a las ciencias naturals, destacando la cheografía botanica.
7	5	2024	20240507	7 de mayo de 1938. Naixe la micologa Gillian Fiona Laundon. Ye conoixida per los suyos estudios sobre las royas, fongos patochenos de plantas, y per crear un nuevo sistema pa la terminolochía d'as esporas.
8	5	2024	20240508	8 de mayo de 1874. Naixe l'arqueologo y echiptologo Howard Carter. Va descubrir la fuesa KV62 en a Val d'os Reis, en a cual yera apedecau lo faraón Tutankamón, d'a dinastía XVIII.
9	5	2024	20240509	9 de mayo de 1866. Naixe la inventora y disenyadora de chuegos Elizabeth Magie. Lo suyo chuego The Landlord’s Game estió precursor d'o Monopoly y ilustraba las ensenyanzas de l'economista Henry George, denunciando la opresión d'os rentistas immobiliarios.
10	5	2024	20240510	10 de mayo de 1917. Naixe la medica Julie Sulianti Saroso. Va aduyar a las comunidaz vulnerables a acceder a una atención medica de calidat y va contribuyir a levar la educación sobre planificación familiar ta Indonesia.
11	5	2024	20240511	11 de mayo de 1906. Odón de Buen imparte la primera clase d'oceanografía ubierta a lo publico en Espanya. Pa ilustrar lo curset sobre biolochía marina, realizau en l'Ateneu de Madrid, instaló numerosos acuarios.
12	5	2024	20240512	12 de mayo de 1551. Se funda la hue conoixida como Universidad Nacional Mayor de San Marcos, en Lima (Perú). Se considera la universidat mas antiga de tota America.
13	5	2024	20240513	13 de mayo de 1699. Naixe lo estatista Sebastião José de Carvalho y Mello. Dimpués d'o Gran Tierratrémol de Lisbona, realizó la enquesta que permite reconstruyir l'evento y marca la naixencia d'a sismolochía como ciencia.
14	5	2024	20240514	14 de mayo de 1856. Naixe la enfermera Julia Dempsey. Va descubrir lo nodulo de seror María Chusep, una lesión en o melico que indica metastasi d'un cáncer maligno en a pelvis u l'abdomen.
15	5	2024	20240515	15 de mayo de 1859. Naixe lo fisico Pierre Curie. Estió pionero en lo estudio d'a radiactividat y recibió lo Premio Nobel de Fisica chunto a la suya muller Marie Skłodowska-Curie y Antoine Henri Becquerel.
16	5	2024	20240516	16 de mayo de 1884. L'inventor y empresario Angelo Moriondo patenta la primera maquina moderna de café expreso. Esta maquina va estar presentada ixe anyo en a Exposición Cheneral de Turín.
17	5	2024	20240517	17 de mayo de 1930. Naixe la fisica Christiane Bonnelle. Estió pionera en a espectroscopía de rayos X, investigando sobre lantanidos y actinidos, asinas como las interfases solido-solido.
18	5	2024	20240518	18 de mayo de 2024. Día d'a Fascinación per las Plantas. Lo suyo obchectivo ye que las personas s'entusiasmen per la botanica, l'agricultura y la producción sostenible d'alimentos d'orichen vechetal.
19	5	2024	20240519	19 de mayo de 1974. Naixe lo cubo de Rubik. Con él, lo escultor y profesor d'arquitectura Ernö Rubik buscaba un obchecto mecanico manipulable que permitise a lo suyo alumnau entender millor la cheometría tridimensional.
20	5	2024	20240520	20 de mayo de 1878. Naixe lo fisico Blas Cabrera. Va dirichir lo Laboratorio d'Investigacions Fisicas d'a Chunta d'Ampliación d'Estudios y ye reconoixiu como tot un referent en o campo d'o magnetismo.
21	5	2024	20240521	21 de mayo de 1860. Naixe lo medico Willem Einthoven. Recibió lo Premio Nobel per las suyas decisivas contribucions a lo desenrollo de l'electrocardiografo y a la suya aplicación clinica.
22	5	2024	20240522	22 de mayo de 2024. Día Internacional d'a Diversidat Biolochica. Lo suyo obchectivo ye informar y conscienciar a la población y a los estaus sobre las cuestions relativas a la biodiversidat.
23	5	2024	20240523	23 de mayo de 2009. Muere la limnologa M. Ann Chapman. Estió la primer muller en liderar una expedición cientifica ta l'Antartida. Lo lago Chapman d'este continent estió nombrau en homenache a ella.
24	5	2024	20240524	24 de mayo de 1789. Naixe la enfermera Betsi Cadwaladr. Va prencipiar a treballar como enfermera en barcos de viache y posteriorment lo fació en a Guerra de Crimea, chunto a Florence Nightingale.
25	5	2024	20240525	25 de mayo de 1947. Naixe la psicologa y experta en computación Catherine Gody Wolf. Estió autora de mas de cient articlos d'investigación en as arias d'interacción persona-computador y intelichencia artificial.
26	5	2024	20240526	26 de mayo de 1946. Naixe la paleoantropologa Leslie C. Aiello. Chunto a Peter Wheeler va desenrollar la hipotesi d'o teixiu caro pa explicar la gran grandaria que va adquirir lo celebro humano a lo largo d'a evolución.
27	5	2024	20240527	27 de mayo de 2021. Muere María Teresa Miras Portugal, la primer muller que presidió una Reyal Academia en Espanya. Estudió los receptors de nucleotidos y la suya repercusión en malotías neurodechenerativas.
28	5	2024	20240528	28 de mayo de 2023. Muere lo medico y premio Nobel Harald zur Hausen. Va descubrir que lo virus d'o papiloma humano yera la causa prencipal d'o cáncer de cuello d'utero.
29	5	2024	20240529	29 de mayo de 1919. Mientres un eclix de sol, l'astrofisico Arthur Eddington fació l'experimento que confirmó empiricament la teoría d'a relatividat d'Albert Einstein.
30	5	2024	20240530	30 de mayo de 1975. Se sinya lo convenio pa la creación de l'Achencia Espacial Europea (ISA). Lo suyo principal obchectivo ye emprender programas satelitals cientificos.
31	5	2024	20240531	31 de mayo de 1995. Muere lo filologo y arabista Emilio García Gómez, primer director d'a Escuela d'Estudios Arabes de Granada. Recibió lo Premio Principe d'Asturias de Comunicación y Humanidaz en 1992.
1	6	2024	20240601	1 de chunyo de 1924. L'Instituto Pasteur crea lo primer centro de producción y distribución gratuita d'a vacuna BCG cuentra la tuberculosi.
2	6	2024	20240602	2 de chunyo de 1945. Naixe la ecologa y limnologa pionera Maria Rosa Miracle. Va estar la primer muller catedratica en Ecolochía d'Espanya (1981) y primer presidenta de l'Asociación Espanyola de Limnolochía (1993-2002).
3	6	2024	20240603	3 de chunyo de 1906. Naixe lo disenyador industrial Benjamin Bowden. Realizó muitas innovacions en a industria de l'automóbil y las bicicletas. Lo suyo disenyo mas conoixiu ye la bicicleta futurista Spacelander.
4	6	2024	20240604	4 de chunyo de 1945. Naixe lo virologo Mario Rizzetto. Va identificar l'anticheno delta, reconoixiu como un component proteico d'un nuevo achent virico, lo virus d'a hepatitis delta (VHD).
5	6	2024	20240605	5 de chunyo de 1891. Naixe la medica y bacteriologa Hélène Sparrow. Estió pionera en o tratamiento d'a salut publica a nivel global y treballó en o desenrollo d'a primer vacuna cuentra lo tifus.
6	6	2024	20240606	6 de chunyo de 1959. Naixe lo biologo Francisco Bozinovic. Va desenrollar lo concepto de biolochía integrativa. La especie de mico Dromiciops bozinovici se va nombrar asinas en a suya honor.
7	6	2024	20240607	7 de chunyo de 1907. Naixe lo medico Arturo Belleza Rotor. Describió lo Sindrome de Rotor, una malotía hereditaria benigna que se caracteriza per concentracions elevadas de bilirrubina en a sangre.
8	6	2024	20240608	8 de chunyo de 1966. Lynn Margulis ninvia lo suyo treballo On the Origin of Mitosing Cells. Esta biologa ye mundialment reconoixida per los suyos estudios sobre l'orichen d'as celulas eucariotas.
9	6	2024	20240609	9 de chunyo de 1994. Se fa la primer edición d'a celebración Grace Hopper de Mullers en a Informatica. Promovida per la cientifica Anita Borg, se considera la mayor reunión mundial de mullers informaticas.
10	6	2024	20240610	10 de chunyo de 1914. Naixe la quimica Margot Becke-Goehring. Lo suyo treballo sobre lo tetranitruro de tetraixufre (S4N4) ye muito notable. Tamién va descubrir lo heptasulfuro imida (S7NH).
11	6	2024	20240611	11 de chunyo de 1860. Naixe la zoologa marina Mary J. Rathbun. Treballó en l'Instituto Smithsoniano, an que estudió y catalogó invertebraus marinos, describindo numbrosas especies nuevas.
12	6	2024	20240612	12 de chunyo de 1899. Naixe lo bioquimico Fritz Albert Lipmann. Va estar codescubridor d'a coenzima A. Per ixo, va recibir lo Premio Nobel de Fisiolochía u Medicina, chunto a Hans Adolf Krebs.
13	6	2024	20240613	13 de chunyo de 1870. Naixe lo microbiologo Jules Bordet. Descubrió la bacteria Bordetella pertussis, que produz la tosferina, una malotía respiratoria d'as vías altas sumament aguda.
14	6	2024	20240614	14 de chunyo de 1868. Naixe lo biologo Karl Landsteiner. Va descubrir y identificar los grupos sanguinios, per lo cual va recibir un premio Nobel.
15	6	2024	20240615	15 de chunyo de 2009. Winifred Mary Beard, experta en o estudio d'a civilización romana, recibe lo Premio Wolfson. Los libros d'esta gran divulgadora han acercau los clasicos a lo gran publico.
16	6	2024	20240616	16 de chunyo de 1869. Lo quimico Henry Roscoe va anunciar l'isolamiento d'o vanadio en estau puro per primer vegada.
17	6	2024	20240617	17 de chunyo de 1596. Lo cartografo y explorador Willem Barentsz descubre lo archipelago artico de Spitsbergen.
18	6	2024	20240618	18 de chunyo de 1987. Michael Pariza y colaboradors ninvian l'articlo cientifico an se describe, per primer vegada, l'efecto anticarcinochenico de l'acido linoleico conchugau present en a grasa d'os remugadors.
19	6	2024	20240619	19 de chunyo de 1893. Naixe la quimica Thérèse Tréfouël. Estió codescubridora d'as propiedaz terapeuticas d'as sulfamidas, prencipiando con o prontosil, lo primer farmaco de sintesi con acción bactericida ampla.
20	6	2024	20240620	20 de chunyo de 1938. Naixe l'astronoma María Luisa Aguilar Hurtado. Va estar la primera astronoma profesional de Perú, an va fundar y exercer como directora d'o Seminario d'Astronomía y Astrofisica.
21	6	2024	20240621	21 de chunyo de 1886. Con nomás 22 anyos, Odón de Buen crea lo primer laboratorio espanyol d'oceanografía. Lo instaló a bordo d'a fragata La Blanca.
22	6	2024	20240622	22 de chunyo de 1956. Los fisicos Tsung Dao Lee y Chen Ning proposan que bellas particlas son zurdas (lo suyo momento angular apunta en a dirección opuesta a la suya velocidat) y atras diestras.
23	6	2024	20240623	23 de chunyo de 1915. Naixe la fisica Jane Hamilton Hall. Supervisó la construcción y la mesa en marcha d'o primer reactor nuclear. Lo Clementine feba servir mercurio como refricherant y plutonio como combustible metalico.
24	6	2024	20240624	24 de chunyo de 1972. Dolors Planas desfiende la suya tesi doctoral Limnolochía d'o lago Banyoles: distribución d'o fitoplancton. Se va convertir asinas en a primera muller doctora en ecolochía en Espanya.
25	6	2024	20240625	25 de chunyo de 2011. Muere la informatica y matematica Annie Easley. Ye conoixida per lo suyo treballo en o desenrollo d'o software pa los codetes Centaur d'a NASA.
26	6	2024	20240626	26 de chunyo de 1274. Muere Nasir al-Din al-Tusi. Se considera lo primer matematico en valurar la trigonometría como una disciplina independient d'as matematicas puras.
27	6	2024	20240627	27 de chunyo de 1895. Naixe la patologa Dorothy Stuart Russell, pionera en o cautivo de teixius pa estudiar tumors cerebrals y una autoridat mundial en o campo d'a neurooncolochía.
28	6	2024	20240628	28 de chunyo de 1824. Naixe lo medico, anatomista y antropologo Paul Broca. Va descubrir lo centro d'a fabla –l'aria de Broca–, en pacients afasicos, y que distintas partes d'o cerebro tienen diferents funcions.
29	6	2024	20240629	29 de chunyo de 1916. Naixe l'astronoma solar Ľudmila Pajdušáková. Descubrió cuantas cometas periodicas y no periodicas, como 45P/Funda-Mrkos-Pajdušáková, C/1946 K1, C/1951 C1 y C/1953 X1.
30	6	2024	20240630	30 de chunyo de 1929. Naixe lo cientifico Peter J. Van Soest. Va revolucionar la forma en que los investigadors miden la valor nutricional d'os alimentos fibrosos pa lo bestiar remugador.
1	7	2024	20240701	1 de chuliol de 1903. Naixe la bioquimica y nutricionista Gladys Anderson Emerson. Chunto a Herbert Evans y Oliver Emerson aisló la vitamina E en forma pura.
2	7	2024	20240702	2 de chuliol de 1936. Naixe l'investigador en nutrición animal Donald Palmquist. Experto en metabolismo lipidico, va desenvolver nuevas estratechias pa amillorar l'alimentación d'as vacas leiteras.
3	7	2024	20240703	3 de chuliol de 1887. Naixe la fisica Hendrika Johanna van Leeuwen. Ye conoixida per las suyas contribucions tempranas a la teoría d'o magnetismo.
4	7	2024	20240704	4 de chuliol de 1475. Lo gramatico y humanista Antonio de Nebrija sinya un contrato como lector d'a Universidat de Salamanca. En él se compromete a dar dos licions diarias: d'Elocuencia y de Poesía.
5	7	2024	20240705	5 de chuliol de 1871. Naixe l'arabista Miguel Asín Palacios. Estudió la filosofía islamica y las relacions que ligoron la cultura islamica y la cristiana.
6	7	2024	20240706	6 de chuliol de 1998. Lanzan la sonda nipona Nozomi a Marte. Una serie de fallos en o sistema electrico van fer imposible que aconseguise la orbita d'esta planeta.
7	7	2024	20240707	7 de chuliol de 1924. Naixe la descifradora de codigos Jean Valentine. Entre la Segunda Guerra Mundial, treballó en Bletchley Park descifrando codigos matematicos pa interceptar las comunicacions alemanas.
8	7	2024	20240708	8 de chuliol de 1900. Naixe lo pianista George Antheil. Chunto a la enchenyera y actriz Hedy Lamarr, va patentar un sistema de comunicación inalambrico de largas distancias, considerau como lo precursor d'o wifi.
9	7	2024	20240709	9 de chuliol de 1879. Naixe lo medico Carlos Chagas. Descubrió una nueva malotía infecciosa, la tripanosomiasi americana, describindo los suyos patocheno, vector, manifestacions clinicas y epidemiolochía.
10	7	2024	20240710	10 de chuliol de 1891. Naixe la fisica y investigadora medica Edith Hinkley Quimby. Va estar una d'as primeras personas que va determinar la distribución d'a cantidat de radiación en os teixius d'os pacients.
11	7	2024	20240711	11 de chuliol de 1987. Seguntes estimacions realizadas per la ONU, la planeta Tierra aconsiguió los cinco mil millons d'habitants en este día. Actualment ya supera los ueito mil millons.
12	7	2024	20240712	12 de chuliol de 1913. Naixe la bioquimica Mildred Cohn. Va estar pionera en l'uso d'a resonancia magnetica nuclear pa lo estudio d'as reaccions enzimaticas, en particular en l'adenosín trifosfato.
13	7	2024	20240713	13 de chuliol de 1981. Naixe la quimica Niveen Khashab. Ye conoixida per lo suyo treballo innovador en materials hibridos intelichents y per lo desenrollo de tecnicas pa monitorizar l'actividat antioxidant intracelular.
14	7	2024	20240714	14 de chuliol de 1911. Naixe la fisica Gertrude Scharff Goldhaber. Va estudiar las seccions eficaces d'as reaccions neutrón-protón y neutrón-nuclio y la emisión de radiación gamma y l'absorción per los nuclios.
15	7	2024	20240715	15 de chuliol de 1915. Naixe lo quimico Albert Ghiorso. Codescubrió 12 elementos: americio, curio, berkelio, californio, einstenio, fermio, mendelevio, nobelio, lawrencio, rutherfordio, dubnio y seaborgio.
16	7	2024	20240716	16 de chuliol de 1969. S'esvola la historica misión espacial Apollo 11. Cuatro días dimpués, Neil Armstrong y Buzz Aldrin meten os piez sobre la superficie d'a Luna, entre que Michael Collins vola en o modulo de mando.
17	7	2024	20240717	17 de chuliol de 1959. Las primeras restas conoixidas de l'hominido Paranthropus boisei son descubiertas per l'antropologa Mary Leakey. Esta troballa acayeixió en a foz d'Olduvai (Republica Unida de Tanzania).
18	7	2024	20240718	18 de chuliol de 1905. Naixe Mary Sears, comandanta d'a primer unidat d'oceanografía d'a Marina d'EUA entre la II Guerra Mundial. Como cientifica, va sentar las bases d'a oceanografía moderna.
19	7	2024	20240719	19 de chuliol de 1927. Naixe la matematica María Josefa Wonenburger Planells, investigadora en a teoría de grupos y en a teoría de alchebras de Lie. Estió la primer muller espanyola en aconseguir una beca Fulbright.
20	7	2024	20240720	20 de chuliol de 1890. Naixe l'astronoma Julie Marie Vinter Hansen. Va estar ampliament reconoixida per los suyos calculos precisos d'orbitas de planetas menors y cometas.
21	7	2024	20240721	21 de chuliol de 1904. S'inaugura lo ferrocarril Transiberiano. La suya linia prencipal tiene 9288 km y une Moscú con Vladivostok, en a mar d'o Chapón. Suposó un gran reto pa la enchenyería d'a epoca.
22	7	2024	20240722	22 de chuliol de 2024. Día d'Aproximación de Pi. La fracción 22/7 ye igual a 3,1428…, per lo que este ye lo día de l'anyo que mas s'acerca a lo numero π.
23	7	2024	20240723	23 de chuliol de 1852. Naixe la medica Martina Castells i Ballespí. Estió una d'as primeras tres mullers en matricular-se (1877) y licenciar-se (1882) en Medicina en Espanya.
24	7	2024	20240724	24 de chuliol de 1918. Lo macizo occidental d'os Picos d'Europa se convierte en o primer espacio natural protechiu d'Espanya, baixo lo nombre de Parque nacional d'a Montanya de Covadonga.
25	7	2024	20240725	25 de chuliol de 2022. Gretchen C. Daily recibe lo Premio Ramón Margalef d'Ecolochía. Esta ecologa y profesora ye conoixida per integrar las valors d'a naturaleza en a presa de decisions.
26	7	2024	20240726	26 de chuliol de 1857. Empecipian las obras d'a Fabrica Duro y Companyía, en La Felguera (Asturias). Va arribar a estar lo centro siderurchico mas important d'Espanya. Ye en a Lista Roya d'o Patrimonio d'Hispania Nostra.
27	7	2024	20240727	27 de chuliol de 1907. Naixe la matematica Irene Fischer. Estió una d'as cientificas reconoixidas internacionalment en o campo d'a cheodesia entre la edat d'oro d'as misions espacials Mercury y Apolo.
28	7	2024	20240728	28 de chuliol de 2024. Día Mundial d'a Hepatitis. Lo suyo obchectivo ye conscienciar sobre las hepatitis viricas, que inflaman lo figado y causan malotías hepaticas grieus y cáncer de figado.
29	7	2024	20240729	29 de chuliol de 1994. Muere la premio nobel Dorothy Crowfoot Hodgkin. Determinó la estructura tridimensional de moleculas como la penicilina u la insulina. La estructura 3D ye clau pa entender las suyas funcions.
30	7	2024	20240730	30 de chuliol de 1916. Muere lo medico Albert Neisser. Va descubrir la bacteria Neisseria gonorrhoeae, causant d'a infección de transmisión sexual denominada gonorrea.
31	7	2024	20240731	31 de chuliol de 1904. Naixe l'agronomo Thomas Lecky. Las suyas investigacions sobre la cría y millora de bestiar vacuno resultoron en nuevas razas adaptadas a las condicions climaticas de Jamaica.
1	8	2024	20240801	1 d'agosto de 1818. Naixe l'astronoma y bibliotecaria Maria Mitchell. Descubrió la cometa Mitchell y se considera la primer muller conoixida internacionalment en treballar como astronoma profesional.
2	8	2024	20240802	2 d'agosto de 1922. Naixe lo primatologo Jordi Sabater Pi. Va estar especialista en lo estudio d'as conductas d'os animals y descubridor de comportamientos culturals en cuantas especies.
3	8	2024	20240803	3 d'agosto de 1959. Naixe l'enchenyero quimico Kōichi Tanaka. Ye conoixiu per desenrollar metodos d'identificación y d'analisi estructural de macromoleculas per medio de espectrometría de masas.
4	8	2024	20240804	4 d'agosto de 1906. Naixe lo zoologo Eugen Schuhmacher. Va estar un d'os pioners en o campo d'os documentals sobre animals.
5	8	2024	20240805	5 d'agosto de 1872. Naixe lo cientifico Oswaldo Cruz. Estió pionero en lo estudio d'as malotías tropicals en Brasil, treballando activament en o suyo control y erradicación.
6	8	2024	20240806	6 d'agosto de 1905. Naixe la matematica María Montserrat Capdevila d’Oriola. En 1931 se va convertir en a primer profesora universitaria matematica d'a Universidat de Barcelona.
7	8	2024	20240807	7 d'agosto de 1735. Naixe la traductora cientifica Claudine Picardet. Tradució documentos d'una vintena de quimicos y mineralochistas dende a lo menos cuatro idiomas diferents (sueco, anglés, alemán y italiano, y talment latín) a lo francés.
8	8	2024	20240808	8 d'agosto de 1901. Naixe la biologa Miriam Friedman Menkin. Va investigar la fecundación in vitro y se va convertir en a primer persona que va aconseguir fecundar un ovulo difuera d'o cuerpo humano.
9	8	2024	20240809	9 d'agosto de 1927. Naixe Marvin Minsky. Un d'os pais d'a intelichencia artificial, estió cofundador d'o laboratorio d'intelichencia artificial de l'Instituto de Tecnolochía de Massachusetts (MIT)
10	8	2024	20240810	10 d'agosto de 1943. Naixe la enchenyera Frances Northcutt. Mientres la misión Apolo 13, dimpués d'a explosión d'un tanque de oxicheno, va treballar en un programa informatico pa que los astronautas tornasen sin periglo ta la Tierra.
11	8	2024	20240811	11 d'agosto de 1956. Naixe lo matematico Pierre-Louis Lions. Ye conoixiu per estudiar la teoría d'as ecuacions en derivadas parcials no linials y trobar una solución completa a la ecuación de Boltzmann.
12	8	2024	20240812	12 d'agosto de 1919. Naixe l'astrofisica Margaret Burbidge. Amás d'a suya participación en a explicación d'a nucleosintesi estelar, va investigar sobre cuásars y galaxias.
13	8	2024	20240813	13 d'agosto de 1913. Lo metalurchico Harry Brearley obtiene lo primer acero inoxidable. Mescló acero y cromo y, en tratar las muestras con acido pa estudiar-las a lo microscopio, observó que yeran resistents a l'ataque.
14	8	2024	20240814	14 d'agosto de 1848. Naixe l'astronoma Margaret Lindsay Huggins. Chunto a l'astronomo William Huggins va estar una pionera en espectroscopia, publicando l'Atlas of Representative Stellar Spectra (1899).
15	8	2024	20240815	15 d'agosto de 1881. Naixe la chenetista Elisabeth Schieman. Los suyos treballos sobre las relacions evolutivas d'importants cereals, como lo trigo y l'hordio, tienen gran influencia en a biolochía vechetal d'o present.
16	8	2024	20240816	16 d'agosto de 1884. Naixe l'escritor Hugo Gernsback, pionero d'a ciencia ficción. Va obtener numerosas patents, como un instrumento pa captar millor lo soniu en a radio u un metodo de depilación sin cera.
17	8	2024	20240817	17 d'agosto de 1902. Naixe la biologa y quimica Magda Staudinger. Chunto a Hermann Staudinger, estudió la estructura quimica d'as macromoleculas y las suyas aplicacions a la biolochía.
18	8	2024	20240818	18 d'agosto de 1955. Naixe lo criptologo Taher Elgamal. Amás de treballar en o desenrollo d'o protocolo SSL, va describir un esquema de sinyadura dichital basau en a complexidat d'o calculo d'o logaritmo discreto.
19	8	2024	20240819	19 d'agosto de 1830. Naixe lo quimico y medico Julius Lothar Meyer. En 1870 presentó lo suyo escubrimiento d'a lei periodica que afirma que las propiedaz d'os elementos son funcions periodicas d'a suya masa atomica.
20	8	2024	20240820	20 d'agosto de 1970. La Unión Astronomica Internacional baltiza un cráter d'a Luna como Sofia Kovalevskaya. Rinde honor a esta destacada matematica rusa d'etnia romaní.
21	8	2024	20240821	21 d'agosto de 1973. Naixe l'informatico Serguéi Mijáilovich Brin. Chunto a Larry Page, fundó Google en 1996, cuan toz dos yeran estudiants de postgrau en ciencias d'a computación.
22	8	2024	20240822	22 d'agosto de 1949. Naixe la ecologa Mary Y. Power. Ye pionera en o estudio de rez troficas en ríos, habendo estudiau, entre atras, las interaccions entre peixes, aus, invertebraus y algas.
23	8	2024	20240823	23 d'agosto de 1982. Naixe la cosmologa teorica y fisica de particlas Chanda Prescod-Weinstein. Investiga, entre atros, l'axión como constituyent d'a materia fosca u la inflación cosmica.
24	8	2024	20240824	24 d'agosto de 2006. Muere l'historiador de l'arte Christian Ewert, un d'os millors investigadors de l'arquitectura andalusí, con estudios que abarcan dende Medina Azahara dica l'Alchafaría de Zaragoza.
25	8	2024	20240825	25 d'agosto de 1884. Naixe la quimica Nathalie Demassieux. Estudió las sals complexas halochenas de plumo y la deshidratación de sulfatos dobles, deixando tamién un gran legau docent y divulgador.
26	8	2024	20240826	26 d'agosto de 1873. Naixe Lee De Forest. Inventó lo triodo, que amplificaba las ondas de soniu y controlaba lo suyo volumen. Va estar l'antecesor de l'amplificador d'audio utilizau, per eixemplo, en as guitarras electricas.
27	8	2024	20240827	27 d'agosto de 1858. Naixe lo matematico y lochico Giuseppe Peano. Contribuyió a la lochica matematica y a la teoría de numeros, y a él se debe la clamada curva de Peano, lo primer eixemplo de curva que replena lo plano.
28	8	2024	20240828	28 d'agosto de 1859. Prencipia la tempesta solar mas potent d'entre las rechistradas. L'aurora boreal va brilar con tanta intensidat que se va veyer en puestos tan aluenyaus d'os polos como Chapón, Florida y Espanya.
29	8	2024	20240829	29 d'agosto de 1989. Muere l'ornitologo y conservacionista Peter Scott. Contribuyió a la fundación d'o Fondo Mundial pa la Naturaleza (WWF) y disenyó lo suyo conoixiu logotipo con un onso panda.
30	8	2024	20240830	30 d'agosto de 2013. La revista Science publica lo descubrimiento d'o Gran Canyón de Groenlandia per investigadors d'as Universidaz de Bristol, Calgary y Urbino.
31	8	2024	20240831	31 d'agosto de 1949. Naixe lo fisico teorico David Politzer. Chunto a David J. Gross y Frank Wilczek, recibió lo Premio Nobel de Fisica per lo descubrimiento d'a libertat asintotica en a cromodinamica cuantica.
1	9	2024	20240901	1 de setiembre de 1959. Naixe la medica Anne Szarewski. Contrimostró que, sin tratamiento, los primers signos de patolochías de cérvix teneban una mayor probabilidat de desapareixer si las mullers deixaban de fumar.
2	9	2024	20240902	2 de setiembre de 1883. Naixe l'immunologo Rudolf Weigl. Va desenrollar una vacuna cuentra lo tifus, la primera efectiva cuentra ixa malotía.
3	9	2024	20240903	3 de setiembre de 1814. Naixe lo matematico James Joseph Sylvester. Contribuyió a las teorías de matrices, d'invariants alchebraicos, de numeros, de particions y combinatoria.
4	9	2024	20240904	4 de setiembre de 1929. Naixe l'astronoma Elizabeth Roemer. Entre atros logros, en 1975 va descubrir Temisto, un satelite de Chupiter, chunto a Charles T. Kowal.
5	9	2024	20240905	5 de setiembre de 1908. Naixe lo medico y activista Josué de Castro. Entre atros, presidió la FAO. La suya obra mas conoixida ye Cheopolitica d'a fambre, an aporta luz sobre la complexidat d'o problema d'a desnutrición.
6	9	2024	20240906	6 de setiembre de 1952. Muere la bacteriologa Ida A. Bengtson. Va investigar sobre organismos anaerobios, estando conoixida per lo suyo treballo de clasificación de Clostridium botulinum, lo bacilo productor d'a toxina botulinica.
7	9	2024	20240907	7 de setiembre de 1917. Naixe lo quimico John Cornforth. Recibió lo Premio Nobel de Quimica en 1975 per lo suyo treballo en a estereoquimica d'as reaccions catalizadas enzimaticament.
8	9	2024	20240908	8 de setiembre de 1903. Naixe la farmacologa Marthe Louise Vogt. Va realizar importants contribucions a la comprensión d'o papel d'os neurotransmisors en o cerebro, especialment la epinefrina.
9	9	2024	20240909	9 de setiembre de 1788. Los albéitars Segismundo Malats y Hipólito Estévez reciben l'encargo d'elaborar lo plan pa crear dos escuelas d'albeitaría en Espanya, una en Madrid y unatra en Córdoba.
10	9	2024	20240910	10 de setiembre de 1749. Muere la matematica y fisica Émilie du Châtelet. Va estar traductora d'as obras d'Isaac Newton a lo francés y difusora d'as suyas teorías.
11	9	2024	20240911	11 de setiembre de 1911. Naixe la botanica Elke Mackenzie. S'especializó en o estudio d'os líquens y destacó per las suyas fructiferas exploracions polars.
12	9	2024	20240912	12 de setiembre de 2004. La isla de Mallorca nombra fillo adoptivo a Odón de Buen. Lo legau d'este destacau naturalista, fundador de l'Instituto Espanyol d'Oceanografía, se ye recuperando en os zaguers anyos.
13	9	2024	20240913	13 de setiembre de 1924. Naixe la chenetista Chana Malogolowkin-Cohen. Estió pionera en lo estudio d'a chenetica d'a mosca d'a fruita en Brasil y en as tecnicas pa privar la transmisión de virus per mosquitos.
14	9	2024	20240914	14 de setiembre de 1959. La sonda Luna cumple lo suyo obchectivo d'estolomizar-se cuentra la Luna, en concreto en o Mare Imbrium, dos días dimpués d'o suyo lanzamiento.
15	9	2024	20240915	15 de setiembre de 1924. S'apreba la patent d'o teremín, instrumento musical electronico que se controla sin necesidat de contacto fisico.
16	9	2024	20240916	16 de setiembre de 1885. Naixe la psicologa Karen Horney. Pionera en psicolochía feminista, las suyas teorías cuestionoron cualques plantiamientos tradicionals de Sigmund Freud.
17	9	2024	20240917	17 de setiembre de 1952. Naixe la neurologa Anita Harding. Estió codescubridora d'a primera mutación de l'ADN mitocondrial en malotías humanas y d'o concepto teixiu heteroplasmatico en l'ADN mitocondrial mutant.
18	9	2024	20240918	18 de setiembre de 1928. Vuela per primera vegada lo dirichible Graf Zeppelin. Va estar la mayor aeronau d'o suyo tiempo, con 236,6 metros de longaria. Va realizar mas de 600 vuelos, incluyindo-ne un d'investigación ta l'Artico.
19	9	2024	20240919	19 de setiembre de 2008. L'Instituto Cheolochico y Minero d'Espanya (IGME) y lo suyo equivalent francés, lo BGRM, presientan lo primer mapa cheolochico completo d'os Pirineus.
20	9	2024	20240920	20 de setiembre de 1910. Naixe la matematica Dorothy Vaughan. Experta en o luengache de programación Fortran, va dirichir la West Area Computers, un equipo segregau composau per afroamericanas con formación matematica.
21	9	2024	20240921	21 de setiembre de 1919. Naixe lo fisico y filosofo d'a ciencia Mario Bunge. Estió muito critico cuentra la pseudociencia, entre la cual incluyió a la homeopatía, lo psicoanalisi, la microeconomía neoclasica y la praxeolochía.
22	9	2024	20240922	22 de setiembre de 1940. Naixe la cientifica Teresa Mendizábal. Va estudiar la erosión d'o solero, la degradación d'as tierras y la desertificación. Va actuar como experta cuentra la desertización pa las Nacions Unidas.
23	9	2024	20240923	23 de setiembre de 1902. Naixe lo matematico Su Buqing. Ye conoixiu prencipalment per los suyos logros en cheometría diferencial d'o espacio cheneral.
24	9	2024	20240924	24 de setiembre de 1870. Naixe lo quimico y fisico Georges Claude. Va inventar un sistema pa licuar aire y la lampa de neón.
25	9	2024	20240925	25 de setiembre de 1773. Naixe lo entomologo Agostino Bassi. Ye conoixiu per lo suyo estudio d'a muscardina, una malotía que ataca a lo cuco de seda, estando precursor d'a teoría cherminal d'as malotías infecciosas.
26	9	2024	20240926	26 de setiembre de 1916. Naixe la ictiologa Margaret M. Smith. Amás d'estar considerada una d'as ilustradoras naturalistas mas importants d'o mundo, va describir numerosas especies de peixes en as costas de Sudafrica.
27	9	2024	20240927	27 de setiembre de 2017. Muere Ben Barres, neurobiologo y profesor d'a Facultat de Medicina de Stanford. Estió la primer persona trans en ingresar en l'Academia Nacional de Ciencias d'os Estaus Unius (2013).
28	9	2024	20240928	28 de setiembre de 1959. Naixe la virologa y immunologa Margarita del Val. Ha estau una d'as mayors defensoras d'a eficacia d'as vacunas y d'as cuarantenas entre la pandemia per lo SARS-CoV-2 (COVID-19)
29	9	2024	20240929	29 de setiembre de 1899. Naixe l'inventor László Bíró, tamién conoixiu como Ladislao Biro. Patentó numerosos utensilios, como una maquina de lavar la ropa u un perfumero, pero lo mas famoso a nivel mundial ye lo boligrafo.
30	9	2024	20240930	30 de setiembre de 2021. La virologa María Guadalupe Guzmán Tirado recibe lo Premio L'Oréal-Unesco a Mullers en Ciencia per aduyar a comprender millor la patochenesi, lo tratamiento y la prevención d'o dengue.
1	10	2024	20241001	1 d'octubre de 1993. Muere la oncologa y investigadora clinica Mildred Vera Peters. Contrimostró que una tumorectomía y radiación yeran tan eficaces como la mastectomía pa tratar lo cáncer de mama.
2	10	2024	20241002	2 d'octubre de 1893. Naixe la quimica organica Katō Sechi. Va treballar en l'Instituto d'Investigación Fisica y Quimica RIKEN en Tokio, convertindo-se en pionera en l'analisi con espectroscopía.
3	10	2024	20241003	3 d'octubre de 1951. Naixe la cheologa y exploradora espacial y marina Kathryn Dwyer Sullivan. Estió la primer astronauta en fer una actividat extravehicular y contrimostró que lo Challenger podeba repostar en orbita.
4	10	2024	20241004	4 d'octubre de 1951. Muere Henrietta Lacks. Sin lo suyo consentimiento, se van replegar celulas d'o cáncer uterino que padeixeba, chenerando la primera linia de cautivo celular immortal denominada HeLa.
5	10	2024	20241005	5 d'octubre de 1871. Naixe la especialista en agricultura Elizabeth Coleman White. Colaboró ​​con o botanico Frederick Vernon Coville pa desenrollar y comercializar un anayón cautivau.
6	10	2024	20241006	6 d'octubre de 2022. Se celebra per primera vegada lo Día Internacional d'a Cheodiversidat. Lo suyo obchectivo ye promover una millor comprensión d'os procesos dinamicos d'a Tierra.
7	10	2024	20241007	7 d'octubre de 1919. Naixe la programadora y analista Henriette Avram. Desenvolvió lo formato MARC 21 pa catalogar documentos de traza automatizada, que será aplicau en a comunidat bibliotecaria internacional.
8	10	2024	20241008	8 d'octubre de 1872. Naixe la cheologa y paleontologa Gertrude Lilian Elles. Chunto a Ethel Wood va escribir Monograph of British Graptolites, que va estar mientres muitos anyos una obra de referencia en paleontolochía.
9	10	2024	20241009	9 d'octubre de 1901. Naixe la enchenyera quimica Germaine Benoit. Ye conoixida especialment per la suya contribución a lo estudio d'as substancias simpaticomimeticas.
10	10	2024	20241010	10 d'octubre de 1967.  Dentra en vigor lo Tratau sobre l'Espacio Ultraterrestre. Representa lo marco churidico basico d'o dreito internacional de l'espacio y ha estau ratificau per mas de 100 países.
11	10	2024	20241011	11 d'octubre de 1854. Naixe la cheologa y paleontologa Henriette Delamarre de Monchaux. Estió una especialista en faluns, de gran interés cheolochico y d'utilidat como abono agricola pa solers archilosos acidos.
12	10	2024	20241012	12 d'octubre de 1964. La URSS mete en orbita terrestre lo Vosjod 1, la primera nau con tripulación de cuantas personas y lo primer vuelo sin traches espacials.
13	10	2024	20241013	13 d'octubre de 2016. La cientifica Maria Isabel Andrade recibe lo Premio Mundial d'Alimentación. Lo suyo treballo sobre variedaz biofortificadas de moniato contribuye a la millora d'a seguranza alimentaria en Africa.
14	10	2024	20241014	14 d'octubre de 1928. Naixe la fisica y matematica Mary Tsingou. Va estar una d'as primeras programadoras de l'ordinador MANIAC.
15	10	2024	20241015	15 d'octubre de 1859. Naixe la medica Augusta Déjerine-Klumpke. Describió una paralisi de radices inferiors d'o plexo braquial, dimpués d'as descripcions de lesions altas d'o plexo de Duchenne y Erb.
16	10	2024	20241016	16 d'octubre de 1920. Naixe l'arqueologa y antropologa Alicia Dussán de Reichel. Va estar pionera en o desenrollo d'as ciencias socials y humanas en Colombia, asinas como en os estudios de chenero en a rechión Caribe.
17	10	2024	20241017	17 d'octubre de 1771. Ubre a lo publico lo Reyal Gabinet d'Historia Natural, actual Museu Nacional de Ciencias Naturals. Esta colección estió la primera a la cual tenió acceso tota la chent sin importar la suya condición social.
18	10	2024	20241018	18 d'octubre de 2019. Las biologas Sandra Myrna Díaz y Joanne Chory reciben lo premio Princesa d'Asturias per la suya contribución a la conoixencia d'a biolochía d'as plantas.
19	10	2024	20241019	19 d'octubre de 1835. Naixe la inventora Amanda T. Jones. Treballó en a tecnolochía aplicada a la conservación d'alimentos y ye conoixida per ideyar un nuevo sistema d'envasau alimentario a lo vacío, lo metodo de Jones.
20	10	2024	20241020	20 d'octubre de 1891. Naixe lo fisico y premio Nobel James Chadwick. Ye mundialment conoixiu per lo descubrimiento d'o neutrón, una particla subatomica sin carga neta.
21	10	2024	20241021	21 d'octubre de 1906. Naixe la nutricionista Elsie Widdowson. Investigó sobre desnutrición y, con Robert McCance, supervisó l'adición de vitaminas a los alimentos y lo racionamiento en Reino Uniu entre la II Guerra Mundial.
22	10	2024	20241022	22 d'octubre de 1905. Naixe l'enchenyero de radio Karl Guthe Jansky. Va contrimostrar que la radiación recibida con una longaria d'onda de 14,6 metros no procedeba d'o Sol, sino d'a constelación de Sachitario.
23	10	2024	20241023	23 d'octubre de 1920. Naixe lo meteorologo Tetsuya Fujita. Las suyas investigacions revolucionoron la conoixencia que se teneba sobre tempestas electricas, tornaus, huracans y tifons severs.
24	10	2024	20241024	24 d'octubre de 1836. Lo quimico János Irinyi patenta los mistos silenciosos y no explosivos. Lo suyo invento se va basar en mesclar lo fosforo con dioxido de plumo en a cabeza d'os mistos.
25	10	2024	20241025	25 d'octubre de 1971. Naixe la enchenyera industrial Elena García Armada. Creó lo primer exosqueleto bionico infantil, que permite que ninas y ninos con paralisi puedan tornar a caminar.
26	10	2024	20241026	26 d'octubre de 1994. Lo matematico Andrew Wiles anuncia la resolución d'o Gran Teorema de Fermat.
27	10	2024	20241027	27 d'octubre de 1904. Naixe lo cineasta y inventor José Val del Omar. Incorporó distintas innovacions tecnicas a films como Tríptico elemental de España.
28	10	2024	20241028	28 d'octubre de 1897. Naixe la medica Marjory Warren. Se la considera la mai d'a medicina cheriatrica moderna.
29	10	2024	20241029	29 d'octubre de 1791. Naixe la botanica Anne Kingsbury Wollstonecraft. Estudió la flora de Cuba y, a meyaus d'o decenio de 1820, creó lo manuscrito ilustrau Especímenes de plantas y frutos de la isla de Cuba.
30	10	2024	20241030	30 d'octubre de 1909. Naixe lo fisico Homi J. Bhabha. Va plantiar la utilización d'as abundants reservas de torio d'a India en cuenta d'as escasas reservas d'uranio, pa iniciar lo programa d'enerchía atomica.
31	10	2024	20241031	31 d'octubre de 1831. Naixe lo medico, neurologo, fisiologo y antropologo Paolo Mantegazza. Aisló la cocaína a partir d'a coca y investigó los suyos efectos anestesicos en humans.
1	11	2024	20241101	1 de noviembre de 1755. Se produce lo Gran Tierratrémol de Lisbona. La busqueda d'una explicación cientifica d'o mesmo reunió un important equipo d'especialistas y posó las bases d'a sismolochía moderna.
2	11	2024	20241102	2 de noviembre de 1954. Naixe lo biologo Pere Alberch. Va dirichir lo Museu Nacional de Ciencias Naturals, va reformar los departamentos d'investigación, va alentar la modernización d'as coleccions y va fer estimulants exposicions.
3	11	2024	20241103	3 de noviembre de 1887. Naixe la cheologa Eileen Hendriks. Encara que no podió acceder a una categoría profesional a consonant con a suya preparación, estió premiada per lo suyo treballo sobre la cheolochía de Devon y Cornuallas (Gran Bretanya).
4	11	2024	20241104	4 de noviembre de 1933. Naixe l'enchenyero electrico y premio Nobel Charles Kuen Kao. Va estar pionero en o desenrollo y uso d'a fibra optica en telecomunicacions.
5	11	2024	20241105	5 de noviembre de 1947. Naixe la biologa marina y oceanografa Sallie W. Chisholm. Codescubridora d'o fitoplancton marino mas abundant, lo Prochlorococcus, ye experta en ecolochía y evolución d'os microbios oceanicos.
6	11	2024	20241106	6 de noviembre de 1886. Naixe l'astronoma Ida Barney. Ye conoixida per los suyos 22 volúmens de medidas astrometricas de 150.000 estrelas.
7	11	2024	20241107	7 de noviembre de 2019. Muere la bioquimica Margarita Salas. Fació abanzar la biolochía molecular en Espanya y aisló la enzima ADN polimerasa a partir d'o fago phi 29, un descubrimiento que permitió amplificar l'ADN.
8	11	2024	20241108	8 de noviembre de 1917. Naixe la cientifica Kamal Ranadive. Va establir lo primer laboratorio d'investigación de cautivos de teixius d'a India y ye conoixida per lo suyo treballo sobre la relación entre cáncers y virus.
9	11	2024	20241109	9 de noviembre de 1850. Naixe Ignacio Bolívar, un d'os entomologos mas brillants d'a suya epoca. Como director d'o Museu Nacional de Ciencias Naturals, recuperó la esplendor que este heba teniu en os suyos inicios.
10	11	2024	20241110	10 de noviembre de 1935. Naixe l'astrofisico teorico y cosmologo Ígor Nóvikov. Va formular lo prencipio d'autoconsistencia de Nóvikov pa resolver los problemas d'as paradoxas en os viaches a traviés d'o tiempo.
11	11	2024	20241111	11 de noviembre de 1930. Se concede la patent US1781541 a Albert Einstein y Leó Szilárd per lo suyo invento: lo refricherador Einstein. Los dos fisicos treballoron cuantos anyos pa amillorar la tecnolochía de refricheración domestica.
12	11	2024	20241112	12 de noviembre de 1926. Naixe la bioquimica y nutricionista Taneko Suzuki. Va estar experta en quimica de proteínas y en o desenrollo d'alimentos a partir de proteínas de pescau, como lo concentrau Marinbeef.
13	11	2024	20241113	13 de noviembre de 1893. Naixe la botanica y bibliotecaria Mary Ellinor Lucy Archer. Promovió l'uso d'a clasificación decimal universal y estió pionera en o concepto d'emprestamos interbibliotecarios.
14	11	2024	20241114	14 de noviembre de 1962. Naixe Fang Fang Kullander. Reconoixida per las suyas contribucions a l'acuicultura en China y a la conoixencia d'as auguas continentals de Myanmar. Va fundar lo prochecto sino-europeu ECOCARP.
15	11	2024	20241115	15 de noviembre de 1888. Naixe l'albéitar Agnes Sjöberg. Ye considerada la primera europea, y probablement la primer muller en o mundo, en desfender lo suyo doctorau en albeitaría (sobre la secreción ocular en caballos).
16	11	2024	20241116	16 de noviembre de 1974. Dende lo Radiotelescopio d'Arecibo (Puerto Rico), se ninvia lo Mensache d'Arecibo enta l'espacio exterior. Incluye datos sobre la situación d'o sistema solar, d'a Tierra y d'o ser humano.
17	11	2024	20241117	17 de noviembre de 1935. Muere la medica Matilda Evans. Desfendió una millor atención medica a las personas afroamericanas, en particular a ninas y ninos.
18	11	2024	20241118	18 de noviembre de 1863. Naixe lo naturalista y oceanografo Odón de Buen. Entre las suyas numerosas aportacions, la que mas ha trascendiu ye la creación de l'Instituto Espanyol d'Oceanografía en 1914.
19	11	2024	20241119	19 de noviembre de 1847. Naixe lo microbiologo Carl Friedländer. Identificó la bacteria Klebsiella pneumoniae, causant de neumonía. A esta bacteria se le conoixe como bacilo de Friedlander.
20	11	2024	20241120	20 de noviembre de 1984. Se funda l'Instituto SETI, una organización sin animo de lucro dedicada a la busqueda de vida intelichent en l'Universo.
21	11	2024	20241121	21 de noviembre de 1871. Naixe la medica Clotilde-Camille Deflandre. Ye conoixida per descubrir, chunto a Paul Carnot, la eritropoyetina, la prencipal estimuladora natural de producción de globulos royos (eritrocitos).
22	11	2024	20241122	22 de noviembre de 1880. Naixe la quimica Pauline Ramart. Los suyos treballos tratan sobre la relación entre l'espectro d'a radiación ultravioleta y las reaccions quimicas vinculadas a la radiolochía.
23	11	2024	20241123	23 de noviembre de 1927. L'enchenyero quimico Erik Rotheim patenta lo primer pote d'aerosol con valvula que podeba contener y dispensar productos y sistemas propulsors. Estió lo precursor d'o pulverizador moderno.
24	11	2024	20241124	24 de noviembre de 1914. Naixe la fisioterapeuta Bessie Blount Griffin. Va ensenyar nuevas trazas de realizar fayenas cutianas a exsoldaus con as mans incapacitadas y va inventar un sistema d'alimentación pa amputaus.
25	11	2024	20241125	25 de noviembre de 1937. Naixe la estatistica Martha Bilotti-Aliaga. Desenvolvió innovadors metodos pa la ensenyanza d'a estatistica, despertando lo esprito critico y lo razonamiento entre los suyos estudiants.
26	11	2024	20241126	26 de noviembre de 1907. Naixe la botanica y limnologa Ruth M. Patrick. Va estar pionera en utilizar las diatomeas pa diagnosticar l'estau de salut d'os ecosistemas d'augua dulza.
27	11	2024	20241127	27 de noviembre de 2021. Lo robre (Quercus robur L.) d'a Selva d'o Banquete de Conxo gana lo concurso Árbol de l'anyo en Espanya 2022. Con mas de 250 anyos, ya lo desfendió Rosalía de Castro en una denuncia ecolochica pionera.
28	11	2024	20241128	28 de noviembre de 1924. Naixe la enchenyera agronoma Johanna Döbereiner. Va estudiar la fixación biolochica de nitrocheno, aduyando a reducir la dependencia de l'abono nitrochenau en os cautivos de soya en Brasil.
29	11	2024	20241129	29 de noviembre de 1849. Naixe l'enchenyero John Fleming. Inventó lo diodo de vacío, un fito que ye considerau como l'inicio d'a electronica.
30	11	2024	20241130	30 de noviembre de 1950. Se solicita la patent d'un metodo pa la producción de lactios con baixo conteniu en lactosa. Ye basau en a dichestión enzimatica d'a lactosa present en a leit.
1	12	2024	20241201	1 d'aviento de 1934. Muere la investigadora Fanny Hesse. Incorporó l'agar como solidificant en os medios de cautivo pa lo creiximiento de microorganismos en o laboratorio.
2	12	2024	20241202	2 d'aviento de 1913. En o Museu Nacional de Ciencias Naturals, se inaugura la exhibición de Dippi, una replica de l'esqueleto d'un diplodoco de 27 metros que ha contribuyiu a popularizar la paleontolochía en Espanya.
3	12	2024	20241203	3 d'aviento de 1910. Lo quimico y inventor Georges Claude presenta la suya lampa de neón en o Salón de l'Automóbil de París: exhibió dos tubos de neón encarnau, de 12 metros de longaria cadaún.
4	12	2024	20241204	4 d'aviento de 1899. Naixe la cheologa Ethel Currie. Va investigar en o campo d'a paleontolochía, estudiando fósils d'arizos de mar y goniatitidos (un orden extinto que evolucionó a partir d'os nautiloides).
5	12	2024	20241205	5 d'aviento de 1624. Muere lo botanico y medico Caspar Bauhin. Introdució la nomenclatura binominal en a clasificación d'os organismos. La valvula ileocecal ye conoixida como valvula de Bauhin en a suya honor.
6	12	2024	20241206	6 d'aviento de 1883. Naixe la ornitologa y etologa Margaret Morse Nice. Ye conoixida per la suya investigación sobre los gurrions, estando autora d'a obra Estudios sobre la historia vital d'o gurrión cantor.
7	12	2024	20241207	7 d'aviento de 1924. Naixe la matematica Mary Ellen Rudin. Ye conoixida per las suyas construccions y contraeixemplos a concheturas celebres; la mas conoixida d'ellas ye lo espacio de Dowker.
8	12	2024	20241208	8 d'aviento de 1919. Naixe la matematica Julia Robinson. Va estudiar ecuacions diofanticas y teoría d'a decidibilidat: va contribuyir a la demostración d'o teorema de Matiyasevich sobre la irresolubilidat d'o deceno problema de Hilbert.
9	12	2024	20241209	9 d'aviento de 1906. Naixe la informatica Grace Murray Hopper. Pionera en o mundo d'as ciencias d'a computación, estió la primera programadora en utilizar l'ordinador Mark I.
10	12	2024	20241210	10 d'aviento de 1897. Naixe la oceanografa Carmen Aldecoa. En 1918, va estar la primera cientifica que va contratar l'Instituto Espanyol d'Oceanografía. Dimpués de deixar lo puesto per una malotía, va dedicar la suya vida a la docencia.
11	12	2024	20241211	11 d'aviento de 1909. Naixe la fisica nuclear Toshiko Yuasa. En 1954 publicó un articlo alertando sobre los periglos d'as prebas d'a bomba d'hidrocheno en l'atolón de Bikini.
12	12	2024	20241212	12 d'aviento de 1918. Naixe lo cientifico Oleg Gazenko. Va participar en o programa sovietico d'animals en l'espacio, an va triar y va entrenar a la canya Laika, lo primer animal en orbitar la Tierra.
13	12	2024	20241213	13 d'aviento de 1867. Naixe lo fisico y inventor Kristian Birkeland. Investigó l'aurora boreal y inventó un sistema industrial pa fixar lo nitrocheno de l'aire y usar-lo pa la producción de fertilizants.
14	12	2024	20241214	14 d'aviento de 2000. Se completa la secuencia d'o chenoma d'a primera planta, Arabidopsis thaliana, especie que s'ha establiu como modelo d'investigación.
15	12	2024	20241215	15 d'aviento de 1612. L'astronomo Simon Marius fa la primera observación d'a galaxia d'Andromeda, describindo-la como «semellant a la flama d'una vela vista a traviés d'un cuerno».
16	12	2024	20241216	16 d'aviento de 1905. Naixe l'enchenyero, inventor y poeta Piet Hein. Va disenyar nuevos chuegos, como lo Cubo Soma (un puzle mecanico) u Hex (un chuego abstracto con profundas bases matematicas).
17	12	2024	20241217	17 d'aviento de 1913. Naixe la informatica Mary Kenneth Keller. Estió codesenrolladora d'o luengache de programación BASIC y cofundadora de l'Asociación pa l'Uso d'Ordinadors en Educación (ASCUE).
18	12	2024	20241218	18 d'aviento de 1852. Naixe l'enchenyero Leonardo Torres Quevedo. Va inventar l'escaquista, lo primer ordinador mecanico capaz de chugar a los escaques, y lo telekino, pa controlar enchenyos per medio d'ondas de radio.
19	12	2024	20241219	19 d'aviento de 1945. Naixe la fisica Claudine Hermann. Especialista en fisica d'o estau solido, treballó a nivel institucional pa amillorar la situación d'as mullers en ciencia en cheneral y en fisica en particular.
20	12	2024	20241220	20 d'aviento de 1919. Naixe, seguntes lo calandario chuliano, lo profesor de bioquimica y escritor Isaac Asimov. Va publicar conoixidas obras de divulgación cientifica y ciencia-ficción, como la Serie d'a Fundación u Yo, Robot.
21	12	2024	20241221	21 d'aviento de 1898. Marie y Pierre Curie descubren lo radio. Dimpués de retirar l'uranio d'una muestra d'uraninita, observoron que esta encara yera radioactiva per la presencia de radio, un nuevo elemento quimico.
22	12	2024	20241222	22 d'aviento de 2015. L'Asembleya Cheneral d'as Nacions Unidas apreba crear un Día Internacional anyal pa reconoixer lo rol critico d'as mullers y las ninas en a ciencia y la tecnolochía: l'11 de febrero.
23	12	2024	20241223	23 d'aviento de 1857. Naixe la quimica Helen Abbott Michael. Ye conoixida como la fundadora d'a fitoquimica, en investigar la relación entre la composición quimica de las plantas y lo suyo creiximiento.
24	12	2024	20241224	24 d'aviento de 1906. L'enchenyero canadiense Reginald Fessenden fa la primera transmisión de radio que incorporaba mosica. Lo propio Reginald va tanyer lo villancico O Holy Night con o vriolín.
25	12	2024	20241225	25 d'aviento de 1883. Naixe la quimica y estatistica Frances Wood. Prencipió treballando sobre la polimerización y la fermentación d'a uga, modificando dimpués los suyos intereses enta la estatistica medica.
26	12	2024	20241226	26 d'aviento de 2004. Ocurre lo tierratrémol de Sumatra-Andamán, un d'os mas importants nunca rechistraus (9,3 Mw u magnitut de momento). Le va seguir un devastador tsunami con mas de 280.000 muertes.
27	12	2024	20241227	27 d'aviento de 1924. Naixe la programadora Betty Jean Jennings Bartik. Estió una d'as programadoras orichinals de l'ordinador ENIAC.
28	12	2024	20241228	28 d'aviento de 1890. Naixe la biologa Berthe Kolochine-Erber. Va estar una reconoixida especialista en leptospirosi, una malotía zoonotica producida per la bacteria Leptospira interrogans.
29	12	2024	20241229	29 d'aviento de 1899. Naixe l'astronoma Vera Fedorovna Gaze. Estudió nebulosas d'emisión y planetas menors.
30	12	2024	20241230	30 d'aviento de 1924. L'astronomo Edwin Hubble anuncia la existencia d'atras galaxias distintas a la Carrera de Sant Chaime. En as suyas observacions va usar lo telescopio Hooker (de 2,54 metros), lo mas potent d'o mundo en ixas envueltas.
31	12	2024	20241231	31 d'aviento de 1930. Naixe lo profesor de matematicas Jaime Escalante. Aconsiguió que estudiants d'orichen humil destacasen per las suyas conoixencias en esta materia. La cinta Stand and Deliver contó la suya historia.
